[
  {
    "iname": "Challenge_Pok",
    "begin_at": "1/1/2016",
    "end_at": "1/1/2017 23:59",
    "prio": 999
  },
  {
    "iname": "Challenge_TSP_2021",
    "begin_at": "1/1/2016",
    "end_at": "1/1/2017 23:59",
    "prio": 999
  },
  {
    "iname": "Challenge_Beginner_Story",
    "begin_at": "1/1/2016",
    "end_at": "1/1/2017 23:59",
    "prio": 999
  },
  {
    "iname": "Challenge_Pok_2018",
    "begin_at": "1/1/2016",
    "end_at": "1/1/2017 23:59",
    "prio": 999
  },
  {
    "iname": "Challenge_AOT_2020",
    "begin_at": "1/1/2016",
    "end_at": "1/1/2017 23:59",
    "prio": 999
  },
  {
    "iname": "Challenge_RE0",
    "begin_at": "1/1/2016",
    "end_at": "1/1/2017 23:59",
    "prio": 999
  },
  {
    "iname": "Challenge_Kof",
    "begin_at": "1/1/2016",
    "end_at": "1/1/2017 23:59",
    "prio": 999
  },
  {
    "iname": "Challenge_Terry",
    "begin_at": "1/1/2016",
    "end_at": "1/1/2017 23:59",
    "prio": 999
  },
  {
    "iname": "Challenge_3Year",
    "begin_at": "1/1/2016",
    "end_at": "1/1/2017 23:59",
    "prio": 999
  },
  {
    "iname": "Challenge_Cloe",
    "begin_at": "1/1/2016",
    "end_at": "1/1/2017 23:59",
    "prio": 999
  },
  {
    "iname": "Challenge_Laevateinn",
    "begin_at": "1/1/2016",
    "end_at": "1/1/2017 23:59",
    "prio": 999
  },
  {
    "iname": "Challenge_Mcf_2019",
    "begin_at": "1/1/2016",
    "end_at": "1/1/2017 23:59",
    "prio": 999
  },
  {
    "iname": "Challenge_FF15",
    "begin_at": "1/1/2016",
    "end_at": "1/1/2017 23:59",
    "prio": 999
  },
  {
    "iname": "Challenge_500memory",
    "begin_at": "1/1/2016",
    "end_at": "1/1/2017 23:59",
    "prio": 999
  },
  {
    "iname": "Challenge_Valentine",
    "begin_at": "1/1/2016",
    "end_at": "1/1/2017 23:59",
    "prio": 999
  },
  {
    "iname": "Challenge_Enchantment",
    "begin_at": "1/1/2016",
    "end_at": "1/1/2017 23:59",
    "prio": 999
  },
  {
    "iname": "Challenge_Dis",
    "begin_at": "1/1/2016",
    "end_at": "1/1/2017 23:59",
    "prio": 999
  },
  {
    "iname": "Challenge_GL_Dis1",
    "begin_at": "1/1/2016",
    "end_at": "1/1/2017 23:59",
    "prio": 999
  },
  {
    "iname": "Challenge_GL_FF15",
    "begin_at": "1/1/2016",
    "end_at": "1/1/2017 23:59",
    "prio": 999
  },
  {
    "iname": "Challenge_GL_SUMMERSPORT",
    "begin_at": "1/1/2016",
    "end_at": "1/1/2017 23:59",
    "prio": 999
  },
  {
    "iname": "Challenge_GL_PreAnni2018",
    "begin_at": "1/1/2016",
    "end_at": "1/1/2017 23:59",
    "prio": 999
  },
  {
    "iname": "Challenge_GL_FMA1",
    "begin_at": "1/1/2016",
    "end_at": "1/1/2017 23:59",
    "prio": 999
  },
  {
    "iname": "Challenge_GL_ENLIGHT_ZAHAR",
    "begin_at": "1/1/2016",
    "end_at": "1/1/2017 23:59",
    "prio": 999
  },
  {
    "iname": "Challenge_GL_JobEnchant4",
    "begin_at": "1/1/2016",
    "end_at": "1/1/2017 23:59",
    "prio": 999
  },
  {
    "iname": "Challenge_GL_JobEnchant3",
    "begin_at": "1/1/2016",
    "end_at": "1/1/2017 23:59",
    "prio": 999
  },
  {
    "iname": "Challenge_GL_JobEnchant2",
    "begin_at": "1/1/2016",
    "end_at": "1/1/2017 23:59",
    "prio": 999
  },
  {
    "iname": "Challenge_SEKAIJU_2018",
    "begin_at": "1/1/2016",
    "end_at": "1/1/2017 23:59",
    "prio": 999
  },
  {
    "iname": "CHALLENGE_GL_EO_FENCER",
    "begin_at": "1/1/2016",
    "end_at": "1/1/2017 23:59",
    "prio": 999
  },
  {
    "iname": "CHALLENGE_GL_EO_GUNNER",
    "begin_at": "1/1/2016",
    "end_at": "1/1/2017 23:59",
    "prio": 999
  },
  {
    "iname": "Challenge_Babel_800",
    "begin_at": "1/1/2016",
    "end_at": "1/1/2017 23:59",
    "prio": 999
  },
  {
    "iname": "CHALLENGE_GL_ELE_LIGHTDARK",
    "begin_at": "1/1/2016",
    "end_at": "1/1/2017 23:59",
    "prio": 999
  },
  {
    "iname": "CHALLENGE_GL_ELE_WINDTHUNDER",
    "begin_at": "1/1/2016",
    "end_at": "1/1/2017 23:59",
    "prio": 999
  },
  {
    "iname": "CHALLENGE_GL_ELE_FIREWATER",
    "begin_at": "1/1/2016",
    "end_at": "1/1/2017 23:59",
    "prio": 999
  },
  {
    "iname": "CHALLENGE_GL_9MIL",
    "begin_at": "1/1/2016",
    "end_at": "1/1/2017 23:59",
    "prio": 999
  },
  {
    "iname": "Challenge_AOT_2018",
    "begin_at": "1/1/2016",
    "end_at": "1/1/2017 23:59",
    "prio": 999
  },
  {
    "iname": "CHALLENGE_GL_COT2_NOBTEN",
    "begin_at": "1/1/2016",
    "end_at": "1/1/2017 23:59",
    "prio": 999
  },
  {
    "iname": "CHALLENGE_GL_COT2_MIGMAG",
    "begin_at": "1/1/2016",
    "end_at": "1/1/2017 23:59",
    "prio": 999
  },
  {
    "iname": "CHALLENGE_GL_COT2_ANCREV",
    "begin_at": "1/1/2016",
    "end_at": "1/1/2017 23:59",
    "prio": 999
  },
  {
    "iname": "CHALLENGE_GL_COT2_INNSTR",
    "begin_at": "1/1/2016",
    "end_at": "1/1/2017 23:59",
    "prio": 999
  },
  {
    "iname": "Challenge_Babel_Suro",
    "begin_at": "1/1/2016",
    "end_at": "1/1/2017 23:59",
    "prio": 999
  },
  {
    "iname": "Challenge_Babel_Rust",
    "begin_at": "1/1/2016",
    "end_at": "1/1/2017 23:59",
    "prio": 999
  },
  {
    "iname": "CHALLENGE_GL_ELE_FIREWATER_RR",
    "begin_at": "1/1/2016",
    "end_at": "1/1/2017 23:59",
    "prio": 999
  },
  {
    "iname": "CHALLENGE_GL_ELE_WINDTHUNDER_RR",
    "begin_at": "1/1/2016",
    "end_at": "1/1/2017 23:59",
    "prio": 999
  },
  {
    "iname": "CHALLENGE_GL_ELE_LIGHTDARK_RR",
    "begin_at": "1/1/2016",
    "end_at": "1/1/2017 23:59",
    "prio": 999
  },
  {
    "iname": "Challenge_Interlude",
    "begin_at": "1/1/2016",
    "end_at": "1/1/2017 23:59",
    "prio": 999
  },
  {
    "iname": "Challenge_Babel_Wada",
    "begin_at": "1/1/2016",
    "end_at": "1/1/2017 23:59",
    "prio": 999
  },
  {
    "iname": "Challenge_Skill_Kaigan",
    "begin_at": "1/1/2016",
    "end_at": "1/1/2017 23:59",
    "prio": 999
  },
  {
    "iname": "Challenge_Biginner",
    "begin_at": "1/1/2016",
    "end_at": "1/1/2017 23:59",
    "prio": 999
  },
  {
    "iname": "Challenge_Chapter_5",
    "begin_at": "1/1/2016",
    "end_at": "1/1/2017 23:59",
    "prio": 999
  },
  {
    "iname": "Challenge_GL_Lunar2019",
    "begin_at": "1/1/2016",
    "end_at": "1/1/2017 23:59",
    "prio": 999
  },
  {
    "iname": "CHALLENGE_GL_COT3_FIREWATER",
    "begin_at": "1/1/2016",
    "end_at": "1/1/2017 23:59",
    "prio": 999
  },
  {
    "iname": "CHALLENGE_GL_COT3_WINDTHUNDER",
    "begin_at": "1/1/2016",
    "end_at": "1/1/2017 23:59",
    "prio": 999
  },
  {
    "iname": "CHALLENGE_GL_COT3_LIGHTDARK",
    "begin_at": "1/1/2016",
    "end_at": "1/1/2017 23:59",
    "prio": 999
  },
  {
    "iname": "Challenge_TS_2_2019",
    "begin_at": "1/1/2016",
    "end_at": "1/1/2017 23:59",
    "prio": 999
  },
  {
    "iname": "Challenge_Hagaren",
    "begin_at": "1/1/2016",
    "end_at": "1/1/2017 23:59",
    "prio": 999
  },
  {
    "iname": "Challenge_Kudan",
    "begin_at": "1/1/2016",
    "end_at": "1/1/2017 23:59",
    "prio": 999
  },
  {
    "iname": "Challenge_Skill_Kaigan_2",
    "begin_at": "1/1/2016",
    "end_at": "1/1/2017 23:59",
    "prio": 999
  },
  {
    "iname": "Challenge_TS_2019",
    "begin_at": "1/1/2016",
    "end_at": "1/1/2017 23:59",
    "prio": 999
  },
  {
    "iname": "Challenge_Suzu",
    "begin_at": "1/1/2016",
    "end_at": "1/1/2017 23:59",
    "prio": 999
  },
  {
    "iname": "Challenge_Chapter_5_4",
    "begin_at": "4/9/2020",
    "end_at": "4/22/2020 23:59",
    "prio": 999
  },
  {
    "iname": "Challenge_Skill_Kaigan_3",
    "begin_at": "4/9/2020",
    "end_at": "4/22/2020 23:59",
    "prio": 999
  },
  {
    "iname": "Challenge_Seida",
    "begin_at": "3/26/2020",
    "end_at": "4/8/2020 23:59",
    "prio": 999
  },
  {
    "iname": "Challenge_Setuna",
    "begin_at": "4/30/2020",
    "end_at": "5/13/2020 23:59",
    "prio": 999
  },
  {
    "iname": "Challenge_Blk_Tyrhung",
    "begin_at": "7/2/2020",
    "end_at": "7/22/2020 23:59",
    "prio": 999
  },
  {
    "iname": "Challenge_Skill_Kaigan_4",
    "begin_at": "7/2/2020",
    "end_at": "7/22/2020 23:59",
    "prio": 999
  },
  {
    "iname": "Challenge_GL_LisEdg",
    "begin_at": "6/25/2020",
    "end_at": "7/22/2020 23:59",
    "prio": 999
  },
  {
    "iname": "Challenge_GL_COT4_FireWater",
    "begin_at": "7/30/2020",
    "end_at": "8/5/2020 23:59",
    "prio": 999
  },
  {
    "iname": "Challenge_GL_COT4_WindThunder",
    "begin_at": "7/30/2020",
    "end_at": "8/5/2020 23:59",
    "prio": 999
  },
  {
    "iname": "Challenge_GL_COT4_LightDark",
    "begin_at": "7/30/2020",
    "end_at": "8/5/2020 23:59",
    "prio": 999
  },
  {
    "iname": "Challenge_Tiha",
    "begin_at": "8/6/2020",
    "end_at": "8/19/2020 23:59",
    "prio": 999
  },
  {
    "iname": "Challenge_Pok_5th",
    "begin_at": "7/9/2020",
    "end_at": "8/5/2020 23:59",
    "prio": 999
  },
  {
    "iname": "Challenge_Vett",
    "begin_at": "8/13/2020",
    "end_at": "8/26/2020 23:59",
    "prio": 999
  },
  {
    "iname": "Challenge_Vett_2",
    "begin_at": "8/20/2020",
    "end_at": "9/2/2020 23:59",
    "prio": 999
  },
  {
    "iname": "Challenge_Vett03",
    "begin_at": "8/27/2020",
    "end_at": "9/9/2020 23:59",
    "prio": 999
  },
  {
    "iname": "Challenge_Basi",
    "begin_at": "9/17/2020",
    "end_at": "9/30/2020 23:59",
    "prio": 999
  },
  {
    "iname": "Challenge_Zayi",
    "begin_at": "9/24/2020",
    "end_at": "10/7/2020 23:59",
    "prio": 999
  },
  {
    "iname": "Challenge_Impossible",
    "begin_at": "9/24/2020",
    "end_at": "10/7/2020 23:59",
    "prio": 999
  },
  {
    "iname": "Challenge_GL_COT5_LightDark",
    "begin_at": "10/8/2020",
    "end_at": "10/21/2020 23:59",
    "prio": 999
  },
  {
    "iname": "Challenge_GL_3YearCountdown",
    "begin_at": "10/1/2020",
    "end_at": "11/4/2020 23:59",
    "prio": 999
  },
  {
    "iname": "Challenge_GL_COT5_LightDark2",
    "begin_at": "10/22/2020",
    "end_at": "11/4/2020 23:59",
    "prio": 999
  },
  {
    "iname": "Challenge_1100",
    "begin_at": "1/1/2016",
    "end_at": "1/1/2017 23:59",
    "prio": 999
  },
  {
    "iname": "Challenge_GL_3Year",
    "begin_at": "11/5/2020",
    "end_at": "12/2/2020 23:59",
    "prio": 999
  },
  {
    "iname": "Challenge_Sakura",
    "begin_at": "12/3/2020",
    "end_at": "12/16/2020 23:59",
    "prio": 999
  },
  {
    "iname": "Challenge_CRYUNI_2018",
    "begin_at": "12/3/2020",
    "end_at": "12/16/2020 23:59",
    "prio": 999
  },
  {
    "iname": "Challenge_GL_VersionUp_V8",
    "begin_at": "12/3/2020",
    "end_at": "12/16/2020 23:59",
    "prio": 999
  },
  {
    "iname": "Challenge_Ema",
    "begin_at": "12/30/2020",
    "end_at": "1/13/2021 23:59",
    "prio": 999
  },
  {
    "iname": "Challenge_GL_NewYear_2021",
    "begin_at": "1/7/2021",
    "end_at": "1/20/2021 23:59",
    "prio": 999
  },
  {
    "iname": "Challenge_Impossible_2",
    "begin_at": "2/25/2021",
    "end_at": "3/10/2021 23:59",
    "prio": 999
  },
  {
    "iname": "Challenge_Blk_Laevateinn",
    "begin_at": "2/25/2021",
    "end_at": "3/17/2021 23:59",
    "prio": 999
  },
  {
    "iname": "Challenge_Chapter6",
    "begin_at": "2/10/2021",
    "end_at": "3/31/2021 23:59",
    "prio": 999
  },
  {
    "iname": "Challenge_GL_VersionUp_V9",
    "begin_at": "3/18/2021",
    "end_at": "4/7/2021 23:59",
    "prio": 999
  },
  {
    "iname": "Challenge_Sw_Daily_First",
    "begin_at": "4/15/2021",
    "end_at": "4/15/2021 23:59",
    "prio": 999
  },
  {
    "iname": "Challenge_Sw_Daily_Second",
    "begin_at": "4/16/2021",
    "end_at": "4/16/2021 23:59",
    "prio": 999
  },
  {
    "iname": "Challenge_Sw_Daily_Third",
    "begin_at": "4/17/2021",
    "end_at": "4/17/2021 23:59",
    "prio": 999
  },
  {
    "iname": "Challenge_Sw_Daily_Fourth",
    "begin_at": "4/18/2021",
    "end_at": "4/18/2021 23:59",
    "prio": 999
  },
  {
    "iname": "Challenge_Othi",
    "begin_at": "4/29/2021",
    "end_at": "5/11/2021 23:59",
    "prio": 999
  },
  {
    "iname": "Challenge_Kaigan",
    "begin_at": "5/6/2021",
    "end_at": "5/19/2021 23:59",
    "prio": 999
  },
  {
    "iname": "Challenge_Leychel",
    "begin_at": "5/12/2021",
    "end_at": "5/26/2021 23:59",
    "prio": 999
  },
  {
    "iname": "Challenge_Chapter6_2",
    "begin_at": "4/29/2021",
    "end_at": "5/26/2021 23:59",
    "prio": 999
  },
  {
    "iname": "Challenge_GL_12MIL",
    "begin_at": "5/6/2021",
    "end_at": "6/2/2021 23:59",
    "prio": 999
  },
  {
    "iname": "Challenge_Alma",
    "begin_at": "1/1/2016",
    "end_at": "1/1/2017 23:59",
    "prio": 999
  },
  {
    "iname": "Challenge_Blk_Laevateinn_6th",
    "begin_at": "6/3/2021",
    "end_at": "6/23/2021 23:59",
    "prio": 999
  },
  {
    "iname": "Challenge_Summer2020",
    "begin_at": "6/17/2021",
    "end_at": "6/23/2021 23:59",
    "prio": 999
  },
  {
    "iname": "Challenge_Daily_First",
    "begin_at": "6/24/2021",
    "end_at": "6/24/2021 23:59",
    "prio": 999
  },
  {
    "iname": "Challenge_Daily_Second",
    "begin_at": "6/25/2021",
    "end_at": "6/25/2021 23:59",
    "prio": 999
  },
  {
    "iname": "Challenge_Daily_Third",
    "begin_at": "6/26/2021",
    "end_at": "6/26/2021 23:59",
    "prio": 999
  },
  {
    "iname": "Challenge_Daily_Fourth",
    "begin_at": "6/27/2021",
    "end_at": "6/27/2021 23:59",
    "prio": 999
  },
  {
    "iname": "Challenge_Daily_Fifth",
    "begin_at": "6/28/2021",
    "end_at": "6/28/2021 23:59",
    "prio": 999
  },
  {
    "iname": "Challenge_Daily_Sixth",
    "begin_at": "6/29/2021",
    "end_at": "6/29/2021 23:59",
    "prio": 999
  },
  {
    "iname": "Challenge_Daily_Seventh",
    "begin_at": "6/30/2021",
    "end_at": "6/30/2021 23:59",
    "prio": 999
  },
  {
    "iname": "Challenge_Daily_Eighth",
    "begin_at": "7/1/2021",
    "end_at": "7/1/2021 23:59",
    "prio": 999
  },
  {
    "iname": "Challenge_Daily_Ninth",
    "begin_at": "7/2/2021",
    "end_at": "7/2/2021 23:59",
    "prio": 999
  },
  {
    "iname": "Challenge_Zayi_2020",
    "begin_at": "6/24/2021",
    "end_at": "7/8/2021 23:59",
    "prio": 999
  },
  {
    "iname": "Challenge_TSP_2019",
    "begin_at": "7/9/2021",
    "end_at": "7/28/2021 23:59",
    "prio": 999
  },
  {
    "iname": "Challenge_MT3",
    "begin_at": "1/1/2016",
    "end_at": "1/1/2017 23:59",
    "prio": 999
  },
  {
    "iname": "Challenge_Daily_2_First",
    "begin_at": "1/1/2016",
    "end_at": "1/1/2017 23:59",
    "prio": 999
  },
  {
    "iname": "Challenge_Daily_2_Second",
    "begin_at": "1/1/2016",
    "end_at": "1/1/2017 23:59",
    "prio": 999
  },
  {
    "iname": "Challenge_Daily_2_Third",
    "begin_at": "1/1/2016",
    "end_at": "1/1/2017 23:59",
    "prio": 999
  },
  {
    "iname": "Challenge_Daily_2_Fourth",
    "begin_at": "1/1/2016",
    "end_at": "1/1/2017 23:59",
    "prio": 999
  },
  {
    "iname": "Challenge_Daily_2_Fifth",
    "begin_at": "1/1/2016",
    "end_at": "1/1/2017 23:59",
    "prio": 999
  },
  {
    "iname": "Challenge_Daily_2_Sixth",
    "begin_at": "1/1/2016",
    "end_at": "1/1/2017 23:59",
    "prio": 999
  },
  {
    "iname": "Challenge_Ten_Command",
    "begin_at": "1/1/2016",
    "end_at": "1/1/2017 23:59",
    "prio": 999
  },
  {
    "iname": "Challenge_Irene",
    "begin_at": "9/16/2021",
    "end_at": "9/29/2021 23:59",
    "prio": 999
  },
  {
    "iname": "Challenge_GL_VersionUp_V10",
    "begin_at": "8/12/2021",
    "end_at": "9/1/2021 23:59",
    "prio": 999
  },
  {
    "iname": "Challenge_Laevateinn_2",
    "begin_at": "10/7/2021",
    "end_at": "10/20/2021 23:59",
    "prio": 999
  },
  {
    "iname": "Challenge_GL_4YearCountdown",
    "begin_at": "9/30/2021",
    "end_at": "11/2/2021 23:59",
    "prio": 999
  },
  {
    "iname": "Challenge_Rame",
    "begin_at": "10/28/2021",
    "end_at": "11/10/2021 23:59",
    "prio": 999
  },
  {
    "iname": "Challenge_GL_4Year",
    "begin_at": "11/3/2021",
    "end_at": "12/1/2021 23:59",
    "prio": 999
  },
  {
    "iname": "Challenge_TS_3_2020",
    "begin_at": "11/18/2021",
    "end_at": "12/8/2021 23:59",
    "prio": 999
  },
  {
    "iname": "Challenge_Chapter6_3",
    "begin_at": "11/11/2021",
    "end_at": "12/22/2021 23:59",
    "prio": 999
  },
  {
    "iname": "Challenge_Material",
    "begin_at": "12/16/2021",
    "end_at": "12/29/2021 23:59",
    "prio": 999
  },
  {
    "iname": "Challenge_HISHARMU_2018",
    "begin_at": "1/6/2022",
    "end_at": "1/19/2022 23:59",
    "prio": 999
  },
  {
    "iname": "Challenge_Claris",
    "begin_at": "1/6/2022",
    "end_at": "1/19/2022 23:59",
    "prio": 999
  },
  {
    "iname": "Challenge_Yomi",
    "begin_at": "12/30/2021",
    "end_at": "1/12/2022 23:59",
    "prio": 999
  },
  {
    "iname": "Challenge_Mea",
    "begin_at": "12/30/2021",
    "end_at": "1/12/2022 23:59",
    "prio": 999
  },
  {
    "iname": "Challenge_Dark_Olivier",
    "begin_at": "1/27/2022",
    "end_at": "2/10/2022 23:59",
    "prio": 999
  },
  {
    "iname": "Challenge_Cryuni_2021",
    "begin_at": "1/20/2022",
    "end_at": "2/10/2022 23:59",
    "prio": 999
  },
  {
    "iname": "Challenge_BF_2021",
    "begin_at": "1/20/2022",
    "end_at": "2/10/2022 23:59",
    "prio": 999
  },
  {
    "iname": "Challenge_Masakado",
    "begin_at": "1/20/2022",
    "end_at": "2/10/2022 23:59",
    "prio": 999
  },
  {
    "iname": "Challenge_Blk_Tyrhung_2",
    "begin_at": "3/3/2022",
    "end_at": "3/16/2022 23:59",
    "prio": 999
  },
  {
    "iname": "Challenge_Logistilla",
    "begin_at": "3/3/2022",
    "end_at": "3/16/2022 23:59",
    "prio": 999
  },
  {
    "iname": "Challenge_5th_Half",
    "begin_at": "2/24/2022",
    "end_at": "3/16/2022 23:59",
    "prio": 999
  },
  {
    "iname": "Challenge_Inazuma",
    "begin_at": "3/24/2022",
    "end_at": "4/6/2022 23:59",
    "prio": 999
  },
  {
    "iname": "Challenge_Dung",
    "begin_at": "4/7/2022",
    "end_at": "4/27/2022 23:59",
    "prio": 999
  },
  {
    "iname": "Challenge_Reyd",
    "begin_at": "5/19/2022",
    "end_at": "6/1/2022 23:59",
    "prio": 999
  },
  {
    "iname": "Challenge_1200",
    "begin_at": "6/9/2022",
    "end_at": "6/22/2022 23:59",
    "prio": 999
  },
  {
    "iname": "Challenge_Summer2021",
    "begin_at": "6/23/2022",
    "end_at": "7/6/2022 23:59",
    "prio": 999
  },
  {
    "iname": "Challenge_Glan",
    "begin_at": "7/7/2022",
    "end_at": "7/20/2022 23:59",
    "prio": 999
  },
  {
    "iname": "Challenge_Impossible_3",
    "begin_at": "7/28/2022",
    "end_at": "8/10/2022 23:59",
    "prio": 999
  },
  {
    "iname": "Challenge_Orion",
    "begin_at": "8/18/2022",
    "end_at": "8/31/2022 23:59",
    "prio": 999
  },
  {
    "iname": "Challenge_Priscila",
    "begin_at": "9/8/2022",
    "end_at": "9/21/2022 23:59",
    "prio": 999
  },
  {
    "iname": "Challenge_GL_Kasumi",
    "begin_at": "9/15/2022",
    "end_at": "9/28/2022 23:59",
    "prio": 999
  },
  {
    "iname": "Challenge_Ines",
    "begin_at": "9/15/2022",
    "end_at": "9/28/2022 23:59",
    "prio": 999
  },
  {
    "iname": "Challenge_Autumn_2021",
    "begin_at": "9/15/2022",
    "end_at": "9/28/2022 23:59",
    "prio": 999
  },
  {
    "iname": "Challenge_Vett_2020",
    "begin_at": "9/29/2022",
    "end_at": "10/12/2022 23:59",
    "prio": 999
  },
  {
    "iname": "Challenge_Budd",
    "begin_at": "9/29/2022",
    "end_at": "10/12/2022 23:59",
    "prio": 999
  },
  {
    "iname": "Challenge_POK_7th",
    "begin_at": "10/6/2022",
    "end_at": "10/19/2022 23:59",
    "prio": 999
  },
  {
    "iname": "Challenge_Spica",
    "begin_at": "10/13/2022",
    "end_at": "10/26/2022 23:59",
    "prio": 999
  },
  {
    "iname": "Challenge_Tetis",
    "begin_at": "10/20/2022",
    "end_at": "11/2/2022 23:59",
    "prio": 999
  },
  {
    "iname": "Challenge_GL_5YearCountdown",
    "begin_at": "10/20/2022",
    "end_at": "11/9/2022 23:59",
    "prio": 999
  },
  {
    "iname": "Challenge_Edgar",
    "begin_at": "10/20/2022",
    "end_at": "10/26/2022 23:59",
    "prio": 999
  },
  {
    "iname": "Challenge_Liesbet",
    "begin_at": "10/27/2022",
    "end_at": "11/2/2022 23:59",
    "prio": 999
  },
  {
    "iname": "Challenge_Kamui",
    "begin_at": "11/10/2022",
    "end_at": "11/23/2022 23:59",
    "prio": 999
  },
  {
    "iname": "Challenge_Hagane",
    "begin_at": "11/10/2022",
    "end_at": "11/23/2022 23:59",
    "prio": 999
  },
  {
    "iname": "Challenge_GL_5Year",
    "begin_at": "11/10/2022",
    "end_at": "11/30/2022 23:59",
    "prio": 999
  },
  {
    "iname": "Challenge_SB_2020",
    "begin_at": "11/17/2022",
    "end_at": "12/7/2022 23:59",
    "prio": 999
  },
  {
    "iname": "Challenge_SB_2021",
    "begin_at": "11/17/2022",
    "end_at": "12/7/2022 23:59",
    "prio": 999
  },
  {
    "iname": "Challenge_Wedding2021",
    "begin_at": "11/24/2022",
    "end_at": "12/7/2022 23:59",
    "prio": 999
  },
  {
    "iname": "Challenge_GL_Marriage",
    "begin_at": "11/24/2022",
    "end_at": "12/7/2022 23:59",
    "prio": 999
  },
  {
    "iname": "Challenge_Wedding_2018",
    "begin_at": "11/24/2022",
    "end_at": "12/7/2022 23:59",
    "prio": 999
  },
  {
    "iname": "Challenge_Eve",
    "begin_at": "11/24/2022",
    "end_at": "12/7/2022 23:59",
    "prio": 999
  },
  {
    "iname": "Challenge_Lucille",
    "begin_at": "11/24/2022",
    "end_at": "12/7/2022 23:59",
    "prio": 999
  },
  {
    "iname": "Challenge_Asuwado",
    "begin_at": "12/1/2022",
    "end_at": "12/14/2022 23:59",
    "prio": 999
  },
  {
    "iname": "Challenge_Magn",
    "begin_at": "12/1/2022",
    "end_at": "12/14/2022 23:59",
    "prio": 999
  },
  {
    "iname": "Challenge_Zophie",
    "begin_at": "12/1/2022",
    "end_at": "12/14/2022 23:59",
    "prio": 999
  },
  {
    "iname": "Challenge_Genesis",
    "begin_at": "12/8/2022",
    "end_at": "12/21/2022 23:59",
    "prio": 999
  },
  {
    "iname": "Challenge_Mielikki",
    "begin_at": "12/15/2022",
    "end_at": "12/28/2022 23:59",
    "prio": 999
  },
  {
    "iname": "Challenge_ALMA_REBECCA_Story",
    "begin_at": "12/15/2022",
    "end_at": "12/28/2022 23:59",
    "prio": 999
  },
  {
    "iname": "Challenge_ALMA_REBECCA_Kaiko",
    "begin_at": "12/15/2022",
    "end_at": "12/28/2022 23:59",
    "prio": 999
  },
  {
    "iname": "Challenge_GL_SUMMER2018",
    "begin_at": "1/5/2023",
    "end_at": "1/18/2023 23:59",
    "prio": 999
  },
  {
    "iname": "Challenge_Pok_2",
    "begin_at": "1/5/2023",
    "end_at": "1/18/2023 23:59",
    "prio": 999
  },
  {
    "iname": "Challenge_Ren",
    "begin_at": "1/12/2023",
    "end_at": "1/26/2023 23:59",
    "prio": 999
  },
  {
    "iname": "Challenge_Dartagnan",
    "begin_at": "1/12/2023",
    "end_at": "1/26/2023 23:59",
    "prio": 999
  },
  {
    "iname": "Challenge_Kaya",
    "begin_at": "1/1/2022",
    "end_at": "3/3/2022 23:59",
    "prio": 999
  },
  {
    "iname": "Challenge_Lavi",
    "begin_at": "1/1/2022",
    "end_at": "3/3/2022 23:59",
    "prio": 999
  },
  {
    "iname": "Challenge_Ishuna",
    "begin_at": "1/1/2022",
    "end_at": "3/3/2022 23:59",
    "prio": 999
  },
  {
    "iname": "Challenge_Rachel",
    "begin_at": "1/1/2022",
    "end_at": "3/3/2022 23:59",
    "prio": 999
  },
  {
    "iname": "Challenge_Easter_2019",
    "begin_at": "1/1/2022",
    "end_at": "3/3/2022 23:59",
    "prio": 999
  },
  {
    "iname": "Challenge_Harvest",
    "begin_at": "1/1/2022",
    "end_at": "3/3/2022 23:59",
    "prio": 999
  },
  {
    "iname": "Challenge_Rosa",
    "begin_at": "1/1/2022",
    "end_at": "3/3/2022 23:59",
    "prio": 999
  },
  {
    "iname": "Challenge_UNDOUKAI_2018",
    "begin_at": "1/1/2022",
    "end_at": "3/3/2022 23:59",
    "prio": 999
  },
  {
    "iname": "Challenge_WONDERFUL_2018",
    "begin_at": "1/1/2022",
    "end_at": "3/3/2022 23:59",
    "prio": 999
  },
  {
    "iname": "Challenge_Pirate",
    "begin_at": "1/1/2022",
    "end_at": "3/3/2022 23:59",
    "prio": 999
  },
  {
    "iname": "Challenge_Mizugi",
    "begin_at": "1/1/2022",
    "end_at": "3/3/2022 23:59",
    "prio": 999
  },
  {
    "iname": "Challenge_Shenmei",
    "begin_at": "1/1/2022",
    "end_at": "3/3/2022 23:59",
    "prio": 999
  },
  {
    "iname": "Challenge_Yukata",
    "begin_at": "1/1/2022",
    "end_at": "3/3/2022 23:59",
    "prio": 999
  },
  {
    "iname": "Challenge_GL_Valentine1",
    "begin_at": "1/1/2022",
    "end_at": "3/3/2022 23:59",
    "prio": 999
  },
  {
    "iname": "Challenge_GL_Valentine2",
    "begin_at": "1/1/2022",
    "end_at": "3/3/2022 23:59",
    "prio": 999
  },
  {
    "iname": "Challenge_Valentine_2019",
    "begin_at": "1/1/2022",
    "end_at": "3/3/2022 23:59",
    "prio": 999
  },
  {
    "iname": "Challenge_Valentine_2020",
    "begin_at": "1/1/2022",
    "end_at": "3/3/2022 23:59",
    "prio": 999
  },
  {
    "iname": "Challenge_Elizabeth",
    "begin_at": "1/1/2022",
    "end_at": "3/3/2022 23:59",
    "prio": 999
  },
  {
    "iname": "Challenge_Reim",
    "begin_at": "1/1/2022",
    "end_at": "3/3/2022 23:59",
    "prio": 999
  },
  {
    "iname": "Challenge_Izayoi",
    "begin_at": "1/1/2022",
    "end_at": "3/3/2022 23:59",
    "prio": 999
  },
  {
    "iname": "Challenge_Cada",
    "begin_at": "1/19/2023",
    "end_at": "2/1/2023 23:59",
    "prio": 998
  },
  {
    "iname": "Challenge_GL_MH_1",
    "begin_at": "1/26/2023",
    "end_at": "2/15/2023 23:59",
    "prio": 997
  },
  {
    "iname": "Challenge_GL_VH_1",
    "begin_at": "1/26/2023",
    "end_at": "2/15/2023 23:59",
    "prio": 996
  },
  {
    "iname": "Challenge_Normal",
    "prio": 995
  },
  {
    "iname": "Challenge_5Year",
    "prio": 994
  },
  {
    "iname": "Challenge_4Year",
    "prio": 993
  },
  {
    "iname": "Challenge_2Year",
    "prio": 992
  },
  {
    "iname": "Challenge_GL_JobEnchant1",
    "prio": 991
  },
  {
    "iname": "Challenge_GL_MainStory",
    "prio": 990
  },
  {
    "iname": "Challenge_GL_3Year_Memento",
    "prio": 989
  }
]