[
  {
    "iname": "CT_GROUP_GL_ORIGINAL",
    "concept_card_groups": [
      "TS_SUBGROUP_GL_ORIGINAL"
    ],
    "fire": 0,
    "water": 0,
    "wind": 0,
    "thunder": 0,
    "shine": 0,
    "dark": 0
  },
  {
    "iname": "CT_GL_ALL",
    "unit_groups": [
      "UG_SORT_GL_ORIGINAL"
    ],
    "fire": 0,
    "water": 0,
    "wind": 0,
    "thunder": 0,
    "shine": 0,
    "dark": 0
  },
  {
    "iname": "CT_TEST_01",
    "units": [
      "UN_V2_CLOE",
      "UN_V2_YOMI"
    ],
    "jobs": [
      "JB_GUA_TYPE_HEALING"
    ],
    "unit_groups": [
      "UG_ENVIRIA_PLUS_UROBOROS"
    ],
    "fire": 1,
    "water": 0,
    "wind": 0,
    "thunder": 0,
    "shine": 1,
    "dark": 0
  },
  {
    "iname": "CT_CRY_ARTH_01",
    "units": [
      "UN_V2_CRY_ARTHUR"
    ],
    "fire": 0,
    "water": 0,
    "wind": 0,
    "thunder": 0,
    "shine": 0,
    "dark": 0
  },
  {
    "iname": "CT_CRY_ARTH_02",
    "job_groups": [
      "JG_SEI_GUA"
    ],
    "fire": 0,
    "water": 0,
    "wind": 0,
    "thunder": 0,
    "shine": 0,
    "dark": 0
  },
  {
    "iname": "CT_LOST",
    "birth_id": 11,
    "fire": 0,
    "water": 0,
    "wind": 0,
    "thunder": 0,
    "shine": 0,
    "dark": 0
  },
  {
    "iname": "CT_LOST_ACHAD_02_2",
    "unit_groups": [
      "UG_TEN_CMNDMNTS",
      "UG_UROBOROS"
    ],
    "fire": 0,
    "water": 0,
    "wind": 0,
    "thunder": 0,
    "shine": 0,
    "dark": 0
  },
  {
    "iname": "CT_WADA_YOMI_01",
    "birth_id": 8,
    "fire": 0,
    "water": 0,
    "wind": 0,
    "thunder": 0,
    "shine": 0,
    "dark": 0
  },
  {
    "iname": "CT_WADA_YOMI_01_3",
    "unit_groups": [
      "UG_UROBOROS"
    ],
    "fire": 0,
    "water": 0,
    "wind": 0,
    "thunder": 0,
    "shine": 0,
    "dark": 0
  },
  {
    "iname": "CT_WADA_YOMI_01_2",
    "unit_groups": [
      "UG_YOMI",
      "UG_UROBOROS"
    ],
    "fire": 0,
    "water": 0,
    "wind": 0,
    "thunder": 0,
    "shine": 0,
    "dark": 0
  },
  {
    "iname": "CT_WADA_FUJICA_01",
    "unit_groups": [
      "UG_UROBOROS"
    ],
    "fire": 0,
    "water": 0,
    "wind": 0,
    "thunder": 0,
    "shine": 0,
    "dark": 0
  },
  {
    "iname": "CT_WADA_FUJICA_01_3",
    "birth_id": 8,
    "fire": 0,
    "water": 0,
    "wind": 0,
    "thunder": 0,
    "shine": 0,
    "dark": 0
  },
  {
    "iname": "CT_WADA_FUJICA_01_2",
    "unit_groups": [
      "UG_FUJICA_HAZUKI",
      "UG_UROBOROS"
    ],
    "fire": 0,
    "water": 0,
    "wind": 0,
    "thunder": 0,
    "shine": 0,
    "dark": 0
  },
  {
    "iname": "CT_WRATHTRIZ",
    "birth_id": 2,
    "fire": 0,
    "water": 0,
    "wind": 0,
    "thunder": 0,
    "shine": 0,
    "dark": 0
  },
  {
    "iname": "CT_WADA",
    "birth_id": 8,
    "fire": 0,
    "water": 0,
    "wind": 0,
    "thunder": 0,
    "shine": 0,
    "dark": 0
  },
  {
    "iname": "CT_DESERT",
    "birth_id": 9,
    "fire": 0,
    "water": 0,
    "wind": 0,
    "thunder": 0,
    "shine": 0,
    "dark": 0
  },
  {
    "iname": "CT_UROBOROS",
    "unit_groups": [
      "UG_UROBOROS"
    ],
    "fire": 0,
    "water": 0,
    "wind": 0,
    "thunder": 0,
    "shine": 0,
    "dark": 0
  },
  {
    "iname": "CT_ALMA_RIZ_REBE",
    "unit_groups": [
      "UG_ALMA_RIZ_REBE"
    ],
    "fire": 0,
    "water": 0,
    "wind": 0,
    "thunder": 0,
    "shine": 0,
    "dark": 0
  },
  {
    "iname": "CT_LUST",
    "birth_id": 4,
    "fire": 0,
    "water": 0,
    "wind": 0,
    "thunder": 0,
    "shine": 0,
    "dark": 0
  },
  {
    "iname": "CT_ENVYRIA",
    "birth_id": 1,
    "fire": 0,
    "water": 0,
    "wind": 0,
    "thunder": 0,
    "shine": 0,
    "dark": 0
  },
  {
    "iname": "CT_NORTH",
    "birth_id": 10,
    "fire": 0,
    "water": 0,
    "wind": 0,
    "thunder": 0,
    "shine": 0,
    "dark": 0
  },
  {
    "iname": "CT_TEN_CMNDMNTS",
    "unit_groups": [
      "UG_TEN_CMNDMNTS"
    ],
    "fire": 0,
    "water": 0,
    "wind": 0,
    "thunder": 0,
    "shine": 0,
    "dark": 0
  },
  {
    "iname": "CT_ZAYI",
    "unit_groups": [
      "UG_ZAYI"
    ],
    "fire": 0,
    "water": 0,
    "wind": 0,
    "thunder": 0,
    "shine": 0,
    "dark": 0
  },
  {
    "iname": "CT_CADA_MIUN",
    "unit_groups": [
      "UG_CADA_MIUN"
    ],
    "fire": 0,
    "water": 0,
    "wind": 0,
    "thunder": 0,
    "shine": 0,
    "dark": 0
  },
  {
    "iname": "CT_VIER",
    "unit_groups": [
      "UG_VIER"
    ],
    "fire": 0,
    "water": 0,
    "wind": 0,
    "thunder": 0,
    "shine": 0,
    "dark": 0
  },
  {
    "iname": "CT_SEIKYOU_KIGHTS",
    "unit_groups": [
      "UG_SEIKYOU_KIGHTS"
    ],
    "fire": 0,
    "water": 0,
    "wind": 0,
    "thunder": 0,
    "shine": 0,
    "dark": 0
  },
  {
    "iname": "CT_SEKAIJU",
    "unit_groups": [
      "UG_SEKAIJU"
    ],
    "fire": 0,
    "water": 0,
    "wind": 0,
    "thunder": 0,
    "shine": 0,
    "dark": 0
  },
  {
    "iname": "CT_SLOTH",
    "birth_id": 3,
    "fire": 0,
    "water": 0,
    "wind": 0,
    "thunder": 0,
    "shine": 0,
    "dark": 0
  },
  {
    "iname": "CT_REBE",
    "unit_groups": [
      "UG_REBECCA"
    ],
    "fire": 0,
    "water": 0,
    "wind": 0,
    "thunder": 0,
    "shine": 0,
    "dark": 0
  },
  {
    "iname": "CT_AOT",
    "unit_groups": [
      "UG_AOT"
    ],
    "fire": 0,
    "water": 0,
    "wind": 0,
    "thunder": 0,
    "shine": 0,
    "dark": 0
  },
  {
    "iname": "CT_YUDI_BASI_BUD_AOT",
    "unit_groups": [
      "UG_YUDI_BASI_BUD_AOT"
    ],
    "fire": 0,
    "water": 0,
    "wind": 0,
    "thunder": 0,
    "shine": 0,
    "dark": 0
  },
  {
    "iname": "CT_AOT02",
    "unit_groups": [
      "UG_AOT02"
    ],
    "fire": 0,
    "water": 0,
    "wind": 0,
    "thunder": 0,
    "shine": 0,
    "dark": 0
  },
  {
    "iname": "CT_SLOTH_FIRE",
    "birth_id": 3,
    "fire": 1,
    "water": 0,
    "wind": 0,
    "thunder": 0,
    "shine": 0,
    "dark": 0
  },
  {
    "iname": "CT_SAGA",
    "birth_id": 7,
    "fire": 0,
    "water": 0,
    "wind": 0,
    "thunder": 0,
    "shine": 0,
    "dark": 0
  },
  {
    "iname": "CT_GREED_WOMEN",
    "sex": 2,
    "birth_id": 6,
    "fire": 0,
    "water": 0,
    "wind": 0,
    "thunder": 0,
    "shine": 0,
    "dark": 0
  },
  {
    "iname": "CT_GREED",
    "birth_id": 6,
    "fire": 0,
    "water": 0,
    "wind": 0,
    "thunder": 0,
    "shine": 0,
    "dark": 0
  },
  {
    "iname": "CT_JOB_SEN_UROB01",
    "job_groups": [
      "JG_JOB_SEN_UROB01"
    ],
    "fire": 0,
    "water": 0,
    "wind": 0,
    "thunder": 0,
    "shine": 0,
    "dark": 0
  },
  {
    "iname": "CT_OTHER",
    "birth_id": 100,
    "fire": 0,
    "water": 0,
    "wind": 0,
    "thunder": 0,
    "shine": 0,
    "dark": 0
  },
  {
    "iname": "CT_GRATONI",
    "birth_id": 5,
    "fire": 0,
    "water": 0,
    "wind": 0,
    "thunder": 0,
    "shine": 0,
    "dark": 0
  },
  {
    "iname": "CT_GRATONI_THUNDER",
    "birth_id": 5,
    "fire": 0,
    "water": 0,
    "wind": 0,
    "thunder": 1,
    "shine": 0,
    "dark": 0
  },
  {
    "iname": "CT_KAJISHI_UROB",
    "job_groups": [
      "JG_KAJISJI_UROB"
    ],
    "fire": 0,
    "water": 0,
    "wind": 0,
    "thunder": 0,
    "shine": 0,
    "dark": 0
  },
  {
    "iname": "CT_WADA_WOMEN",
    "sex": 2,
    "birth_id": 8,
    "fire": 0,
    "water": 0,
    "wind": 0,
    "thunder": 0,
    "shine": 0,
    "dark": 0
  },
  {
    "iname": "CT_MAH_FIRE",
    "jobs": [
      "JB_MAH_FIRE"
    ],
    "fire": 0,
    "water": 0,
    "wind": 0,
    "thunder": 0,
    "shine": 0,
    "dark": 0
  },
  {
    "iname": "CT_MAH_WIND",
    "jobs": [
      "JB_MAH_WIND"
    ],
    "fire": 0,
    "water": 0,
    "wind": 0,
    "thunder": 0,
    "shine": 0,
    "dark": 0
  },
  {
    "iname": "CT_MAH_WATER",
    "jobs": [
      "JB_MAH_WATER"
    ],
    "fire": 0,
    "water": 0,
    "wind": 0,
    "thunder": 0,
    "shine": 0,
    "dark": 0
  },
  {
    "iname": "CT_MAH_THUNDER",
    "jobs": [
      "JB_MAH_THUNDER"
    ],
    "fire": 0,
    "water": 0,
    "wind": 0,
    "thunder": 0,
    "shine": 0,
    "dark": 0
  },
  {
    "iname": "CT_GROUP_ENVYRIA",
    "concept_card_groups": [
      "TS_GROUP_ENVYRIA"
    ],
    "fire": 0,
    "water": 0,
    "wind": 0,
    "thunder": 0,
    "shine": 0,
    "dark": 0
  },
  {
    "iname": "CT_GROUP_GLUTTONY",
    "concept_card_groups": [
      "TS_GROUP_GLUTTONY"
    ],
    "fire": 0,
    "water": 0,
    "wind": 0,
    "thunder": 0,
    "shine": 0,
    "dark": 0
  },
  {
    "iname": "CT_GROUP_GREED",
    "concept_card_groups": [
      "TS_GROUP_GREED"
    ],
    "fire": 0,
    "water": 0,
    "wind": 0,
    "thunder": 0,
    "shine": 0,
    "dark": 0
  },
  {
    "iname": "CT_GROUP_SAGA",
    "concept_card_groups": [
      "TS_GROUP_SAGA"
    ],
    "fire": 0,
    "water": 0,
    "wind": 0,
    "thunder": 0,
    "shine": 0,
    "dark": 0
  },
  {
    "iname": "CT_GROUP_DESERT",
    "concept_card_groups": [
      "TS_GROUP_DESERT"
    ],
    "fire": 0,
    "water": 0,
    "wind": 0,
    "thunder": 0,
    "shine": 0,
    "dark": 0
  },
  {
    "iname": "CT_GROUP_SLOTH",
    "concept_card_groups": [
      "TS_GROUP_SLOTH"
    ],
    "fire": 0,
    "water": 0,
    "wind": 0,
    "thunder": 0,
    "shine": 0,
    "dark": 0
  },
  {
    "iname": "CT_GROUP_NORTH",
    "concept_card_groups": [
      "TS_GROUP_NORTH"
    ],
    "fire": 0,
    "water": 0,
    "wind": 0,
    "thunder": 0,
    "shine": 0,
    "dark": 0
  },
  {
    "iname": "CT_GROUP_WRATH",
    "concept_card_groups": [
      "TS_GROUP_WRATH"
    ],
    "fire": 0,
    "water": 0,
    "wind": 0,
    "thunder": 0,
    "shine": 0,
    "dark": 0
  },
  {
    "iname": "CT_GROUP_LUST",
    "concept_card_groups": [
      "TS_GROUP_LUST"
    ],
    "fire": 0,
    "water": 0,
    "wind": 0,
    "thunder": 0,
    "shine": 0,
    "dark": 0
  },
  {
    "iname": "CT_GROUP_LOST",
    "concept_card_groups": [
      "TS_GROUP_LOST"
    ],
    "fire": 0,
    "water": 0,
    "wind": 0,
    "thunder": 0,
    "shine": 0,
    "dark": 0
  },
  {
    "iname": "CT_GROUP_WADA",
    "concept_card_groups": [
      "TS_GROUP_WADA"
    ],
    "fire": 0,
    "water": 0,
    "wind": 0,
    "thunder": 0,
    "shine": 0,
    "dark": 0
  },
  {
    "iname": "CT_SUBGROUP_HIENKISHI",
    "concept_card_groups": [
      "TS_SUBGROUP_HIENKISHI"
    ],
    "fire": 0,
    "water": 0,
    "wind": 0,
    "thunder": 0,
    "shine": 0,
    "dark": 0
  },
  {
    "iname": "CT_SUBGROUP_SOUENKISHI",
    "concept_card_groups": [
      "TS_SUBGROUP_SOUENKISHI"
    ],
    "fire": 0,
    "water": 0,
    "wind": 0,
    "thunder": 0,
    "shine": 0,
    "dark": 0
  },
  {
    "iname": "CT_SUBGROUP_SEIKYOUKISHI",
    "concept_card_groups": [
      "TS_SUBGROUP_SEIKYOUKISHI"
    ],
    "fire": 0,
    "water": 0,
    "wind": 0,
    "thunder": 0,
    "shine": 0,
    "dark": 0
  },
  {
    "iname": "CT_SUBGROUP_ENVYRIA_ORCHESTRA",
    "concept_card_groups": [
      "TS_SUBGROUP_ENVYRIA_ORCHESTRA"
    ],
    "fire": 0,
    "water": 0,
    "wind": 0,
    "thunder": 0,
    "shine": 0,
    "dark": 0
  },
  {
    "iname": "CT_SUBGROUP_ENVYRIA_KNIGHT",
    "concept_card_groups": [
      "TS_SUBGROUP_ENVYRIA_KNIGHT"
    ],
    "fire": 0,
    "water": 0,
    "wind": 0,
    "thunder": 0,
    "shine": 0,
    "dark": 0
  },
  {
    "iname": "CT_SUBGROUP_GREED_ARMY",
    "concept_card_groups": [
      "TS_SUBGROUP_GREED_ARMY"
    ],
    "fire": 0,
    "water": 0,
    "wind": 0,
    "thunder": 0,
    "shine": 0,
    "dark": 0
  },
  {
    "iname": "CT_SUBGROUP_SHADOWMESSIAH",
    "concept_card_groups": [
      "TS_SUBGROUP_SHADOWMESSIAH"
    ],
    "fire": 0,
    "water": 0,
    "wind": 0,
    "thunder": 0,
    "shine": 0,
    "dark": 0
  },
  {
    "iname": "CT_SUBGROUP_JIKKAI",
    "concept_card_groups": [
      "TS_SUBGROUP_JIKKAI"
    ],
    "fire": 0,
    "water": 0,
    "wind": 0,
    "thunder": 0,
    "shine": 0,
    "dark": 0
  },
  {
    "iname": "CT_ELEMENT_FIRE",
    "fire": 1,
    "water": 0,
    "wind": 0,
    "thunder": 0,
    "shine": 0,
    "dark": 0
  },
  {
    "iname": "CT_ELEMENT_WATER",
    "fire": 0,
    "water": 1,
    "wind": 0,
    "thunder": 0,
    "shine": 0,
    "dark": 0
  },
  {
    "iname": "CT_ELEMENT_DARK",
    "fire": 0,
    "water": 0,
    "wind": 0,
    "thunder": 0,
    "shine": 0,
    "dark": 1
  },
  {
    "iname": "CT_ELEMENT_SHINE",
    "fire": 0,
    "water": 0,
    "wind": 0,
    "thunder": 0,
    "shine": 1,
    "dark": 0
  },
  {
    "iname": "CT_SUBGROUP_MCF",
    "concept_card_groups": [
      "TS_SUBGROUP_MCF"
    ],
    "fire": 0,
    "water": 0,
    "wind": 0,
    "thunder": 0,
    "shine": 0,
    "dark": 0
  },
  {
    "iname": "CT_SUBGROUP_SHAYNA_FUNCLUB",
    "concept_card_groups": [
      "TS_SUBGROUP_SHAYNA_FUNCLUB"
    ],
    "fire": 0,
    "water": 0,
    "wind": 0,
    "thunder": 0,
    "shine": 0,
    "dark": 0
  },
  {
    "iname": "CT_SUBGROUP_WADA_BUKE",
    "concept_card_groups": [
      "TS_SUBGROUP_WADA_BUKE"
    ],
    "fire": 0,
    "water": 0,
    "wind": 0,
    "thunder": 0,
    "shine": 0,
    "dark": 0
  },
  {
    "iname": "CT_SUBGROUP_FGG",
    "concept_card_groups": [
      "TS_SUBGROUP_FGG"
    ],
    "fire": 0,
    "water": 0,
    "wind": 0,
    "thunder": 0,
    "shine": 0,
    "dark": 0
  },
  {
    "iname": "CT_SUBGROUP_WRATH_KNIGHT",
    "concept_card_groups": [
      "TS_GROUP_WRATH_KNIGHT"
    ],
    "fire": 0,
    "water": 0,
    "wind": 0,
    "thunder": 0,
    "shine": 0,
    "dark": 0
  },
  {
    "iname": "CT_HEROES",
    "unit_groups": [
      "UG_HEROES"
    ],
    "fire": 0,
    "water": 0,
    "wind": 0,
    "thunder": 0,
    "shine": 0,
    "dark": 0
  },
  {
    "iname": "CT_SUBGROUP_SABAKUTAMI",
    "concept_card_groups": [
      "TS_SUBGROUP_SABAKUTAMI"
    ],
    "fire": 0,
    "water": 0,
    "wind": 0,
    "thunder": 0,
    "shine": 0,
    "dark": 0
  },
  {
    "iname": "CT_LIES_JOB3",
    "units": [
      "UN_V2_LIESBET"
    ],
    "jobs": [
      "JB_LIES_3"
    ],
    "fire": 0,
    "water": 0,
    "wind": 0,
    "thunder": 0,
    "shine": 0,
    "dark": 0
  },
  {
    "iname": "CT_SUBGROUP_KAIZOKU",
    "concept_card_groups": [
      "TS_SUBGROUP_KAIZOKU"
    ],
    "fire": 0,
    "water": 0,
    "wind": 0,
    "thunder": 0,
    "shine": 0,
    "dark": 0
  },
  {
    "iname": "CT_SUBGROUP_TS",
    "concept_card_groups": [
      "TS_SUBGROUP_TS"
    ],
    "fire": 0,
    "water": 0,
    "wind": 0,
    "thunder": 0,
    "shine": 0,
    "dark": 0
  },
  {
    "iname": "CT_SUBGROUP_COLLABO",
    "concept_card_groups": [
      "TS_SUBGROUP_COLLABO"
    ],
    "fire": 0,
    "water": 0,
    "wind": 0,
    "thunder": 0,
    "shine": 0,
    "dark": 0
  },
  {
    "iname": "CT_SUBGROUP_TSP",
    "concept_card_groups": [
      "TS_SUBGROUP_TSP"
    ],
    "fire": 0,
    "water": 0,
    "wind": 0,
    "thunder": 0,
    "shine": 0,
    "dark": 0
  },
  {
    "iname": "CT_SUBGROUP_CRY",
    "concept_card_groups": [
      "TS_SUBGROUP_CRY"
    ],
    "fire": 0,
    "water": 0,
    "wind": 0,
    "thunder": 0,
    "shine": 0,
    "dark": 0
  },
  {
    "iname": "CT_SUBGROUP_BF",
    "concept_card_groups": [
      "TS_SUBGROUP_BF"
    ],
    "fire": 0,
    "water": 0,
    "wind": 0,
    "thunder": 0,
    "shine": 0,
    "dark": 0
  },
  {
    "iname": "CT_SUBGROUP_SB",
    "concept_card_groups": [
      "TS_SUBGROUP_SB"
    ],
    "fire": 0,
    "water": 0,
    "wind": 0,
    "thunder": 0,
    "shine": 0,
    "dark": 0
  },
  {
    "iname": "CT_SAM_MFEN_UROB01",
    "job_groups": [
      "JG_SAM_MFEN_UROB01"
    ],
    "fire": 0,
    "water": 0,
    "wind": 0,
    "thunder": 0,
    "shine": 0,
    "dark": 0
  },
  {
    "iname": "CT_SLOTH_THUNDER",
    "birth_id": 3,
    "fire": 0,
    "water": 0,
    "wind": 0,
    "thunder": 1,
    "shine": 0,
    "dark": 0
  },
  {
    "iname": "CT_ELEMENT_WIND",
    "fire": 0,
    "water": 0,
    "wind": 1,
    "thunder": 0,
    "shine": 0,
    "dark": 0
  },
  {
    "iname": "CT_ELEMENT_THUNDER",
    "fire": 0,
    "water": 0,
    "wind": 0,
    "thunder": 1,
    "shine": 0,
    "dark": 0
  },
  {
    "iname": "CT_SUBGROUP_AOT",
    "concept_card_groups": [
      "TS_SUBGROUP_AOT"
    ],
    "fire": 0,
    "water": 0,
    "wind": 0,
    "thunder": 0,
    "shine": 0,
    "dark": 0
  },
  {
    "iname": "CT_SUBGROUP_RE0",
    "concept_card_groups": [
      "TS_SUBGROUP_RE0"
    ],
    "fire": 0,
    "water": 0,
    "wind": 0,
    "thunder": 0,
    "shine": 0,
    "dark": 0
  },
  {
    "iname": "CT_SUBGROUP_SEIKYOU_MAGNUS",
    "concept_card_groups": [
      "TS_SUBGROUP_SEIKYOU_MAGNUS"
    ],
    "fire": 0,
    "water": 0,
    "wind": 0,
    "thunder": 0,
    "shine": 0,
    "dark": 0
  },
  {
    "iname": "CT_SUBGROUP_SLOTH_MECH",
    "concept_card_groups": [
      "TS_SUBGROUP_SLOTH_MECH"
    ],
    "fire": 0,
    "water": 0,
    "wind": 0,
    "thunder": 0,
    "shine": 0,
    "dark": 0
  },
  {
    "iname": "CT_SUBGROUP_KOF",
    "concept_card_groups": [
      "TS_SUBGROUP_KOF"
    ],
    "fire": 0,
    "water": 0,
    "wind": 0,
    "thunder": 0,
    "shine": 0,
    "dark": 0
  },
  {
    "iname": "CT_ELEMENT_FIRE_WATER",
    "fire": 1,
    "water": 1,
    "wind": 0,
    "thunder": 0,
    "shine": 0,
    "dark": 0
  },
  {
    "iname": "CT_ELEMENT_THUNDER_WIND",
    "fire": 0,
    "water": 0,
    "wind": 1,
    "thunder": 1,
    "shine": 0,
    "dark": 0
  },
  {
    "iname": "CT_ELEMENT_FIRE_THUNDER",
    "fire": 1,
    "water": 0,
    "wind": 0,
    "thunder": 1,
    "shine": 0,
    "dark": 0
  },
  {
    "iname": "CT_ELEMENT_WATER_WIND",
    "fire": 0,
    "water": 1,
    "wind": 1,
    "thunder": 0,
    "shine": 0,
    "dark": 0
  },
  {
    "iname": "CT_SUBGROUP_LUST_SCHOOL",
    "concept_card_groups": [
      "TS_SUBGROUP_LUST_SCHOOL"
    ],
    "fire": 0,
    "water": 0,
    "wind": 0,
    "thunder": 0,
    "shine": 0,
    "dark": 0
  },
  {
    "iname": "CT_ELEMENT_NOT_FIRE_WATER",
    "fire": 0,
    "water": 0,
    "wind": 1,
    "thunder": 1,
    "shine": 1,
    "dark": 1
  },
  {
    "iname": "CT_ELEMENT_FIRE_WATER_SHINE",
    "fire": 1,
    "water": 1,
    "wind": 0,
    "thunder": 0,
    "shine": 1,
    "dark": 0
  },
  {
    "iname": "CT_ELEMENT_FIRE_WATER_DARK",
    "fire": 1,
    "water": 1,
    "wind": 0,
    "thunder": 0,
    "shine": 0,
    "dark": 1
  },
  {
    "iname": "CT_ELEMENT_FIRE_WIND_SHINE_DARK",
    "fire": 1,
    "water": 0,
    "wind": 1,
    "thunder": 0,
    "shine": 1,
    "dark": 0
  },
  {
    "iname": "CT_ELEMENT_WATER_THUNDER_SHINE_DARK",
    "fire": 0,
    "water": 1,
    "wind": 0,
    "thunder": 1,
    "shine": 0,
    "dark": 1
  },
  {
    "iname": "CT_HEROES_REBECCA_ALMA",
    "unit_groups": [
      "UG_HEROES_REBECCA_ALMA"
    ],
    "fire": 0,
    "water": 0,
    "wind": 0,
    "thunder": 0,
    "shine": 0,
    "dark": 0
  },
  {
    "iname": "CT_SUBGROUP_MT3",
    "concept_card_groups": [
      "TS_SUBGROUP_MT3"
    ],
    "fire": 0,
    "water": 0,
    "wind": 0,
    "thunder": 0,
    "shine": 0,
    "dark": 0
  },
  {
    "iname": "CT_SUBGROUP_DUNG",
    "concept_card_groups": [
      "TS_SUBGROUP_DUNG"
    ],
    "fire": 0,
    "water": 0,
    "wind": 0,
    "thunder": 0,
    "shine": 0,
    "dark": 0
  },
  {
    "iname": "CT_SUBGROUP_GENESIS",
    "concept_card_groups": [
      "TS_SUBGROUP_GENESIS"
    ],
    "fire": 0,
    "water": 0,
    "wind": 0,
    "thunder": 0,
    "shine": 0,
    "dark": 0
  },
  {
    "iname": "CT_SUBGROUP_GT",
    "concept_card_groups": [
      "TS_SUBGROUP_GT"
    ],
    "fire": 0,
    "water": 0,
    "wind": 0,
    "thunder": 0,
    "shine": 0,
    "dark": 0
  },
  {
    "iname": "CT_SUBGROUP_JK",
    "concept_card_groups": [
      "TS_SUBGROUP_JK"
    ],
    "fire": 0,
    "water": 0,
    "wind": 0,
    "thunder": 0,
    "shine": 0,
    "dark": 0
  },
  {
    "iname": "CT_SUBGROUP_ENVYRIA_AREA",
    "concept_card_groups": [
      "TS_SUBGROUP_ENVYRIA_AREA"
    ],
    "fire": 0,
    "water": 0,
    "wind": 0,
    "thunder": 0,
    "shine": 0,
    "dark": 0
  },
  {
    "iname": "CT_SUBGROUP_SLOTH_AREA",
    "concept_card_groups": [
      "TS_SUBGROUP_SLOTH_AREA"
    ],
    "fire": 0,
    "water": 0,
    "wind": 0,
    "thunder": 0,
    "shine": 0,
    "dark": 0
  },
  {
    "iname": "CT_SUBGROUP_LUST_AREA",
    "concept_card_groups": [
      "TS_SUBGROUP_LUST_AREA"
    ],
    "fire": 0,
    "water": 0,
    "wind": 0,
    "thunder": 0,
    "shine": 0,
    "dark": 0
  },
  {
    "iname": "CT_SUBGROUP_GLUTTONY_AREA",
    "concept_card_groups": [
      "TS_SUBGROUP_GLUTTONY_AREA"
    ],
    "fire": 0,
    "water": 0,
    "wind": 0,
    "thunder": 0,
    "shine": 0,
    "dark": 0
  },
  {
    "iname": "CT_SUBGROUP_WRATH_AREA",
    "concept_card_groups": [
      "TS_SUBGROUP_WRATH_AREA"
    ],
    "fire": 0,
    "water": 0,
    "wind": 0,
    "thunder": 0,
    "shine": 0,
    "dark": 0
  },
  {
    "iname": "CT_SUBGROUP_GREED_AREA",
    "concept_card_groups": [
      "TS_SUBGROUP_GREED_AREA"
    ],
    "fire": 0,
    "water": 0,
    "wind": 0,
    "thunder": 0,
    "shine": 0,
    "dark": 0
  },
  {
    "iname": "CT_SUBGROUP_NORTH_AREA",
    "concept_card_groups": [
      "TS_SUBGROUP_NORTH_AREA"
    ],
    "fire": 0,
    "water": 0,
    "wind": 0,
    "thunder": 0,
    "shine": 0,
    "dark": 0
  },
  {
    "iname": "CT_SUBGROUP_GEKIJOUBAN_DARK",
    "concept_card_groups": [
      "TS_SUBGROUP_GEKIJOUBAN_DARK"
    ],
    "fire": 0,
    "water": 0,
    "wind": 0,
    "thunder": 0,
    "shine": 0,
    "dark": 0
  },
  {
    "iname": "CT_SAM_MFEN_UROB01",
    "job_groups": [
      "JG_SAM_MFEN_UROB01"
    ],
    "fire": 0,
    "water": 0,
    "wind": 0,
    "thunder": 0,
    "shine": 0,
    "dark": 0
  },
  {
    "iname": "CT_ELEMENT_FIRE_WATER",
    "fire": 1,
    "water": 1,
    "wind": 0,
    "thunder": 0,
    "shine": 0,
    "dark": 0
  },
  {
    "iname": "CT_ELEMENT_THUNDER_WIND",
    "fire": 0,
    "water": 0,
    "wind": 1,
    "thunder": 1,
    "shine": 0,
    "dark": 0
  },
  {
    "iname": "CT_ELEMENT_FIRE_THUNDER",
    "fire": 1,
    "water": 0,
    "wind": 0,
    "thunder": 1,
    "shine": 0,
    "dark": 0
  },
  {
    "iname": "CT_ELEMENT_WATER_WIND",
    "fire": 0,
    "water": 1,
    "wind": 1,
    "thunder": 0,
    "shine": 0,
    "dark": 0
  },
  {
    "iname": "CT_SUBGROUP_LUST_SCHOOL",
    "concept_card_groups": [
      "TS_SUBGROUP_LUST_SCHOOL"
    ],
    "fire": 0,
    "water": 0,
    "wind": 0,
    "thunder": 0,
    "shine": 0,
    "dark": 0
  },
  {
    "iname": "CT_ELEMENT_NOT_FIRE_WATER",
    "fire": 0,
    "water": 0,
    "wind": 1,
    "thunder": 1,
    "shine": 1,
    "dark": 1
  },
  {
    "iname": "CT_ELEMENT_FIRE_WATER_SHINE",
    "fire": 1,
    "water": 1,
    "wind": 0,
    "thunder": 0,
    "shine": 1,
    "dark": 0
  },
  {
    "iname": "CT_ELEMENT_FIRE_WATER_DARK",
    "fire": 1,
    "water": 1,
    "wind": 0,
    "thunder": 0,
    "shine": 0,
    "dark": 1
  },
  {
    "iname": "CT_ELEMENT_FIRE_WIND_SHINE_DARK",
    "fire": 1,
    "water": 0,
    "wind": 1,
    "thunder": 0,
    "shine": 1,
    "dark": 0
  },
  {
    "iname": "CT_ELEMENT_WATER_THUNDER_SHINE_DARK",
    "fire": 0,
    "water": 1,
    "wind": 0,
    "thunder": 1,
    "shine": 0,
    "dark": 1
  },
  {
    "iname": "CT_SUBGROUP_JINKO_MEMBER",
    "concept_card_groups": [
      "TS_SUBGROUP_JINKO_MEMBER"
    ],
    "fire": 0,
    "water": 0,
    "wind": 0,
    "thunder": 0,
    "shine": 0,
    "dark": 0
  },
  {
    "iname": "CT_GREED_THUNDER",
    "birth_id": 6,
    "fire": 0,
    "water": 0,
    "wind": 0,
    "thunder": 1,
    "shine": 0,
    "dark": 0
  },
  {
    "iname": "CT_SUBGROUP_NORTH_FES",
    "concept_card_groups": [
      "TS_SUBGROUP_NORTH_FES"
    ],
    "fire": 0,
    "water": 0,
    "wind": 0,
    "thunder": 0,
    "shine": 0,
    "dark": 0
  },
  {
    "iname": "CT_ELEMENT_NOT_THUNDER",
    "fire": 1,
    "water": 1,
    "wind": 1,
    "thunder": 0,
    "shine": 1,
    "dark": 1
  },
  {
    "iname": "CT_ELEMENT_NOT_WATER",
    "fire": 1,
    "water": 0,
    "wind": 1,
    "thunder": 1,
    "shine": 1,
    "dark": 1
  },
  {
    "iname": "CT_WRATH_THREE_NOBLES",
    "unit_groups": [
      "UG_WRATH_THREE_NOBLES"
    ],
    "fire": 0,
    "water": 0,
    "wind": 0,
    "thunder": 0,
    "shine": 0,
    "dark": 0
  },
  {
    "iname": "CT_021413_RANK",
    "job_groups": [
      "JG_021413_RANK"
    ],
    "fire": 0,
    "water": 0,
    "wind": 0,
    "thunder": 0,
    "shine": 0,
    "dark": 0
  },
  {
    "iname": "CT_210513_RANK",
    "job_groups": [
      "JG_210513_RANK"
    ],
    "fire": 0,
    "water": 0,
    "wind": 0,
    "thunder": 0,
    "shine": 0,
    "dark": 0
  },
  {
    "iname": "CT_CLAB01_TRANS01_UPPER_02",
    "fire": 1,
    "water": 1,
    "wind": 1,
    "thunder": 1,
    "shine": 0,
    "dark": 1
  },
  {
    "iname": "CT_LUST_SHINE",
    "birth_id": 4,
    "fire": 0,
    "water": 0,
    "wind": 0,
    "thunder": 0,
    "shine": 1,
    "dark": 0
  },
  {
    "iname": "CT_ELEMENT_NOT_WIND",
    "fire": 1,
    "water": 1,
    "wind": 0,
    "thunder": 1,
    "shine": 1,
    "dark": 1
  },
  {
    "iname": "CT_SLOTH_WIND",
    "birth_id": 3,
    "fire": 0,
    "water": 0,
    "wind": 1,
    "thunder": 0,
    "shine": 0,
    "dark": 0
  }
]