[
  {
    "iname": "S3",
    "val": 7,
    "hp": 120,
    "mp": 150,
    "atk": 150,
    "def": 120,
    "mag": 150,
    "mnd": 120,
    "dex": 150,
    "spd": 150,
    "cri": 150,
    "luk": 150
  },
  {
    "iname": "S2",
    "val": 6,
    "hp": 113,
    "mp": 144,
    "atk": 139,
    "def": 108,
    "mag": 139,
    "mnd": 110,
    "dex": 139,
    "spd": 143,
    "cri": 141,
    "luk": 139
  },
  {
    "iname": "S1",
    "val": 5,
    "hp": 106,
    "mp": 139,
    "atk": 128,
    "def": 96,
    "mag": 128,
    "mnd": 100,
    "dex": 128,
    "spd": 136,
    "cri": 133,
    "luk": 128
  },
  {
    "iname": "A3",
    "val": 4,
    "hp": 99,
    "mp": 133,
    "atk": 117,
    "def": 84,
    "mag": 117,
    "mnd": 90,
    "dex": 117,
    "spd": 129,
    "cri": 124,
    "luk": 117
  },
  {
    "iname": "A2",
    "val": 3,
    "hp": 91,
    "mp": 127,
    "atk": 107,
    "def": 73,
    "mag": 107,
    "mnd": 80,
    "dex": 107,
    "spd": 121,
    "cri": 116,
    "luk": 107
  },
  {
    "iname": "A1",
    "val": 2,
    "hp": 84,
    "mp": 121,
    "atk": 96,
    "def": 61,
    "mag": 96,
    "mnd": 70,
    "dex": 96,
    "spd": 114,
    "cri": 107,
    "luk": 96
  },
  {
    "iname": "B3",
    "val": 1,
    "hp": 77,
    "mp": 116,
    "atk": 85,
    "def": 49,
    "mag": 85,
    "mnd": 60,
    "dex": 85,
    "spd": 107,
    "cri": 99,
    "luk": 85
  },
  {
    "iname": "B2",
    "val": 0,
    "hp": 70,
    "mp": 110,
    "atk": 74,
    "def": 37,
    "mag": 74,
    "mnd": 50,
    "dex": 74,
    "spd": 100,
    "cri": 90,
    "luk": 74
  },
  {
    "iname": "B1",
    "val": -1,
    "hp": 69,
    "mp": 106,
    "atk": 75,
    "def": 43,
    "mag": 75,
    "mnd": 54,
    "dex": 75,
    "spd": 97,
    "cri": 89,
    "luk": 75
  },
  {
    "iname": "C3",
    "val": -2,
    "hp": 67,
    "mp": 101,
    "atk": 76,
    "def": 49,
    "mag": 76,
    "mnd": 59,
    "dex": 76,
    "spd": 94,
    "cri": 87,
    "luk": 76
  },
  {
    "iname": "C2",
    "val": -3,
    "hp": 66,
    "mp": 97,
    "atk": 77,
    "def": 55,
    "mag": 77,
    "mnd": 63,
    "dex": 77,
    "spd": 91,
    "cri": 86,
    "luk": 77
  },
  {
    "iname": "C1",
    "val": -4,
    "hp": 64,
    "mp": 93,
    "atk": 77,
    "def": 62,
    "mag": 77,
    "mnd": 67,
    "dex": 77,
    "spd": 89,
    "cri": 84,
    "luk": 77
  },
  {
    "iname": "D3",
    "val": -5,
    "hp": 63,
    "mp": 89,
    "atk": 78,
    "def": 68,
    "mag": 78,
    "mnd": 71,
    "dex": 78,
    "spd": 86,
    "cri": 83,
    "luk": 78
  },
  {
    "iname": "D2",
    "val": -6,
    "hp": 61,
    "mp": 84,
    "atk": 79,
    "def": 74,
    "mag": 79,
    "mnd": 76,
    "dex": 79,
    "spd": 83,
    "cri": 81,
    "luk": 79
  },
  {
    "iname": "D1",
    "val": -7,
    "hp": 60,
    "mp": 80,
    "atk": 80,
    "def": 80,
    "mag": 80,
    "mnd": 80,
    "dex": 80,
    "spd": 80,
    "cri": 80,
    "luk": 80
  }
]