[
  {
    "iname": "FILTER_RUNE_RARITY",
    "tab_name": "フィルタ",
    "name": "レアリティ",
    "filter_type": 2,
    "cnds": [
      {
        "cnds_iname": "RARE3",
        "name": "レア3",
        "rarity": 2
      },
      {
        "cnds_iname": "RARE4",
        "name": "レア4",
        "rarity": 3
      },
      {
        "cnds_iname": "RARE5",
        "name": "レア5",
        "rarity": 4
      }
    ]
  },
  {
    "iname": "FILTER_RUNE_SET",
    "tab_name": "フィルタ",
    "name": "セット効果",
    "filter_type": 3,
    "cnds": [
      {
        "cnds_iname": "KONGOU",
        "name": "強攻",
        "set_eff": 1
      },
      {
        "cnds_iname": "MADOU",
        "name": "魔道",
        "set_eff": 2
      },
      {
        "cnds_iname": "KENROU",
        "name": "堅牢",
        "set_eff": 3
      },
      {
        "cnds_iname": "MAJIN",
        "name": "魔陣",
        "set_eff": 4
      },
      {
        "cnds_iname": "MEIMYAKU",
        "name": "命脈",
        "set_eff": 8
      },
      {
        "cnds_iname": "ISSEN",
        "name": "一閃",
        "set_eff": 12
      },
      {
        "cnds_iname": "ISSOU",
        "name": "一掃",
        "set_eff": 13
      },
      {
        "cnds_iname": "KAGO",
        "name": "加護",
        "set_eff": 6
      },
      {
        "cnds_iname": "SHIKKU",
        "name": "幻像",
        "set_eff": 11
      },
      {
        "cnds_iname": "SUISEI",
        "name": "技巧",
        "set_eff": 10
      },
      {
        "cnds_iname": "HOUSEKI",
        "name": "宝石",
        "set_eff": 7
      }
    ]
  },
  {
    "iname": "FILTER_RUNE_EVOSTATUS",
    "tab_name": "フィルタ",
    "name": "覚醒ステータス",
    "filter_type": 4,
    "cnds": [
      {
        "cnds_iname": "FILTER_SLASH_ATK",
        "name": "斬撃攻撃補正",
        "evo_status": 85
      },
      {
        "cnds_iname": "FILTER_BLOW_ATK",
        "name": "打撃攻撃補正",
        "evo_status": 87
      },
      {
        "cnds_iname": "FILTER_PIERCE_ATK",
        "name": "刺突攻撃補正",
        "evo_status": 86
      },
      {
        "cnds_iname": "FILTER_SHOT_ATK",
        "name": "射撃攻撃補正",
        "evo_status": 88
      },
      {
        "cnds_iname": "FILTER_MAGIC_ATK",
        "name": "魔法攻撃補正",
        "evo_status": 89
      },
      {
        "cnds_iname": "FILTER_JUMP_ATK",
        "name": "ジャンプ攻撃補正",
        "evo_status": 91
      },
      {
        "cnds_iname": "FILTER_SLASH_RESIST",
        "name": "斬撃耐性",
        "evo_status": 107
      },
      {
        "cnds_iname": "FILTER_BLOW_RESIST",
        "name": "打撃耐性",
        "evo_status": 109
      },
      {
        "cnds_iname": "FILTER_PIERCE_RESIST",
        "name": "刺突耐性",
        "evo_status": 108
      },
      {
        "cnds_iname": "FILTER_SHOT_RESIST",
        "name": "射撃耐性",
        "evo_status": 110
      },
      {
        "cnds_iname": "FILTER_MAGIC_RESIST",
        "name": "魔法耐性",
        "evo_status": 111
      },
      {
        "cnds_iname": "FILTER_JUMP_RESIST",
        "name": "ジャンプ耐性",
        "evo_status": 113
      },
      {
        "cnds_iname": "FILTER_POISON_RESIST",
        "name": "毒耐性",
        "evo_status": 55
      },
      {
        "cnds_iname": "FILTER_STUN_RESIST",
        "name": "スタン耐性",
        "evo_status": 57
      },
      {
        "cnds_iname": "FILTER_PARALYSED_RESIST",
        "name": "麻痺耐性",
        "evo_status": 56
      },
      {
        "cnds_iname": "FILTER_SLEEP_RESIST",
        "name": "睡眠耐性",
        "evo_status": 58
      },
      {
        "cnds_iname": "FILTER_CHARM_RESIST",
        "name": "魅了耐性",
        "evo_status": 59
      },
      {
        "cnds_iname": "FILTER_RAGE_RESIST",
        "name": "憤怒耐性",
        "evo_status": 76
      },
      {
        "cnds_iname": "FILTER_SLOW_RESIST",
        "name": "クロックダウン耐性",
        "evo_status": 73
      },
      {
        "cnds_iname": "FILTER_DONSOKU_RESIST",
        "name": "鈍足耐性",
        "evo_status": 75
      },
      {
        "cnds_iname": "FILTER_GAIN_JUWEL",
        "name": "ジュエル獲得量",
        "evo_status": 82
      },
      {
        "cnds_iname": "FILTER_MPINI",
        "name": "最大ジュエル",
        "evo_status": 3
      },
      {
        "cnds_iname": "FILTER_REC",
        "name": "治癒力",
        "evo_status": 9
      },
      {
        "cnds_iname": "FILTER_GUTS",
        "name": "ガッツ",
        "evo_status": 92
      },
      {
        "cnds_iname": "FILTER_CRITICAL",
        "name": "クリティカル率",
        "evo_status": 81
      },
      {
        "cnds_iname": "FILTER_ATK_DEBUFF_RESIST",
        "name": "物攻デバフ軽減",
        "evo_status": 177
      },
      {
        "cnds_iname": "FILTER_DEF_DEBUFF_RESIST",
        "name": "物防デバフ軽減",
        "evo_status": 178
      },
      {
        "cnds_iname": "FILTER_MAG_DEBUFF_RESIST",
        "name": "魔攻デバフ軽減",
        "evo_status": 179
      },
      {
        "cnds_iname": "FILTER_MND_DEBUFF_RESIST",
        "name": "魔防デバフ軽減",
        "evo_status": 180
      },
      {
        "cnds_iname": "FILTER_DEX_DEBUFF_RESIST",
        "name": "器用さデバフ軽減",
        "evo_status": 182
      },
      {
        "cnds_iname": "FILTER_SPD_DEBUFF_RESIST",
        "name": "素早さデバフ軽減",
        "evo_status": 183
      },
      {
        "cnds_iname": "FILTER_LUK_DEBUFF_RESIST",
        "name": "運デバフ軽減",
        "evo_status": 185
      },
      {
        "cnds_iname": "FILTER_BLIND_RESIST",
        "name": "暗闇耐性",
        "evo_status": 61
      },
      {
        "cnds_iname": "FILTER_STONE_RESIST",
        "name": "石化耐性",
        "evo_status": 60
      },
      {
        "cnds_iname": "FILTER_DISABLE_SKILL_RESIST",
        "name": "沈黙耐性",
        "evo_status": 62
      },
      {
        "cnds_iname": "FILTER_DISABLE_MOVE_RESIST",
        "name": "移動禁止耐性",
        "evo_status": 63
      },
      {
        "cnds_iname": "FILTER_DISABLE_ATACK_RESIST",
        "name": "攻撃禁止耐性",
        "evo_status": 64
      },
      {
        "cnds_iname": "FILTER_DEATH_RESIST",
        "name": "死の宣告耐性",
        "evo_status": 66
      },
      {
        "cnds_iname": "FILTER_STOP_RESIST",
        "name": "ストップ耐性",
        "evo_status": 71
      },
      {
        "cnds_iname": "FILTER_DISABLE_HEAL_RESIST",
        "name": "回復無効耐性",
        "evo_status": 106
      }
    ]
  }
]