[
  {
    "type": "NORANK",
    "curve": [
      {
        "lv": 1,
        "val": 100,
        "hp": 100,
        "mp": 100,
        "atk": 100,
        "def": 100,
        "mag": 100,
        "mnd": 100,
        "dex": 100,
        "spd": 100,
        "cri": 100,
        "luk": 100,
        "afi": 100,
        "awa": 100,
        "awi": 100,
        "ath": 100,
        "ash": 100,
        "ada": 100,
        "apo": 100,
        "apa": 100,
        "ast": 100,
        "asl": 100,
        "ach": 100,
        "asn": 100,
        "abl": 100,
        "ans": 100,
        "anm": 100,
        "ana": 100,
        "azo": 100,
        "ade": 100,
        "akn": 100,
        "abe": 100,
        "adc": 100,
        "aic": 100,
        "rfi": 100,
        "rwa": 100,
        "rwi": 100,
        "rth": 100,
        "rsh": 100,
        "rda": 100,
        "rpo": 100,
        "rpa": 100,
        "rst": 100,
        "rsl": 100,
        "rch": 100,
        "rsn": 100,
        "rbl": 100,
        "rns": 100,
        "rnm": 100,
        "rna": 100,
        "rzo": 100,
        "rde": 100,
        "rkn": 100,
        "rdf": 100,
        "rbe": 100,
        "rcs": 100,
        "rcu": 100,
        "rcd": 100,
        "rdo": 100,
        "rra": 100,
        "rdc": 100,
        "ric": 100
      }
    ]
  },
  {
    "type": "R3_NORMAL",
    "curve": [
      {
        "lv": 45,
        "val": 100,
        "hp": 100,
        "mp": 100,
        "atk": 100,
        "def": 100,
        "mag": 100,
        "mnd": 100,
        "dex": 100,
        "spd": 100,
        "cri": 100,
        "luk": 100,
        "afi": 100,
        "awa": 100,
        "awi": 100,
        "ath": 100,
        "ash": 100,
        "ada": 100,
        "apo": 100,
        "apa": 100,
        "ast": 100,
        "asl": 100,
        "ach": 100,
        "asn": 100,
        "abl": 100,
        "ans": 100,
        "anm": 100,
        "ana": 100,
        "azo": 100,
        "ade": 100,
        "akn": 100,
        "abe": 100,
        "adc": 100,
        "aic": 100,
        "rfi": 100,
        "rwa": 100,
        "rwi": 100,
        "rth": 100,
        "rsh": 100,
        "rda": 100,
        "rpo": 100,
        "rpa": 100,
        "rst": 100,
        "rsl": 100,
        "rch": 100,
        "rsn": 100,
        "rbl": 100,
        "rns": 100,
        "rnm": 100,
        "rna": 100,
        "rzo": 100,
        "rde": 100,
        "rkn": 100,
        "rdf": 100,
        "rbe": 100,
        "rcs": 100,
        "rcu": 100,
        "rcd": 100,
        "rdo": 100,
        "rra": 100,
        "rdc": 100,
        "ric": 100
      },
      {
        "lv": 90,
        "val": 200,
        "hp": 200,
        "mp": 200,
        "atk": 200,
        "def": 200,
        "mag": 200,
        "mnd": 200,
        "dex": 200,
        "spd": 200,
        "cri": 200,
        "luk": 200,
        "afi": 200,
        "awa": 200,
        "awi": 200,
        "ath": 200,
        "ash": 200,
        "ada": 200,
        "apo": 200,
        "apa": 200,
        "ast": 200,
        "asl": 200,
        "ach": 200,
        "asn": 200,
        "abl": 200,
        "ans": 200,
        "anm": 200,
        "ana": 200,
        "azo": 200,
        "ade": 200,
        "akn": 200,
        "abe": 200,
        "adc": 100,
        "aic": 100,
        "rfi": 200,
        "rwa": 200,
        "rwi": 200,
        "rth": 200,
        "rsh": 200,
        "rda": 200,
        "rpo": 200,
        "rpa": 200,
        "rst": 200,
        "rsl": 200,
        "rch": 200,
        "rsn": 200,
        "rbl": 200,
        "rns": 200,
        "rnm": 200,
        "rna": 200,
        "rzo": 200,
        "rde": 200,
        "rkn": 200,
        "rdf": 200,
        "rbe": 200,
        "rcs": 200,
        "rcu": 200,
        "rcd": 200,
        "rdo": 200,
        "rra": 200,
        "rdc": 100,
        "ric": 100
      },
      {
        "lv": 135,
        "val": 300,
        "hp": 300,
        "mp": 300,
        "atk": 300,
        "def": 300,
        "mag": 300,
        "mnd": 300,
        "dex": 300,
        "spd": 300,
        "cri": 300,
        "luk": 300,
        "afi": 300,
        "awa": 300,
        "awi": 300,
        "ath": 300,
        "ash": 300,
        "ada": 300,
        "apo": 300,
        "apa": 300,
        "ast": 300,
        "asl": 300,
        "ach": 300,
        "asn": 300,
        "abl": 300,
        "ans": 300,
        "anm": 300,
        "ana": 300,
        "azo": 300,
        "ade": 300,
        "akn": 300,
        "abe": 300,
        "adc": 100,
        "aic": 100,
        "rfi": 300,
        "rwa": 300,
        "rwi": 300,
        "rth": 300,
        "rsh": 300,
        "rda": 300,
        "rpo": 300,
        "rpa": 300,
        "rst": 300,
        "rsl": 300,
        "rch": 300,
        "rsn": 300,
        "rbl": 300,
        "rns": 300,
        "rnm": 300,
        "rna": 300,
        "rzo": 300,
        "rde": 300,
        "rkn": 300,
        "rdf": 300,
        "rbe": 300,
        "rcs": 300,
        "rcu": 300,
        "rcd": 300,
        "rdo": 300,
        "rra": 300,
        "rdc": 100,
        "ric": 100
      }
    ]
  },
  {
    "type": "R4_NORMAL",
    "curve": [
      {
        "lv": 70,
        "val": 100,
        "hp": 100,
        "mp": 100,
        "atk": 100,
        "def": 100,
        "mag": 100,
        "mnd": 100,
        "dex": 100,
        "spd": 100,
        "cri": 100,
        "luk": 100,
        "afi": 100,
        "awa": 100,
        "awi": 100,
        "ath": 100,
        "ash": 100,
        "ada": 100,
        "apo": 100,
        "apa": 100,
        "ast": 100,
        "asl": 100,
        "ach": 100,
        "asn": 100,
        "abl": 100,
        "ans": 100,
        "anm": 100,
        "ana": 100,
        "azo": 100,
        "ade": 100,
        "akn": 100,
        "abe": 100,
        "adc": 100,
        "aic": 100,
        "rfi": 100,
        "rwa": 100,
        "rwi": 100,
        "rth": 100,
        "rsh": 100,
        "rda": 100,
        "rpo": 100,
        "rpa": 100,
        "rst": 100,
        "rsl": 100,
        "rch": 100,
        "rsn": 100,
        "rbl": 100,
        "rns": 100,
        "rnm": 100,
        "rna": 100,
        "rzo": 100,
        "rde": 100,
        "rkn": 100,
        "rdf": 100,
        "rbe": 100,
        "rcs": 100,
        "rcu": 100,
        "rcd": 100,
        "rdo": 100,
        "rra": 100,
        "rdc": 100,
        "ric": 100
      },
      {
        "lv": 140,
        "val": 200,
        "hp": 200,
        "mp": 200,
        "atk": 200,
        "def": 200,
        "mag": 200,
        "mnd": 200,
        "dex": 200,
        "spd": 200,
        "cri": 200,
        "luk": 200,
        "afi": 200,
        "awa": 200,
        "awi": 200,
        "ath": 200,
        "ash": 200,
        "ada": 200,
        "apo": 200,
        "apa": 200,
        "ast": 200,
        "asl": 200,
        "ach": 200,
        "asn": 200,
        "abl": 200,
        "ans": 200,
        "anm": 200,
        "ana": 200,
        "azo": 200,
        "ade": 200,
        "akn": 200,
        "abe": 200,
        "adc": 100,
        "aic": 100,
        "rfi": 200,
        "rwa": 200,
        "rwi": 200,
        "rth": 200,
        "rsh": 200,
        "rda": 200,
        "rpo": 200,
        "rpa": 200,
        "rst": 200,
        "rsl": 200,
        "rch": 200,
        "rsn": 200,
        "rbl": 200,
        "rns": 200,
        "rnm": 200,
        "rna": 200,
        "rzo": 200,
        "rde": 200,
        "rkn": 200,
        "rdf": 200,
        "rbe": 200,
        "rcs": 200,
        "rcu": 200,
        "rcd": 200,
        "rdo": 200,
        "rra": 200,
        "rdc": 100,
        "ric": 100
      }
    ]
  },
  {
    "type": "R5_NORMAL",
    "curve": [
      {
        "lv": 85,
        "val": 100,
        "hp": 100,
        "mp": 100,
        "atk": 100,
        "def": 100,
        "mag": 100,
        "mnd": 100,
        "dex": 100,
        "spd": 100,
        "cri": 100,
        "luk": 100,
        "afi": 100,
        "awa": 100,
        "awi": 100,
        "ath": 100,
        "ash": 100,
        "ada": 100,
        "apo": 100,
        "apa": 100,
        "ast": 100,
        "asl": 100,
        "ach": 100,
        "asn": 100,
        "abl": 100,
        "ans": 100,
        "anm": 100,
        "ana": 100,
        "azo": 100,
        "ade": 100,
        "akn": 100,
        "abe": 100,
        "adc": 100,
        "aic": 100,
        "rfi": 100,
        "rwa": 100,
        "rwi": 100,
        "rth": 100,
        "rsh": 100,
        "rda": 100,
        "rpo": 100,
        "rpa": 100,
        "rst": 100,
        "rsl": 100,
        "rch": 100,
        "rsn": 100,
        "rbl": 100,
        "rns": 100,
        "rnm": 100,
        "rna": 100,
        "rzo": 100,
        "rde": 100,
        "rkn": 100,
        "rdf": 100,
        "rbe": 100,
        "rcs": 100,
        "rcu": 100,
        "rcd": 100,
        "rdo": 100,
        "rra": 100,
        "rdc": 100,
        "ric": 100
      },
      {
        "lv": 170,
        "val": 200,
        "hp": 200,
        "mp": 200,
        "atk": 200,
        "def": 200,
        "mag": 200,
        "mnd": 200,
        "dex": 200,
        "spd": 200,
        "cri": 200,
        "luk": 200,
        "afi": 200,
        "awa": 200,
        "awi": 200,
        "ath": 200,
        "ash": 200,
        "ada": 200,
        "apo": 200,
        "apa": 200,
        "ast": 200,
        "asl": 200,
        "ach": 200,
        "asn": 200,
        "abl": 200,
        "ans": 200,
        "anm": 200,
        "ana": 200,
        "azo": 200,
        "ade": 200,
        "akn": 200,
        "abe": 200,
        "adc": 100,
        "aic": 100,
        "rfi": 200,
        "rwa": 200,
        "rwi": 200,
        "rth": 200,
        "rsh": 200,
        "rda": 200,
        "rpo": 200,
        "rpa": 200,
        "rst": 200,
        "rsl": 200,
        "rch": 200,
        "rsn": 200,
        "rbl": 200,
        "rns": 200,
        "rnm": 200,
        "rna": 200,
        "rzo": 200,
        "rde": 200,
        "rkn": 200,
        "rdf": 200,
        "rbe": 200,
        "rcs": 200,
        "rcu": 200,
        "rcd": 200,
        "rdo": 200,
        "rra": 200,
        "rdc": 100,
        "ric": 100
      }
    ]
  },
  {
    "type": "R5_FAST",
    "curve": [
      {
        "lv": 25,
        "val": 75,
        "hp": 75,
        "mp": 75,
        "atk": 75,
        "def": 75,
        "mag": 75,
        "mnd": 75,
        "dex": 75,
        "spd": 75,
        "cri": 75,
        "luk": 75,
        "afi": 75,
        "awa": 75,
        "awi": 75,
        "ath": 75,
        "ash": 75,
        "ada": 75,
        "apo": 75,
        "apa": 75,
        "ast": 75,
        "asl": 75,
        "ach": 75,
        "asn": 75,
        "abl": 75,
        "ans": 75,
        "anm": 75,
        "ana": 75,
        "azo": 75,
        "ade": 75,
        "akn": 75,
        "abe": 75,
        "adc": 100,
        "aic": 100,
        "rfi": 75,
        "rwa": 75,
        "rwi": 75,
        "rth": 75,
        "rsh": 75,
        "rda": 75,
        "rpo": 75,
        "rpa": 75,
        "rst": 75,
        "rsl": 75,
        "rch": 75,
        "rsn": 75,
        "rbl": 75,
        "rns": 75,
        "rnm": 75,
        "rna": 75,
        "rzo": 75,
        "rde": 75,
        "rkn": 75,
        "rdf": 75,
        "rbe": 75,
        "rcs": 75,
        "rcu": 75,
        "rcd": 75,
        "rdo": 75,
        "rra": 75,
        "rdc": 100,
        "ric": 100
      },
      {
        "lv": 85,
        "val": 100,
        "hp": 100,
        "mp": 100,
        "atk": 100,
        "def": 100,
        "mag": 100,
        "mnd": 100,
        "dex": 100,
        "spd": 100,
        "cri": 100,
        "luk": 100,
        "afi": 100,
        "awa": 100,
        "awi": 100,
        "ath": 100,
        "ash": 100,
        "ada": 100,
        "apo": 100,
        "apa": 100,
        "ast": 100,
        "asl": 100,
        "ach": 100,
        "asn": 100,
        "abl": 100,
        "ans": 100,
        "anm": 100,
        "ana": 100,
        "azo": 100,
        "ade": 100,
        "akn": 100,
        "abe": 100,
        "adc": 100,
        "aic": 100,
        "rfi": 100,
        "rwa": 100,
        "rwi": 100,
        "rth": 100,
        "rsh": 100,
        "rda": 100,
        "rpo": 100,
        "rpa": 100,
        "rst": 100,
        "rsl": 100,
        "rch": 100,
        "rsn": 100,
        "rbl": 100,
        "rns": 100,
        "rnm": 100,
        "rna": 100,
        "rzo": 100,
        "rde": 100,
        "rkn": 100,
        "rdf": 100,
        "rbe": 100,
        "rcs": 100,
        "rcu": 100,
        "rcd": 100,
        "rdo": 100,
        "rra": 100,
        "rdc": 100,
        "ric": 100
      },
      {
        "lv": 170,
        "val": 200,
        "hp": 200,
        "mp": 200,
        "atk": 200,
        "def": 200,
        "mag": 200,
        "mnd": 200,
        "dex": 200,
        "spd": 200,
        "cri": 200,
        "luk": 200,
        "afi": 200,
        "awa": 200,
        "awi": 200,
        "ath": 200,
        "ash": 200,
        "ada": 200,
        "apo": 200,
        "apa": 200,
        "ast": 200,
        "asl": 200,
        "ach": 200,
        "asn": 200,
        "abl": 200,
        "ans": 200,
        "anm": 200,
        "ana": 200,
        "azo": 200,
        "ade": 200,
        "akn": 200,
        "abe": 200,
        "adc": 100,
        "aic": 100,
        "rfi": 200,
        "rwa": 200,
        "rwi": 200,
        "rth": 200,
        "rsh": 200,
        "rda": 200,
        "rpo": 200,
        "rpa": 200,
        "rst": 200,
        "rsl": 200,
        "rch": 200,
        "rsn": 200,
        "rbl": 200,
        "rns": 200,
        "rnm": 200,
        "rna": 200,
        "rzo": 200,
        "rde": 200,
        "rkn": 200,
        "rdf": 200,
        "rbe": 200,
        "rcs": 200,
        "rcu": 200,
        "rcd": 200,
        "rdo": 200,
        "rra": 200,
        "rdc": 100,
        "ric": 100
      }
    ]
  },
  {
    "type": "R5_SLOW",
    "curve": [
      {
        "lv": 45,
        "val": 75,
        "hp": 75,
        "mp": 75,
        "atk": 75,
        "def": 75,
        "mag": 75,
        "mnd": 75,
        "dex": 75,
        "spd": 75,
        "cri": 75,
        "luk": 75,
        "afi": 75,
        "awa": 75,
        "awi": 75,
        "ath": 75,
        "ash": 75,
        "ada": 75,
        "apo": 75,
        "apa": 75,
        "ast": 75,
        "asl": 75,
        "ach": 75,
        "asn": 75,
        "abl": 75,
        "ans": 75,
        "anm": 75,
        "ana": 75,
        "azo": 75,
        "ade": 75,
        "akn": 75,
        "abe": 75,
        "adc": 100,
        "aic": 100,
        "rfi": 75,
        "rwa": 75,
        "rwi": 75,
        "rth": 75,
        "rsh": 75,
        "rda": 75,
        "rpo": 75,
        "rpa": 75,
        "rst": 75,
        "rsl": 75,
        "rch": 75,
        "rsn": 75,
        "rbl": 75,
        "rns": 75,
        "rnm": 75,
        "rna": 75,
        "rzo": 75,
        "rde": 75,
        "rkn": 75,
        "rdf": 75,
        "rbe": 75,
        "rcs": 75,
        "rcu": 75,
        "rcd": 75,
        "rdo": 75,
        "rra": 75,
        "rdc": 100,
        "ric": 100
      },
      {
        "lv": 85,
        "val": 100,
        "hp": 100,
        "mp": 100,
        "atk": 100,
        "def": 100,
        "mag": 100,
        "mnd": 100,
        "dex": 100,
        "spd": 100,
        "cri": 100,
        "luk": 100,
        "afi": 100,
        "awa": 100,
        "awi": 100,
        "ath": 100,
        "ash": 100,
        "ada": 100,
        "apo": 100,
        "apa": 100,
        "ast": 100,
        "asl": 100,
        "ach": 100,
        "asn": 100,
        "abl": 100,
        "ans": 100,
        "anm": 100,
        "ana": 100,
        "azo": 100,
        "ade": 100,
        "akn": 100,
        "abe": 100,
        "adc": 100,
        "aic": 100,
        "rfi": 100,
        "rwa": 100,
        "rwi": 100,
        "rth": 100,
        "rsh": 100,
        "rda": 100,
        "rpo": 100,
        "rpa": 100,
        "rst": 100,
        "rsl": 100,
        "rch": 100,
        "rsn": 100,
        "rbl": 100,
        "rns": 100,
        "rnm": 100,
        "rna": 100,
        "rzo": 100,
        "rde": 100,
        "rkn": 100,
        "rdf": 100,
        "rbe": 100,
        "rcs": 100,
        "rcu": 100,
        "rcd": 100,
        "rdo": 100,
        "rra": 100,
        "rdc": 100,
        "ric": 100
      },
      {
        "lv": 170,
        "val": 200,
        "hp": 200,
        "mp": 200,
        "atk": 200,
        "def": 200,
        "mag": 200,
        "mnd": 200,
        "dex": 200,
        "spd": 200,
        "cri": 200,
        "luk": 200,
        "afi": 200,
        "awa": 200,
        "awi": 200,
        "ath": 200,
        "ash": 200,
        "ada": 200,
        "apo": 200,
        "apa": 200,
        "ast": 200,
        "asl": 200,
        "ach": 200,
        "asn": 200,
        "abl": 200,
        "ans": 200,
        "anm": 200,
        "ana": 200,
        "azo": 200,
        "ade": 200,
        "akn": 200,
        "abe": 200,
        "adc": 100,
        "aic": 100,
        "rfi": 200,
        "rwa": 200,
        "rwi": 200,
        "rth": 200,
        "rsh": 200,
        "rda": 200,
        "rpo": 200,
        "rpa": 200,
        "rst": 200,
        "rsl": 200,
        "rch": 200,
        "rsn": 200,
        "rbl": 200,
        "rns": 200,
        "rnm": 200,
        "rna": 200,
        "rzo": 200,
        "rde": 200,
        "rkn": 200,
        "rdf": 200,
        "rbe": 200,
        "rcs": 200,
        "rcu": 200,
        "rcd": 200,
        "rdo": 200,
        "rra": 200,
        "rdc": 100,
        "ric": 100
      }
    ]
  },
  {
    "type": "R3",
    "curve": [
      {
        "lv": 30,
        "val": 30,
        "hp": 30,
        "mp": 30,
        "atk": 30,
        "def": 30,
        "mag": 30,
        "mnd": 30,
        "dex": 30,
        "spd": 30,
        "cri": 30,
        "luk": 30,
        "afi": 30,
        "awa": 30,
        "awi": 30,
        "ath": 30,
        "ash": 30,
        "ada": 30,
        "apo": 30,
        "apa": 30,
        "ast": 30,
        "asl": 30,
        "ach": 30,
        "asn": 30,
        "abl": 30,
        "ans": 30,
        "anm": 30,
        "ana": 30,
        "azo": 30,
        "ade": 30,
        "akn": 30,
        "abe": 30,
        "adc": 100,
        "aic": 100,
        "rfi": 30,
        "rwa": 30,
        "rwi": 30,
        "rth": 30,
        "rsh": 30,
        "rda": 30,
        "rpo": 30,
        "rpa": 30,
        "rst": 30,
        "rsl": 30,
        "rch": 30,
        "rsn": 30,
        "rbl": 30,
        "rns": 30,
        "rnm": 30,
        "rna": 30,
        "rzo": 30,
        "rde": 30,
        "rkn": 30,
        "rdf": 30,
        "rbe": 30,
        "rcs": 30,
        "rcu": 30,
        "rcd": 30,
        "rdo": 30,
        "rra": 30,
        "rdc": 100,
        "ric": 100
      },
      {
        "lv": 50,
        "val": 50,
        "hp": 50,
        "mp": 50,
        "atk": 50,
        "def": 50,
        "mag": 50,
        "mnd": 50,
        "dex": 50,
        "spd": 50,
        "cri": 50,
        "luk": 50,
        "afi": 50,
        "awa": 50,
        "awi": 50,
        "ath": 50,
        "ash": 50,
        "ada": 50,
        "apo": 50,
        "apa": 50,
        "ast": 50,
        "asl": 50,
        "ach": 50,
        "asn": 50,
        "abl": 50,
        "ans": 50,
        "anm": 50,
        "ana": 50,
        "azo": 50,
        "ade": 50,
        "akn": 50,
        "abe": 50,
        "adc": 100,
        "aic": 100,
        "rfi": 50,
        "rwa": 50,
        "rwi": 50,
        "rth": 50,
        "rsh": 50,
        "rda": 50,
        "rpo": 50,
        "rpa": 50,
        "rst": 50,
        "rsl": 50,
        "rch": 50,
        "rsn": 50,
        "rbl": 50,
        "rns": 50,
        "rnm": 50,
        "rna": 50,
        "rzo": 50,
        "rde": 50,
        "rkn": 50,
        "rdf": 50,
        "rbe": 50,
        "rcs": 50,
        "rcu": 50,
        "rcd": 50,
        "rdo": 50,
        "rra": 50,
        "rdc": 100,
        "ric": 100
      },
      {
        "lv": 100,
        "val": 100,
        "hp": 100,
        "mp": 100,
        "atk": 100,
        "def": 100,
        "mag": 100,
        "mnd": 100,
        "dex": 100,
        "spd": 100,
        "cri": 100,
        "luk": 100,
        "afi": 100,
        "awa": 100,
        "awi": 100,
        "ath": 100,
        "ash": 100,
        "ada": 100,
        "apo": 100,
        "apa": 100,
        "ast": 100,
        "asl": 100,
        "ach": 100,
        "asn": 100,
        "abl": 100,
        "ans": 100,
        "anm": 100,
        "ana": 100,
        "azo": 100,
        "ade": 100,
        "akn": 100,
        "abe": 100,
        "adc": 100,
        "aic": 100,
        "rfi": 100,
        "rwa": 100,
        "rwi": 100,
        "rth": 100,
        "rsh": 100,
        "rda": 100,
        "rpo": 100,
        "rpa": 100,
        "rst": 100,
        "rsl": 100,
        "rch": 100,
        "rsn": 100,
        "rbl": 100,
        "rns": 100,
        "rnm": 100,
        "rna": 100,
        "rzo": 100,
        "rde": 100,
        "rkn": 100,
        "rdf": 100,
        "rbe": 100,
        "rcs": 100,
        "rcu": 100,
        "rcd": 100,
        "rdo": 100,
        "rra": 100,
        "rdc": 100,
        "ric": 100
      }
    ]
  },
  {
    "type": "R4",
    "curve": [
      {
        "lv": 30,
        "val": 30,
        "hp": 30,
        "mp": 30,
        "atk": 30,
        "def": 30,
        "mag": 30,
        "mnd": 30,
        "dex": 30,
        "spd": 30,
        "cri": 30,
        "luk": 30,
        "afi": 30,
        "awa": 30,
        "awi": 30,
        "ath": 30,
        "ash": 30,
        "ada": 30,
        "apo": 30,
        "apa": 30,
        "ast": 30,
        "asl": 30,
        "ach": 30,
        "asn": 30,
        "abl": 30,
        "ans": 30,
        "anm": 30,
        "ana": 30,
        "azo": 30,
        "ade": 30,
        "akn": 30,
        "abe": 30,
        "adc": 100,
        "aic": 100,
        "rfi": 30,
        "rwa": 30,
        "rwi": 30,
        "rth": 30,
        "rsh": 30,
        "rda": 30,
        "rpo": 30,
        "rpa": 30,
        "rst": 30,
        "rsl": 30,
        "rch": 30,
        "rsn": 30,
        "rbl": 30,
        "rns": 30,
        "rnm": 30,
        "rna": 30,
        "rzo": 30,
        "rde": 30,
        "rkn": 30,
        "rdf": 30,
        "rbe": 30,
        "rcs": 30,
        "rcu": 30,
        "rcd": 30,
        "rdo": 30,
        "rra": 30,
        "rdc": 100,
        "ric": 100
      },
      {
        "lv": 50,
        "val": 50,
        "hp": 50,
        "mp": 50,
        "atk": 50,
        "def": 50,
        "mag": 50,
        "mnd": 50,
        "dex": 50,
        "spd": 50,
        "cri": 50,
        "luk": 50,
        "afi": 50,
        "awa": 50,
        "awi": 50,
        "ath": 50,
        "ash": 50,
        "ada": 50,
        "apo": 50,
        "apa": 50,
        "ast": 50,
        "asl": 50,
        "ach": 50,
        "asn": 50,
        "abl": 50,
        "ans": 50,
        "anm": 50,
        "ana": 50,
        "azo": 50,
        "ade": 50,
        "akn": 50,
        "abe": 50,
        "adc": 100,
        "aic": 100,
        "rfi": 50,
        "rwa": 50,
        "rwi": 50,
        "rth": 50,
        "rsh": 50,
        "rda": 50,
        "rpo": 50,
        "rpa": 50,
        "rst": 50,
        "rsl": 50,
        "rch": 50,
        "rsn": 50,
        "rbl": 50,
        "rns": 50,
        "rnm": 50,
        "rna": 50,
        "rzo": 50,
        "rde": 50,
        "rkn": 50,
        "rdf": 50,
        "rbe": 50,
        "rcs": 50,
        "rcu": 50,
        "rcd": 50,
        "rdo": 50,
        "rra": 50,
        "rdc": 100,
        "ric": 100
      },
      {
        "lv": 100,
        "val": 100,
        "hp": 100,
        "mp": 100,
        "atk": 100,
        "def": 100,
        "mag": 100,
        "mnd": 100,
        "dex": 100,
        "spd": 100,
        "cri": 100,
        "luk": 100,
        "afi": 100,
        "awa": 100,
        "awi": 100,
        "ath": 100,
        "ash": 100,
        "ada": 100,
        "apo": 100,
        "apa": 100,
        "ast": 100,
        "asl": 100,
        "ach": 100,
        "asn": 100,
        "abl": 100,
        "ans": 100,
        "anm": 100,
        "ana": 100,
        "azo": 100,
        "ade": 100,
        "akn": 100,
        "abe": 100,
        "adc": 100,
        "aic": 100,
        "rfi": 100,
        "rwa": 100,
        "rwi": 100,
        "rth": 100,
        "rsh": 100,
        "rda": 100,
        "rpo": 100,
        "rpa": 100,
        "rst": 100,
        "rsl": 100,
        "rch": 100,
        "rsn": 100,
        "rbl": 100,
        "rns": 100,
        "rnm": 100,
        "rna": 100,
        "rzo": 100,
        "rde": 100,
        "rkn": 100,
        "rdf": 100,
        "rbe": 100,
        "rcs": 100,
        "rcu": 100,
        "rcd": 100,
        "rdo": 100,
        "rra": 100,
        "rdc": 100,
        "ric": 100
      }
    ]
  },
  {
    "type": "R5",
    "curve": [
      {
        "lv": 100,
        "val": 100,
        "hp": 100,
        "mp": 100,
        "atk": 100,
        "def": 100,
        "mag": 100,
        "mnd": 100,
        "dex": 100,
        "spd": 100,
        "cri": 100,
        "luk": 100,
        "afi": 100,
        "awa": 100,
        "awi": 100,
        "ath": 100,
        "ash": 100,
        "ada": 100,
        "apo": 100,
        "apa": 100,
        "ast": 100,
        "asl": 100,
        "ach": 100,
        "asn": 100,
        "abl": 100,
        "ans": 100,
        "anm": 100,
        "ana": 100,
        "azo": 100,
        "ade": 100,
        "akn": 100,
        "abe": 100,
        "adc": 100,
        "aic": 100,
        "rfi": 100,
        "rwa": 100,
        "rwi": 100,
        "rth": 100,
        "rsh": 100,
        "rda": 100,
        "rpo": 100,
        "rpa": 100,
        "rst": 100,
        "rsl": 100,
        "rch": 100,
        "rsn": 100,
        "rbl": 100,
        "rns": 100,
        "rnm": 100,
        "rna": 100,
        "rzo": 100,
        "rde": 100,
        "rkn": 100,
        "rdf": 100,
        "rbe": 100,
        "rcs": 100,
        "rcu": 100,
        "rcd": 100,
        "rdo": 100,
        "rra": 100,
        "rdc": 100,
        "ric": 100
      }
    ]
  },
  {
    "type": "R6",
    "curve": [
      {
        "lv": 100,
        "val": 100,
        "hp": 100,
        "mp": 100,
        "atk": 100,
        "def": 100,
        "mag": 100,
        "mnd": 100,
        "dex": 100,
        "spd": 100,
        "cri": 100,
        "luk": 100,
        "afi": 100,
        "awa": 100,
        "awi": 100,
        "ath": 100,
        "ash": 100,
        "ada": 100,
        "apo": 100,
        "apa": 100,
        "ast": 100,
        "asl": 100,
        "ach": 100,
        "asn": 100,
        "abl": 100,
        "ans": 100,
        "anm": 100,
        "ana": 100,
        "azo": 100,
        "ade": 100,
        "akn": 100,
        "abe": 100,
        "adc": 100,
        "aic": 100,
        "rfi": 100,
        "rwa": 100,
        "rwi": 100,
        "rth": 100,
        "rsh": 100,
        "rda": 100,
        "rpo": 100,
        "rpa": 100,
        "rst": 100,
        "rsl": 100,
        "rch": 100,
        "rsn": 100,
        "rbl": 100,
        "rns": 100,
        "rnm": 100,
        "rna": 100,
        "rzo": 100,
        "rde": 100,
        "rkn": 100,
        "rdf": 100,
        "rbe": 100,
        "rcs": 100,
        "rcu": 100,
        "rcd": 100,
        "rdo": 100,
        "rra": 100,
        "rdc": 100,
        "ric": 100
      }
    ]
  },
  {
    "type": "EQUIP_R1",
    "curve": [
      {
        "lv": 1,
        "val": 100,
        "hp": 100,
        "mp": 100,
        "atk": 100,
        "def": 100,
        "mag": 100,
        "mnd": 100,
        "dex": 100,
        "spd": 100,
        "cri": 100,
        "luk": 100,
        "afi": 100,
        "awa": 100,
        "awi": 100,
        "ath": 100,
        "ash": 100,
        "ada": 100,
        "apo": 100,
        "apa": 100,
        "ast": 100,
        "asl": 100,
        "ach": 100,
        "asn": 100,
        "abl": 100,
        "ans": 100,
        "anm": 100,
        "ana": 100,
        "azo": 100,
        "ade": 100,
        "akn": 100,
        "abe": 100,
        "adc": 100,
        "aic": 100,
        "rfi": 100,
        "rwa": 100,
        "rwi": 100,
        "rth": 100,
        "rsh": 100,
        "rda": 100,
        "rpo": 100,
        "rpa": 100,
        "rst": 100,
        "rsl": 100,
        "rch": 100,
        "rsn": 100,
        "rbl": 100,
        "rns": 100,
        "rnm": 100,
        "rna": 100,
        "rzo": 100,
        "rde": 100,
        "rkn": 100,
        "rdf": 100,
        "rbe": 100,
        "rcs": 100,
        "rcu": 100,
        "rcd": 100,
        "rdo": 100,
        "rra": 100,
        "rdc": 100,
        "ric": 100
      }
    ]
  },
  {
    "type": "EQUIP_R2",
    "curve": [
      {
        "lv": 2,
        "val": 100,
        "hp": 100,
        "mp": 100,
        "atk": 100,
        "def": 100,
        "mag": 100,
        "mnd": 100,
        "dex": 100,
        "spd": 100,
        "cri": 100,
        "luk": 100,
        "afi": 100,
        "awa": 100,
        "awi": 100,
        "ath": 100,
        "ash": 100,
        "ada": 100,
        "apo": 100,
        "apa": 100,
        "ast": 100,
        "asl": 100,
        "ach": 100,
        "asn": 100,
        "abl": 100,
        "ans": 100,
        "anm": 100,
        "ana": 100,
        "azo": 100,
        "ade": 100,
        "akn": 100,
        "abe": 100,
        "adc": 100,
        "aic": 100,
        "rfi": 100,
        "rwa": 100,
        "rwi": 100,
        "rth": 100,
        "rsh": 100,
        "rda": 100,
        "rpo": 100,
        "rpa": 100,
        "rst": 100,
        "rsl": 100,
        "rch": 100,
        "rsn": 100,
        "rbl": 100,
        "rns": 100,
        "rnm": 100,
        "rna": 100,
        "rzo": 100,
        "rde": 100,
        "rkn": 100,
        "rdf": 100,
        "rbe": 100,
        "rcs": 100,
        "rcu": 100,
        "rcd": 100,
        "rdo": 100,
        "rra": 100,
        "rdc": 100,
        "ric": 100
      }
    ]
  },
  {
    "type": "EQUIP_R3",
    "curve": [
      {
        "lv": 4,
        "val": 100,
        "hp": 100,
        "mp": 100,
        "atk": 100,
        "def": 100,
        "mag": 100,
        "mnd": 100,
        "dex": 100,
        "spd": 100,
        "cri": 100,
        "luk": 100,
        "afi": 100,
        "awa": 100,
        "awi": 100,
        "ath": 100,
        "ash": 100,
        "ada": 100,
        "apo": 100,
        "apa": 100,
        "ast": 100,
        "asl": 100,
        "ach": 100,
        "asn": 100,
        "abl": 100,
        "ans": 100,
        "anm": 100,
        "ana": 100,
        "azo": 100,
        "ade": 100,
        "akn": 100,
        "abe": 100,
        "adc": 100,
        "aic": 100,
        "rfi": 100,
        "rwa": 100,
        "rwi": 100,
        "rth": 100,
        "rsh": 100,
        "rda": 100,
        "rpo": 100,
        "rpa": 100,
        "rst": 100,
        "rsl": 100,
        "rch": 100,
        "rsn": 100,
        "rbl": 100,
        "rns": 100,
        "rnm": 100,
        "rna": 100,
        "rzo": 100,
        "rde": 100,
        "rkn": 100,
        "rdf": 100,
        "rbe": 100,
        "rcs": 100,
        "rcu": 100,
        "rcd": 100,
        "rdo": 100,
        "rra": 100,
        "rdc": 100,
        "ric": 100
      }
    ]
  },
  {
    "type": "EQUIP_R4",
    "curve": [
      {
        "lv": 6,
        "val": 100,
        "hp": 100,
        "mp": 100,
        "atk": 100,
        "def": 100,
        "mag": 100,
        "mnd": 100,
        "dex": 100,
        "spd": 100,
        "cri": 100,
        "luk": 100,
        "afi": 100,
        "awa": 100,
        "awi": 100,
        "ath": 100,
        "ash": 100,
        "ada": 100,
        "apo": 100,
        "apa": 100,
        "ast": 100,
        "asl": 100,
        "ach": 100,
        "asn": 100,
        "abl": 100,
        "ans": 100,
        "anm": 100,
        "ana": 100,
        "azo": 100,
        "ade": 100,
        "akn": 100,
        "abe": 100,
        "adc": 100,
        "aic": 100,
        "rfi": 100,
        "rwa": 100,
        "rwi": 100,
        "rth": 100,
        "rsh": 100,
        "rda": 100,
        "rpo": 100,
        "rpa": 100,
        "rst": 100,
        "rsl": 100,
        "rch": 100,
        "rsn": 100,
        "rbl": 100,
        "rns": 100,
        "rnm": 100,
        "rna": 100,
        "rzo": 100,
        "rde": 100,
        "rkn": 100,
        "rdf": 100,
        "rbe": 100,
        "rcs": 100,
        "rcu": 100,
        "rcd": 100,
        "rdo": 100,
        "rra": 100,
        "rdc": 100,
        "ric": 100
      }
    ]
  },
  {
    "type": "EQUIP_R5",
    "curve": [
      {
        "lv": 6,
        "val": 100,
        "hp": 100,
        "mp": 100,
        "atk": 100,
        "def": 100,
        "mag": 100,
        "mnd": 100,
        "dex": 100,
        "spd": 100,
        "cri": 100,
        "luk": 100,
        "afi": 100,
        "awa": 100,
        "awi": 100,
        "ath": 100,
        "ash": 100,
        "ada": 100,
        "apo": 100,
        "apa": 100,
        "ast": 100,
        "asl": 100,
        "ach": 100,
        "asn": 100,
        "abl": 100,
        "ans": 100,
        "anm": 100,
        "ana": 100,
        "azo": 100,
        "ade": 100,
        "akn": 100,
        "abe": 100,
        "adc": 100,
        "aic": 100,
        "rfi": 100,
        "rwa": 100,
        "rwi": 100,
        "rth": 100,
        "rsh": 100,
        "rda": 100,
        "rpo": 100,
        "rpa": 100,
        "rst": 100,
        "rsl": 100,
        "rch": 100,
        "rsn": 100,
        "rbl": 100,
        "rns": 100,
        "rnm": 100,
        "rna": 100,
        "rzo": 100,
        "rde": 100,
        "rkn": 100,
        "rdf": 100,
        "rbe": 100,
        "rcs": 100,
        "rcu": 100,
        "rcd": 100,
        "rdo": 100,
        "rra": 100,
        "rdc": 100,
        "ric": 100
      }
    ]
  },
  {
    "type": "EQUIP_R6",
    "curve": [
      {
        "lv": 6,
        "val": 100,
        "hp": 100,
        "mp": 100,
        "atk": 100,
        "def": 100,
        "mag": 100,
        "mnd": 100,
        "dex": 100,
        "spd": 100,
        "cri": 100,
        "luk": 100,
        "afi": 100,
        "awa": 100,
        "awi": 100,
        "ath": 100,
        "ash": 100,
        "ada": 100,
        "apo": 100,
        "apa": 100,
        "ast": 100,
        "asl": 100,
        "ach": 100,
        "asn": 100,
        "abl": 100,
        "ans": 100,
        "anm": 100,
        "ana": 100,
        "azo": 100,
        "ade": 100,
        "akn": 100,
        "abe": 100,
        "adc": 100,
        "aic": 100,
        "rfi": 100,
        "rwa": 100,
        "rwi": 100,
        "rth": 100,
        "rsh": 100,
        "rda": 100,
        "rpo": 100,
        "rpa": 100,
        "rst": 100,
        "rsl": 100,
        "rch": 100,
        "rsn": 100,
        "rbl": 100,
        "rns": 100,
        "rnm": 100,
        "rna": 100,
        "rzo": 100,
        "rde": 100,
        "rkn": 100,
        "rdf": 100,
        "rbe": 100,
        "rcs": 100,
        "rcu": 100,
        "rcd": 100,
        "rdo": 100,
        "rra": 100,
        "rdc": 100,
        "ric": 100
      }
    ]
  },
  {
    "type": "ITEM_TOWER",
    "curve": [
      {
        "lv": 85,
        "val": 100,
        "hp": 100,
        "mp": 100,
        "atk": 100,
        "def": 100,
        "mag": 100,
        "mnd": 100,
        "dex": 100,
        "spd": 100,
        "cri": 100,
        "luk": 100,
        "afi": 100,
        "awa": 100,
        "awi": 100,
        "ath": 100,
        "ash": 100,
        "ada": 100,
        "apo": 100,
        "apa": 100,
        "ast": 100,
        "asl": 100,
        "ach": 100,
        "asn": 100,
        "abl": 100,
        "ans": 100,
        "anm": 100,
        "ana": 100,
        "azo": 100,
        "ade": 100,
        "akn": 100,
        "abe": 100,
        "adc": 100,
        "aic": 100,
        "rfi": 100,
        "rwa": 100,
        "rwi": 100,
        "rth": 100,
        "rsh": 100,
        "rda": 100,
        "rpo": 100,
        "rpa": 100,
        "rst": 100,
        "rsl": 100,
        "rch": 100,
        "rsn": 100,
        "rbl": 100,
        "rns": 100,
        "rnm": 100,
        "rna": 100,
        "rzo": 100,
        "rde": 100,
        "rkn": 100,
        "rdf": 100,
        "rbe": 100,
        "rcs": 100,
        "rcu": 100,
        "rcd": 100,
        "rdo": 100,
        "rra": 100,
        "rdc": 100,
        "ric": 100
      }
    ]
  }
]