[
  {
    "id": 1,
    "period_id": 5,
    "rank_start": 1,
    "rank_end": 1,
    "reward_id": "RAID_DMG_AOT_1_10"
  },
  {
    "id": 2,
    "period_id": 6,
    "rank_start": 2,
    "rank_end": 2,
    "reward_id": "RAID_DMG_AOT_1_10"
  },
  {
    "id": 3,
    "period_id": 5,
    "rank_start": 3,
    "rank_end": 3,
    "reward_id": "RAID_DMG_AOT_1_10"
  },
  {
    "id": 4,
    "period_id": 5,
    "rank_start": 4,
    "rank_end": 999,
    "reward_id": "RAID_DMG_AOT_1_10"
  },
  {
    "id": 5,
    "period_id": 5,
    "rank_start": 1000,
    "rank_end": 5000,
    "reward_id": "RAID_DMG_AOT_1_10"
  },
  {
    "id": 6,
    "period_id": 6,
    "rank_start": 1,
    "rank_end": 1,
    "reward_id": "RAID_DMG_AOT_1_10"
  },
  {
    "id": 7,
    "period_id": 6,
    "rank_start": 2,
    "rank_end": 2,
    "reward_id": "RAID_DMG_AOT_1_10"
  },
  {
    "id": 8,
    "period_id": 6,
    "rank_start": 3,
    "rank_end": 3,
    "reward_id": "RAID_DMG_AOT_1_10"
  },
  {
    "id": 9,
    "period_id": 6,
    "rank_start": 4,
    "rank_end": 999,
    "reward_id": "RAID_DMG_AOT_1_10"
  },
  {
    "id": 10,
    "period_id": 6,
    "rank_start": 1000,
    "rank_end": 5000,
    "reward_id": "RAID_DMG_AOT_1_10"
  },
  {
    "id": 11,
    "period_id": 7,
    "rank_start": 1,
    "rank_end": 1,
    "reward_id": "RAID_DMG_AOT_1_10"
  },
  {
    "id": 12,
    "period_id": 7,
    "rank_start": 2,
    "rank_end": 2,
    "reward_id": "RAID_DMG_AOT_1_10"
  },
  {
    "id": 13,
    "period_id": 7,
    "rank_start": 3,
    "rank_end": 3,
    "reward_id": "RAID_DMG_AOT_1_10"
  },
  {
    "id": 14,
    "period_id": 7,
    "rank_start": 4,
    "rank_end": 4,
    "reward_id": "RAID_DMG_AOT_1_10"
  },
  {
    "id": 15,
    "period_id": 7,
    "rank_start": 5,
    "rank_end": 20,
    "reward_id": "RAID_DMG_AOT_1_10"
  },
  {
    "id": 16,
    "period_id": 8,
    "rank_start": 1,
    "rank_end": 1,
    "reward_id": "RAID_MCF_RES_01"
  },
  {
    "id": 17,
    "period_id": 8,
    "rank_start": 2,
    "rank_end": 2,
    "reward_id": "RAID_MCF_RES_02"
  },
  {
    "id": 18,
    "period_id": 8,
    "rank_start": 3,
    "rank_end": 3,
    "reward_id": "RAID_MCF_RES_03"
  },
  {
    "id": 19,
    "period_id": 8,
    "rank_start": 1,
    "rank_end": 100,
    "reward_id": "RAID_MCF_RES_100"
  },
  {
    "id": 20,
    "period_id": 9,
    "rank_start": 1,
    "rank_end": 1,
    "reward_id": "RAID_SEISEKI_RES_01"
  },
  {
    "id": 21,
    "period_id": 9,
    "rank_start": 2,
    "rank_end": 2,
    "reward_id": "RAID_SEISEKI_RES_02"
  },
  {
    "id": 22,
    "period_id": 9,
    "rank_start": 3,
    "rank_end": 3,
    "reward_id": "RAID_SEISEKI_RES_03"
  },
  {
    "id": 23,
    "period_id": 9,
    "rank_start": 1,
    "rank_end": 100,
    "reward_id": "RAID_SEISEKI_RES_100"
  },
  {
    "id": 24,
    "period_id": 10,
    "rank_start": 1,
    "rank_end": 1,
    "reward_id": "RAID_MOVIE_RES_01"
  },
  {
    "id": 25,
    "period_id": 10,
    "rank_start": 2,
    "rank_end": 2,
    "reward_id": "RAID_MOVIE_RES_02"
  },
  {
    "id": 26,
    "period_id": 10,
    "rank_start": 3,
    "rank_end": 3,
    "reward_id": "RAID_MOVIE_RES_03"
  },
  {
    "id": 27,
    "period_id": 10,
    "rank_start": 1,
    "rank_end": 100,
    "reward_id": "RAID_MOVIE_RES_100"
  },
  {
    "id": 28,
    "period_id": 11,
    "rank_start": 1,
    "rank_end": 1,
    "reward_id": "RAID_SWIMSKIN_RES_01"
  },
  {
    "id": 29,
    "period_id": 11,
    "rank_start": 2,
    "rank_end": 2,
    "reward_id": "RAID_SWIMSKIN_RES_02"
  },
  {
    "id": 30,
    "period_id": 11,
    "rank_start": 3,
    "rank_end": 3,
    "reward_id": "RAID_SWIMSKIN_RES_03"
  },
  {
    "id": 31,
    "period_id": 11,
    "rank_start": 1,
    "rank_end": 100,
    "reward_id": "RAID_SWIMSKIN_RES_100"
  },
  {
    "id": 32,
    "period_id": 12,
    "rank_start": 1,
    "rank_end": 1,
    "reward_id": "RAID_MONTH_FIRE_RES_01"
  },
  {
    "id": 33,
    "period_id": 12,
    "rank_start": 2,
    "rank_end": 2,
    "reward_id": "RAID_MONTH_FIRE_RES_02"
  },
  {
    "id": 34,
    "period_id": 12,
    "rank_start": 3,
    "rank_end": 3,
    "reward_id": "RAID_MONTH_FIRE_RES_03"
  },
  {
    "id": 35,
    "period_id": 12,
    "rank_start": 1,
    "rank_end": 100,
    "reward_id": "RAID_MONTH_FIRE_RES_100"
  },
  {
    "id": 36,
    "period_id": 13,
    "rank_start": 1,
    "rank_end": 1,
    "reward_id": "RAID_TS_02_RES_01"
  },
  {
    "id": 37,
    "period_id": 13,
    "rank_start": 2,
    "rank_end": 2,
    "reward_id": "RAID_TS_02_RES_02"
  },
  {
    "id": 38,
    "period_id": 13,
    "rank_start": 3,
    "rank_end": 3,
    "reward_id": "RAID_TS_02_RES_03"
  },
  {
    "id": 39,
    "period_id": 13,
    "rank_start": 1,
    "rank_end": 100,
    "reward_id": "RAID_TS_02_RES_100"
  }
]