[
  {
    "id": 1,
    "order": 1,
    "period_id": 1,
    "boss_count": 2,
    "area_boss_id": 6,
    "clear_reward_id": 1
  },
  {
    "id": 2,
    "order": 2,
    "period_id": 1,
    "boss_count": 3,
    "area_boss_id": 7,
    "clear_reward_id": 2
  },
  {
    "id": 3,
    "order": 3,
    "period_id": 1,
    "boss_count": 4,
    "area_boss_id": 8,
    "clear_reward_id": 3
  },
  {
    "id": 4,
    "order": 1,
    "period_id": 2,
    "boss_count": 3,
    "area_boss_id": 12,
    "clear_reward_id": 4
  },
  {
    "id": 5,
    "order": 2,
    "period_id": 2,
    "boss_count": 3,
    "area_boss_id": 13,
    "clear_reward_id": 5
  },
  {
    "id": 6,
    "order": 3,
    "period_id": 2,
    "boss_count": 3,
    "area_boss_id": 14,
    "clear_reward_id": 6
  },
  {
    "id": 7,
    "order": 1,
    "period_id": 3,
    "boss_count": 2,
    "area_boss_id": 19,
    "clear_reward_id": 7
  },
  {
    "id": 8,
    "order": 1,
    "period_id": 4,
    "boss_count": 2,
    "area_boss_id": 28,
    "clear_reward_id": 8
  },
  {
    "id": 9,
    "order": 2,
    "period_id": 4,
    "boss_count": 2,
    "area_boss_id": 29,
    "clear_reward_id": 9
  },
  {
    "id": 10,
    "order": 1,
    "period_id": 5,
    "boss_count": 2,
    "area_boss_id": 39,
    "clear_reward_id": 10
  },
  {
    "id": 11,
    "order": 2,
    "period_id": 5,
    "boss_count": 2,
    "area_boss_id": 40,
    "clear_reward_id": 11
  },
  {
    "id": 12,
    "order": 3,
    "period_id": 5,
    "boss_count": 2,
    "area_boss_id": 41,
    "clear_reward_id": 12
  },
  {
    "id": 13,
    "order": 1,
    "period_id": 6,
    "boss_count": 2,
    "area_boss_id": 45,
    "clear_reward_id": 13
  },
  {
    "id": 14,
    "order": 2,
    "period_id": 6,
    "boss_count": 2,
    "area_boss_id": 46,
    "clear_reward_id": 14
  },
  {
    "id": 15,
    "order": 3,
    "period_id": 6,
    "boss_count": 2,
    "area_boss_id": 47,
    "clear_reward_id": 15
  },
  {
    "id": 16,
    "order": 1,
    "period_id": 7,
    "boss_count": 2,
    "area_boss_id": 54,
    "clear_reward_id": 16
  },
  {
    "id": 17,
    "order": 2,
    "period_id": 7,
    "boss_count": 2,
    "area_boss_id": 55,
    "clear_reward_id": 17
  },
  {
    "id": 18,
    "order": 3,
    "period_id": 7,
    "boss_count": 2,
    "area_boss_id": 56,
    "clear_reward_id": 18
  },
  {
    "id": 19,
    "order": 1,
    "period_id": 8,
    "boss_count": 2,
    "area_boss_id": 69,
    "clear_reward_id": 19
  },
  {
    "id": 20,
    "order": 2,
    "period_id": 8,
    "boss_count": 2,
    "area_boss_id": 70,
    "clear_reward_id": 20
  },
  {
    "id": 21,
    "order": 3,
    "period_id": 8,
    "boss_count": 2,
    "area_boss_id": 71,
    "clear_reward_id": 21
  },
  {
    "id": 22,
    "order": 1,
    "period_id": 9,
    "boss_count": 2,
    "area_boss_id": 75,
    "clear_reward_id": 22
  },
  {
    "id": 23,
    "order": 2,
    "period_id": 9,
    "boss_count": 2,
    "area_boss_id": 76,
    "clear_reward_id": 23
  },
  {
    "id": 24,
    "order": 3,
    "period_id": 9,
    "boss_count": 2,
    "area_boss_id": 77,
    "clear_reward_id": 24
  },
  {
    "id": 25,
    "order": 1,
    "period_id": 10,
    "boss_count": 2,
    "area_boss_id": 87,
    "clear_reward_id": 25
  },
  {
    "id": 26,
    "order": 2,
    "period_id": 10,
    "boss_count": 2,
    "area_boss_id": 88,
    "clear_reward_id": 26
  },
  {
    "id": 27,
    "order": 3,
    "period_id": 10,
    "boss_count": 2,
    "area_boss_id": 89,
    "clear_reward_id": 27
  },
  {
    "id": 28,
    "order": 1,
    "period_id": 11,
    "boss_count": 2,
    "area_boss_id": 96,
    "clear_reward_id": 28
  },
  {
    "id": 29,
    "order": 2,
    "period_id": 11,
    "boss_count": 2,
    "area_boss_id": 97,
    "clear_reward_id": 29
  },
  {
    "id": 30,
    "order": 3,
    "period_id": 11,
    "boss_count": 2,
    "area_boss_id": 98,
    "clear_reward_id": 30
  },
  {
    "id": 31,
    "order": 1,
    "period_id": 12,
    "boss_count": 2,
    "area_boss_id": 105,
    "clear_reward_id": 31
  },
  {
    "id": 32,
    "order": 2,
    "period_id": 12,
    "boss_count": 2,
    "area_boss_id": 106,
    "clear_reward_id": 32
  },
  {
    "id": 33,
    "order": 3,
    "period_id": 12,
    "boss_count": 2,
    "area_boss_id": 107,
    "clear_reward_id": 33
  },
  {
    "id": 34,
    "order": 1,
    "period_id": 13,
    "boss_count": 2,
    "area_boss_id": 111,
    "clear_reward_id": 34
  },
  {
    "id": 35,
    "order": 2,
    "period_id": 13,
    "boss_count": 2,
    "area_boss_id": 112,
    "clear_reward_id": 35
  },
  {
    "id": 36,
    "order": 3,
    "period_id": 13,
    "boss_count": 2,
    "area_boss_id": 113,
    "clear_reward_id": 36
  }
]