[
  {
    "seteff_type": 1,
    "name": "強攻",
    "icon_index": 0,
    "cost": 4,
    "state": [
      {
        "type": 5,
        "calc": 1,
        "vone": 10
      }
    ]
  },
  {
    "seteff_type": 2,
    "name": "魔道",
    "icon_index": 1,
    "cost": 4,
    "state": [
      {
        "type": 7,
        "calc": 1,
        "vone": 10
      }
    ]
  },
  {
    "seteff_type": 3,
    "name": "堅牢",
    "icon_index": 2,
    "cost": 2,
    "state": [
      {
        "type": 6,
        "calc": 1,
        "vone": 10
      }
    ]
  },
  {
    "seteff_type": 4,
    "name": "魔陣",
    "icon_index": 3,
    "cost": 2,
    "state": [
      {
        "type": 8,
        "calc": 1,
        "vone": 10
      }
    ]
  },
  {
    "seteff_type": 5,
    "name": "長駆",
    "icon_index": 4,
    "cost": 6,
    "state": [
      {
        "type": 14,
        "calc": 0,
        "vone": 1
      }
    ]
  },
  {
    "seteff_type": 6,
    "name": "加護",
    "icon_index": 5,
    "cost": 2,
    "state": [
      {
        "type": 78,
        "calc": 0,
        "vone": 5
      }
    ]
  },
  {
    "seteff_type": 7,
    "name": "宝石",
    "icon_index": 6,
    "cost": 4,
    "state": [
      {
        "type": 4,
        "calc": 0,
        "vone": 10
      }
    ]
  },
  {
    "seteff_type": 8,
    "name": "命脈",
    "icon_index": 7,
    "cost": 4,
    "state": [
      {
        "type": 1,
        "calc": 1,
        "vone": 15
      }
    ]
  },
  {
    "seteff_type": 9,
    "name": "飛躍",
    "icon_index": 8,
    "cost": 2,
    "state": [
      {
        "type": 15,
        "calc": 0,
        "vone": 1
      }
    ]
  },
  {
    "seteff_type": 10,
    "name": "技巧",
    "icon_index": 9,
    "cost": 2,
    "state": [
      {
        "type": 79,
        "calc": 0,
        "vone": 10
      }
    ]
  },
  {
    "seteff_type": 11,
    "name": "幻像",
    "icon_index": 10,
    "cost": 4,
    "state": [
      {
        "type": 80,
        "calc": 0,
        "vone": 10
      }
    ]
  },
  {
    "seteff_type": 12,
    "name": "一閃",
    "icon_index": 11,
    "cost": 2,
    "state": [
      {
        "type": 123,
        "calc": 0,
        "vone": 5
      }
    ]
  },
  {
    "seteff_type": 13,
    "name": "一掃",
    "icon_index": 12,
    "cost": 2,
    "state": [
      {
        "type": 124,
        "calc": 0,
        "vone": 5
      }
    ]
  },
  {
    "seteff_type": 14,
    "name": "超盾",
    "icon_index": 13,
    "cost": 4,
    "state": [
      {
        "type": 143,
        "calc": 0,
        "vone": 10
      },
      {
        "type": 144,
        "calc": 0,
        "vone": 10
      },
      {
        "type": 145,
        "calc": 0,
        "vone": 10
      },
      {
        "type": 146,
        "calc": 0,
        "vone": 10
      },
      {
        "type": 147,
        "calc": 0,
        "vone": 10
      },
      {
        "type": 148,
        "calc": 0,
        "vone": 10
      }
    ]
  }
]