[
  {
    "iname": "SKMP_TEST01",
    "manipulate": 1,
    "dmg_type": 2
  },
  {
    "iname": "SKMP_NIGRED_20_LEVI",
    "manipulate": 3,
    "dmg_type": 1,
    "is_break": 1,
    "is_elems": [
      1,
      2,
      4,
      3,
      5,
      6,
      0
    ]
  },
  {
    "iname": "SKMP_CTR_C_RETURN7",
    "manipulate": 1,
    "dmg_type": 3,
    "is_pierce": 1
  },
  {
    "iname": "SKMP_ZAFI01_UPPER_04",
    "manipulate": 3,
    "dmg_type": 3,
    "is_pierce": 1,
    "is_elems": [
      4,
      0
    ]
  },
  {
    "iname": "SKMP_ALL",
    "manipulate": 3,
    "dmg_type": 1,
    "is_pierce": 1,
    "is_break": 1,
    "is_elems": [
      1,
      2,
      4,
      3,
      5,
      6,
      0
    ]
  },
  {
    "iname": "SKMP_KAISER_RETURNS11",
    "manipulate": 3,
    "dmg_type": 1,
    "is_break": 1,
    "is_elems": [
      1,
      2,
      4,
      3,
      5,
      6,
      0
    ]
  }
]