[
  {
    "iname": "SORT_RUNE_PARAMS",
    "tab_name": "ソート",
    "name": "ソート基準",
    "cnds": [
      {
        "cnds_iname": "GET",
        "name": "入手順",
        "sort_type": 0
      },
      {
        "cnds_iname": "RARE",
        "name": "レアリティ",
        "sort_type": 1
      },
      {
        "cnds_iname": "ENH",
        "name": "強化数",
        "sort_type": 2
      },
      {
        "cnds_iname": "EVO",
        "name": "覚醒数",
        "sort_type": 3
      },
      {
        "cnds_iname": "HP",
        "name": "HP",
        "sort_type": 4
      },
      {
        "cnds_iname": "ATK",
        "name": "物攻",
        "sort_type": 7
      },
      {
        "cnds_iname": "DEF",
        "name": "物防",
        "sort_type": 8
      },
      {
        "cnds_iname": "MAG",
        "name": "魔攻",
        "sort_type": 9
      },
      {
        "cnds_iname": "MND",
        "name": "魔防",
        "sort_type": 10
      },
      {
        "cnds_iname": "DEX",
        "name": "器用さ",
        "sort_type": 12
      },
      {
        "cnds_iname": "SPD",
        "name": "素早さ",
        "sort_type": 13
      },
      {
        "cnds_iname": "CRI",
        "name": "会心",
        "sort_type": 14
      },
      {
        "cnds_iname": "LUK",
        "name": "運",
        "sort_type": 15
      }
    ]
  }
]