[
  {
    "iname": "TE_BONUS_GL_SOREN_LV10",
    "abil_iname": "AB_TE_BONUS_GL_SOREN_LV10",
    "learn_type": 1
  },
  {
    "iname": "TE_BONUS_GL_RED6_LV10",
    "abil_iname": "AB_TE_BONUS_GL_RED6_LV10",
    "learn_type": 1
  },
  {
    "iname": "TE_BONUS_GL_EIRA_LV10",
    "abil_iname": "AB_TE_BONUS_GL_EIRA_LV10",
    "learn_type": 1
  },
  {
    "iname": "TE_BONUS_GL_EMRYS_LV10",
    "abil_iname": "AB_TE_BONUS_GL_EMRYS_LV10",
    "learn_type": 1
  },
  {
    "iname": "TE_BONUS_GL_LILITH_LV10",
    "abil_iname": "AB_TE_BONUS_GL_LILITH_LV10",
    "learn_type": 1
  },
  {
    "iname": "TE_BONUS_GL_MORRIGAN_LV10",
    "abil_iname": "AB_TE_BONUS_GL_MORRIGAN_LV10",
    "learn_type": 1
  },
  {
    "iname": "TE_BONUS_GL_ZHENGYI_LV10",
    "abil_iname": "AB_TE_BONUS_GL_ZHENGYI_LV10",
    "learn_type": 1
  },
  {
    "iname": "TE_BONUS_GL_ASUKA_LV10",
    "abil_iname": "AB_TE_BONUS_GL_ASUKA_LV10",
    "learn_type": 1
  },
  {
    "iname": "TE_BONUS_GL_SHION_LV10",
    "abil_iname": "AB_TE_BONUS_GL_SHION_LV10",
    "learn_type": 1
  },
  {
    "iname": "TE_BONUS_GL_SIEG_LV10",
    "abil_iname": "AB_TE_BONUS_GL_SIEG_LV10",
    "learn_type": 1
  },
  {
    "iname": "TE_BONUS_GL_ROXA_LV10",
    "abil_iname": "AB_TE_BONUS_GL_ROXA_LV10",
    "learn_type": 1
  },
  {
    "iname": "TE_BONUS_GL_MINERVA_LV10",
    "abil_iname": "AB_TE_BONUS_GL_MINERVA_LV10",
    "learn_type": 1
  },
  {
    "iname": "TE_BONUS_GL_ELIZA_LV10",
    "abil_iname": "AB_TE_BONUS_GL_ELIZA_LV10",
    "learn_type": 1
  },
  {
    "iname": "TE_BONUS_GL_GRIMM1_LV10",
    "abil_iname": "AB_TE_BONUS_GL_GRIMM1_LV10",
    "learn_type": 1
  },
  {
    "iname": "TE_BONUS_TS_MELYODAS_LV10",
    "abil_iname": "AB_TE_BONUS_TS_MELYODAS_LV10",
    "learn_type": 1
  },
  {
    "iname": "TE_BONUS_TS_KING_LV10",
    "abil_iname": "AB_TE_BONUS_TS_KING_LV10",
    "learn_type": 1
  },
  {
    "iname": "TE_BONUS_TS_DIANE_LV10",
    "abil_iname": "AB_TE_BONUS_TS_DIANE_LV10",
    "learn_type": 1
  },
  {
    "iname": "TE_BONUS_TS_GOUSERU_LV10",
    "abil_iname": "AB_TE_BONUS_TS_GOUSERU_LV10",
    "learn_type": 1
  },
  {
    "iname": "TE_BONUS_TS_BAN_LV10",
    "abil_iname": "AB_TE_BONUS_TS_BAN_LV10",
    "learn_type": 1
  },
  {
    "iname": "TE_BONUS_TS_ELIZABTH_LV10",
    "abil_iname": "AB_TE_BONUS_TS_ELIZABTH_LV10",
    "learn_type": 1
  },
  {
    "iname": "TE_BONUS_TS_ESCANOR_LV10",
    "abil_iname": "AB_TE_BONUS_TS_ESCANOR_LV10",
    "learn_type": 1
  },
  {
    "iname": "TE_BONUS_TS_MERLIN_LV10",
    "abil_iname": "AB_TE_BONUS_TS_MERLIN_LV10",
    "learn_type": 1
  },
  {
    "iname": "TE_BONUS_TS_ZELDRIS_LV10",
    "abil_iname": "AB_TE_BONUS_TS_ZELDRIS_LV10",
    "learn_type": 1
  },
  {
    "iname": "TE_BONUS_CELES_LV10",
    "abil_iname": "AB_TE_BONUS_CELES_LV10",
    "learn_type": 1
  },
  {
    "iname": "TE_BONUS_UGACHI_LV10",
    "abil_iname": "AB_TE_BONUS_UGACHI_LV10",
    "learn_type": 1
  },
  {
    "iname": "TE_BONUS_TANOSUKE_LV10",
    "abil_iname": "AB_TE_BONUS_TANOSUKE_LV10",
    "learn_type": 1
  },
  {
    "iname": "TE_BONUS_THOL_LV10",
    "abil_iname": "AB_TE_BONUS_THOL_LV10",
    "learn_type": 1
  },
  {
    "iname": "TE_BONUS_TINA_LV10",
    "abil_iname": "AB_TE_BONUS_TINA_LV10",
    "learn_type": 1
  },
  {
    "iname": "TE_BONUS_MOCA_LV10",
    "abil_iname": "AB_TE_BONUS_MOCA_LV10",
    "learn_type": 1
  },
  {
    "iname": "TE_BONUS_MOCA_LV20",
    "abil_iname": "AB_TE_BONUS_MOCA_LV20",
    "learn_type": 1
  },
  {
    "iname": "TE_BONUS_FIONA_LV10",
    "abil_iname": "AB_TE_BONUS_FIONA_LV10",
    "learn_type": 1
  },
  {
    "iname": "TE_BONUS_EDGAR_LV10",
    "abil_iname": "AB_TE_BONUS_EDGAR_LV10",
    "learn_type": 1
  },
  {
    "iname": "TE_BONUS_EDGAR_LV20",
    "abil_iname": "AB_TE_BONUS_EDGAR_LV20",
    "learn_type": 1
  },
  {
    "iname": "TE_BONUS_DON_TARAS_LV10",
    "abil_iname": "AB_TE_BONUS_DON_TARAS_LV10",
    "learn_type": 1
  },
  {
    "iname": "TE_BONUS_CLOE_LV10",
    "abil_iname": "AB_TE_BONUS_CLOE_LV10",
    "learn_type": 1
  },
  {
    "iname": "TE_BONUS_CLOE_LV20",
    "abil_iname": "AB_TE_BONUS_CLOE_LV20",
    "learn_type": 1
  },
  {
    "iname": "TE_BONUS_LETICIA_LV10",
    "abil_iname": "AB_TE_BONUS_LETICIA_LV10",
    "learn_type": 1
  },
  {
    "iname": "TE_BONUS_LETICIA_LV20",
    "abil_iname": "AB_TE_BONUS_LETICIA_LV20",
    "learn_type": 1
  },
  {
    "iname": "TE_BONUS_ZAHAR_LV10",
    "abil_iname": "AB_TE_BONUS_ZAHAR_LV10",
    "learn_type": 1
  },
  {
    "iname": "TE_BONUS_ZAHAR_LV20",
    "abil_iname": "AB_TE_BONUS_ZAHAR_LV20",
    "learn_type": 1
  },
  {
    "iname": "TE_BONUS_NIGURU_LV10",
    "abil_iname": "AB_TE_BONUS_NIGURU_LV10",
    "learn_type": 1
  },
  {
    "iname": "TE_BONUS_NIGURU_LV20",
    "abil_iname": "AB_TE_BONUS_NIGURU_LV20",
    "learn_type": 1
  },
  {
    "iname": "TE_BONUS_TERESA_LV10",
    "abil_iname": "AB_TE_BONUS_TERESA_LV10",
    "learn_type": 1
  },
  {
    "iname": "TE_BONUS_TERESA_LV20",
    "abil_iname": "AB_TE_BONUS_TERESA_LV20",
    "learn_type": 1
  },
  {
    "iname": "TE_BONUS_LAMIA_LV10",
    "abil_iname": "AB_TE_BONUS_LAMIA_LV10",
    "learn_type": 1
  },
  {
    "iname": "TE_BONUS_LAMIA_LV20",
    "abil_iname": "AB_TE_BONUS_LAMIA_LV20",
    "learn_type": 1
  },
  {
    "iname": "TE_BONUS_PRISCILA_LV10",
    "abil_iname": "AB_TE_BONUS_PRISCILA_LV10",
    "learn_type": 1
  },
  {
    "iname": "TE_BONUS_WAGINAO_LV10",
    "abil_iname": "AB_TE_BONUS_WAGINAO_LV10",
    "learn_type": 1
  },
  {
    "iname": "TE_BONUS_L_UROB_LV10",
    "abil_iname": "AB_TE_BONUS_L_UROB_LV10",
    "learn_type": 1
  },
  {
    "iname": "TE_BONUS_JUURIA_LV10",
    "abil_iname": "AB_TE_BONUS_JUURIA_LV10",
    "learn_type": 1
  },
  {
    "iname": "TE_BONUS_AMBROSIA_LV10",
    "abil_iname": "AB_TE_BONUS_AMBROSIA_LV10",
    "learn_type": 1
  },
  {
    "iname": "TE_BONUS_BIANCA_LV10",
    "abil_iname": "AB_TE_BONUS_BIANCA_LV10",
    "learn_type": 1
  },
  {
    "iname": "TE_BONUS_YOMI_LV10",
    "abil_iname": "AB_TE_BONUS_YOMI_LV10",
    "learn_type": 1
  },
  {
    "iname": "TE_BONUS_YOMI_LV20",
    "abil_iname": "AB_TE_BONUS_YOMI_LV20",
    "learn_type": 1
  },
  {
    "iname": "TE_BONUS_ZIN_LV10",
    "abil_iname": "AB_TE_BONUS_ZIN_LV10",
    "learn_type": 1
  },
  {
    "iname": "TE_BONUS_ZIN_LV20",
    "abil_iname": "AB_TE_BONUS_ZIN_LV20",
    "learn_type": 1
  },
  {
    "iname": "TE_BONUS_LEAFA_LV10",
    "abil_iname": "AB_TE_BONUS_LEAFA_LV10",
    "learn_type": 1
  },
  {
    "iname": "TE_BONUS_RAHU_LV10",
    "abil_iname": "AB_TE_BONUS_RAHU_LV10",
    "learn_type": 1
  },
  {
    "iname": "TE_BONUS_RAHU_LV20",
    "abil_iname": "AB_TE_BONUS_RAHU_LV20",
    "learn_type": 1
  },
  {
    "iname": "TE_BONUS_RAMESES_LV10",
    "abil_iname": "AB_TE_BONUS_RAMESES_LV10",
    "learn_type": 1
  },
  {
    "iname": "TE_BONUS_RAMESES_LV20",
    "abil_iname": "AB_TE_BONUS_RAMESES_LV20",
    "learn_type": 1
  },
  {
    "iname": "TE_BONUS_ROFIA_LV10",
    "abil_iname": "AB_TE_BONUS_ROFIA_LV10",
    "learn_type": 1
  },
  {
    "iname": "TE_BONUS_ROFIA_LV20",
    "abil_iname": "AB_TE_BONUS_ROFIA_LV20",
    "learn_type": 1
  },
  {
    "iname": "TE_BONUS_MILIS_LV10",
    "abil_iname": "AB_TE_BONUS_MILIS_LV10",
    "learn_type": 1
  },
  {
    "iname": "TE_BONUS_MILIS_LV20",
    "abil_iname": "AB_TE_BONUS_MILIS_LV20",
    "learn_type": 1
  },
  {
    "iname": "TE_BONUS_CARLA_LV10",
    "abil_iname": "AB_TE_BONUS_CARLA_LV10",
    "learn_type": 1
  },
  {
    "iname": "TE_BONUS_CARLA_LV20",
    "abil_iname": "AB_TE_BONUS_CARLA_LV20",
    "learn_type": 1
  },
  {
    "iname": "TE_BONUS_BALT_LV10",
    "abil_iname": "AB_TE_BONUS_BALT_LV10",
    "learn_type": 1
  },
  {
    "iname": "TE_BONUS_BALT_LV20",
    "abil_iname": "AB_TE_BONUS_BALT_LV20",
    "learn_type": 1
  },
  {
    "iname": "TE_BONUS_ZOPHIE_LV10",
    "abil_iname": "AB_TE_BONUS_ZOPHIE_LV10",
    "learn_type": 1
  },
  {
    "iname": "TE_BONUS_ZOPHIE_LV20",
    "abil_iname": "AB_TE_BONUS_ZOPHIE_LV20",
    "learn_type": 1
  },
  {
    "iname": "TE_BONUS_LOGI_LV10",
    "abil_iname": "AB_TE_BONUS_LOGI_LV10",
    "learn_type": 1
  },
  {
    "iname": "TE_BONUS_ELIZABETH_LV10",
    "abil_iname": "AB_TE_BONUS_ELIZABETH_LV10",
    "learn_type": 1
  },
  {
    "iname": "TE_BONUS_MARGARET_LV10",
    "abil_iname": "AB_TE_BONUS_MARGARET_LV10",
    "learn_type": 1
  },
  {
    "iname": "TE_BONUS_CHALICE_LV10",
    "abil_iname": "AB_TE_BONUS_CHALICE_LV10",
    "learn_type": 1
  },
  {
    "iname": "TE_BONUS_NOAH_LV10",
    "abil_iname": "AB_TE_BONUS_NOAH_LV10",
    "learn_type": 1
  },
  {
    "iname": "TE_BONUS_NOAH_LV20",
    "abil_iname": "AB_TE_BONUS_NOAH_LV20",
    "learn_type": 1
  },
  {
    "iname": "TE_BONUS_EMA_LV10",
    "abil_iname": "AB_TE_BONUS_EMA_LV10",
    "learn_type": 1
  },
  {
    "iname": "TE_BONUS_EMA_LV20",
    "abil_iname": "AB_TE_BONUS_EMA_LV20",
    "learn_type": 1
  },
  {
    "iname": "TE_BONUS_REGEN_LV10",
    "abil_iname": "AB_TE_BONUS_REGEN_LV10",
    "learn_type": 1
  },
  {
    "iname": "TE_BONUS_PAMERA_LV10",
    "abil_iname": "AB_TE_BONUS_PAMERA_LV10",
    "learn_type": 1
  },
  {
    "iname": "TE_BONUS_VELOZ_LV10",
    "abil_iname": "AB_TE_BONUS_VELOZ_LV10",
    "learn_type": 1
  },
  {
    "iname": "TE_BONUS_MASAMUNE_LV10",
    "abil_iname": "AB_TE_BONUS_MASAMUNE_LV10",
    "learn_type": 1
  },
  {
    "iname": "TE_BONUS_TYRHUNG_LV10",
    "abil_iname": "AB_TE_BONUS_TYRHUNG_LV10",
    "learn_type": 1
  },
  {
    "iname": "TE_BONUS_LAEVATEINN_LV10",
    "abil_iname": "AB_TE_BONUS_LAEVATEINN_LV10",
    "learn_type": 1
  },
  {
    "iname": "TE_BONUS_POK_BLK_MASAMUNE_LV10",
    "abil_iname": "AB_TE_BONUS_POK_BLK_MASAMUNE_LV10",
    "learn_type": 1
  },
  {
    "iname": "TE_BONUS_POK_BLK_TYRHUNG_LV10",
    "abil_iname": "AB_TE_BONUS_POK_BLK_TYRHUNG_LV10",
    "learn_type": 1
  },
  {
    "iname": "TE_BONUS_POK_BLK_LAEVATEINN_LV10",
    "abil_iname": "AB_TE_BONUS_POK_BLK_LAEVATEINN_LV10",
    "learn_type": 1
  },
  {
    "iname": "TE_BONUS_MT3_HITOSYURA_LV10",
    "abil_iname": "AB_TE_BONUS_MT3_HITOSYURA_LV10",
    "learn_type": 1
  },
  {
    "iname": "TE_BONUS_MT3_TITANIA_LV10",
    "abil_iname": "AB_TE_BONUS_MT3_TITANIA_LV10",
    "learn_type": 1
  },
  {
    "iname": "TE_BONUS_MT3_CERBERUS_LV10",
    "abil_iname": "AB_TE_BONUS_MT3_CERBERUS_LV10",
    "learn_type": 1
  },
  {
    "iname": "TE_BONUS_BENIKA_LV10",
    "abil_iname": "AB_TE_BONUS_BENIKA_LV10",
    "learn_type": 1
  },
  {
    "iname": "TE_BONUS_LIESBET_LV10",
    "abil_iname": "AB_TE_BONUS_LIESBET_LV10",
    "learn_type": 1
  },
  {
    "iname": "TE_BONUS_LIESBET_LV20",
    "abil_iname": "AB_TE_BONUS_LIESBET_LV20",
    "learn_type": 1
  },
  {
    "iname": "TE_BONUS_REBECCA_LV10",
    "abil_iname": "AB_TE_BONUS_REBECCA_LV10",
    "learn_type": 1
  },
  {
    "iname": "TE_BONUS_BELTA_LV10",
    "abil_iname": "AB_TE_BONUS_BELTA_LV10",
    "learn_type": 1
  },
  {
    "iname": "TE_BONUS_PATTI_LV10",
    "abil_iname": "AB_TE_BONUS_PATTI_LV10",
    "learn_type": 1
  },
  {
    "iname": "TE_BONUS_ALAIA_LV10",
    "abil_iname": "AB_TE_BONUS_ALAIA_LV10",
    "learn_type": 1
  },
  {
    "iname": "TE_BONUS_SYARON_LV10",
    "abil_iname": "AB_TE_BONUS_SYARON_LV10",
    "learn_type": 1
  },
  {
    "iname": "TE_BONUS_SYARON_LV20",
    "abil_iname": "AB_TE_BONUS_SYARON_LV20",
    "learn_type": 1
  },
  {
    "iname": "TE_BONUS_SIYI_LV10",
    "abil_iname": "AB_TE_BONUS_SIYI_LV10",
    "learn_type": 1
  },
  {
    "iname": "TE_BONUS_RISHEN_LV10",
    "abil_iname": "AB_TE_BONUS_RISHEN_LV10",
    "learn_type": 1
  },
  {
    "iname": "TE_BONUS_SHENMEI_LV10",
    "abil_iname": "AB_TE_BONUS_SHENMEI_LV10",
    "learn_type": 1
  },
  {
    "iname": "TE_BONUS_SHENMEI_LV20",
    "abil_iname": "AB_TE_BONUS_SHENMEI_LV20",
    "learn_type": 1
  },
  {
    "iname": "TE_BONUS_IKONA_LV10",
    "abil_iname": "AB_TE_BONUS_IKONA_LV10",
    "learn_type": 1
  },
  {
    "iname": "TE_BONUS_MINARIO_LV10",
    "abil_iname": "AB_TE_BONUS_MINARIO_LV10",
    "learn_type": 1
  },
  {
    "iname": "TE_BONUS_JUURIA_DARK_LV10",
    "abil_iname": "AB_TE_BONUS_JUURIA_DARK_LV10",
    "learn_type": 1
  },
  {
    "iname": "TE_BONUS_MT3_EVIL_FROST_LV10",
    "abil_iname": "AB_TE_BONUS_MT3_EVIL_FROST_LV10",
    "learn_type": 1
  },
  {
    "iname": "TE_BONUS_MT3_KU_CHULAINN_LV10",
    "abil_iname": "AB_TE_BONUS_MT3_KU_CHULAINN_LV10",
    "learn_type": 1
  },
  {
    "iname": "TE_BONUS_KUBERA_LV10",
    "abil_iname": "AB_TE_BONUS_KUBERA_LV10",
    "learn_type": 1
  },
  {
    "iname": "TE_BONUS_KURT_LV10",
    "abil_iname": "AB_TE_BONUS_KURT_LV10",
    "learn_type": 1
  },
  {
    "iname": "TE_BONUS_REIMEI_LV10",
    "abil_iname": "AB_TE_BONUS_REIMEI_LV10",
    "learn_type": 1
  },
  {
    "iname": "TE_BONUS_FEIRIN_LV10",
    "abil_iname": "AB_TE_BONUS_FEIRIN_LV10",
    "learn_type": 1
  },
  {
    "iname": "TE_BONUS_IZAYOI_LV10",
    "abil_iname": "AB_TE_BONUS_IZAYOI_LV10",
    "learn_type": 1
  },
  {
    "iname": "TE_BONUS_TAMAMO_LV10",
    "abil_iname": "AB_TE_BONUS_TAMAMO_LV10",
    "learn_type": 1
  },
  {
    "iname": "TE_BONUS_HAYATE_LV10",
    "abil_iname": "AB_TE_BONUS_HAYATE_LV10",
    "learn_type": 1
  },
  {
    "iname": "TE_BONUS_RINN_LV10",
    "abil_iname": "AB_TE_BONUS_RINN_LV10",
    "learn_type": 1
  },
  {
    "iname": "TE_BONUS_RAKINA_LV10",
    "abil_iname": "AB_TE_BONUS_RAKINA_LV10",
    "learn_type": 1
  },
  {
    "iname": "TE_BONUS_ZEKE_LV10",
    "abil_iname": "AB_TE_BONUS_ZEKE_LV10",
    "learn_type": 1
  },
  {
    "iname": "TE_BONUS_APR_LIZ_LV10",
    "abil_iname": "AB_TE_BONUS_APR_LIZ_LV10",
    "learn_type": 1
  },
  {
    "iname": "TE_BONUS_SABALETA_LV10",
    "abil_iname": "AB_TE_BONUS_SABALETA_LV10",
    "learn_type": 1
  },
  {
    "iname": "TE_BONUS_REN_LV10",
    "abil_iname": "AB_TE_BONUS_REN_LV10",
    "learn_type": 1
  },
  {
    "iname": "TE_BONUS_NEVILLE_LV10",
    "abil_iname": "AB_TE_BONUS_NEVILLE_LV10",
    "learn_type": 1
  },
  {
    "iname": "TE_BONUS_VLAD_LV10",
    "abil_iname": "AB_TE_BONUS_VLAD_LV10",
    "learn_type": 1
  },
  {
    "iname": "TE_BONUS_CAESAR_LV10",
    "abil_iname": "AB_TE_BONUS_CAESAR_LV10",
    "learn_type": 1
  },
  {
    "iname": "TE_BONUS_NATSUME_LV10",
    "abil_iname": "AB_TE_BONUS_NATSUME_LV10",
    "learn_type": 1
  },
  {
    "iname": "TE_BONUS_DARTAGNAN_LV10",
    "abil_iname": "AB_TE_BONUS_DARTAGNAN_LV10",
    "learn_type": 1
  },
  {
    "iname": "TE_BONUS_SARAUZU_LV10",
    "abil_iname": "AB_TE_BONUS_SARAUZU_LV10",
    "learn_type": 1
  },
  {
    "iname": "TE_BONUS_MEGISTOS_LV10",
    "abil_iname": "AB_TE_BONUS_MEGISTOS_LV10",
    "learn_type": 1
  },
  {
    "iname": "TE_BONUS_AMIS_LV10",
    "abil_iname": "AB_TE_BONUS_AMIS_LV10",
    "learn_type": 1
  },
  {
    "iname": "TE_BONUS_YURA_LV10",
    "abil_iname": "AB_TE_BONUS_YURA_LV10",
    "learn_type": 1
  },
  {
    "iname": "TE_BONUS_SEIDA_LV10",
    "abil_iname": "AB_TE_BONUS_SEIDA_LV10",
    "learn_type": 1
  },
  {
    "iname": "TE_BONUS_CRY_MERLINUS_LV10",
    "abil_iname": "AB_TE_BONUS_CRY_MERLINUS_LV10",
    "learn_type": 1
  },
  {
    "iname": "TE_BONUS_CRY_ARTHUR_LV10",
    "abil_iname": "AB_TE_BONUS_CRY_ARTHUR_LV10",
    "learn_type": 1
  },
  {
    "iname": "TE_BONUS_IRENE_LV10",
    "abil_iname": "AB_TE_BONUS_IRENE_LV10",
    "learn_type": 1
  },
  {
    "iname": "TE_BONUS_VARGAS_LV10",
    "abil_iname": "AB_TE_BONUS_VARGAS_LV10",
    "learn_type": 1
  },
  {
    "iname": "TE_BONUS_SELENA_LV10",
    "abil_iname": "AB_TE_BONUS_SELENA_LV10",
    "learn_type": 1
  },
  {
    "iname": "TE_BONUS_CRY_MASAKADO_LV10",
    "abil_iname": "AB_TE_BONUS_CRY_MASAKADO_LV10",
    "learn_type": 1
  },
  {
    "iname": "TE_BONUS_CRY_DARK_OLIVIER_LV10",
    "abil_iname": "AB_TE_BONUS_CRY_DARK_OLIVIER_LV10",
    "learn_type": 1
  },
  {
    "iname": "TE_BONUS_BF_LUNA_LV10",
    "abil_iname": "AB_TE_BONUS_BF_LUNA_LV10",
    "learn_type": 1
  },
  {
    "iname": "TE_BONUS_CLARIS_LV10",
    "abil_iname": "AB_TE_BONUS_CLARIS_LV10",
    "learn_type": 1
  },
  {
    "iname": "TE_BONUS_RION_LV10",
    "abil_iname": "AB_TE_BONUS_RION_LV10",
    "learn_type": 1
  },
  {
    "iname": "TE_BONUS_NASARIO_LV10",
    "abil_iname": "AB_TE_BONUS_NASARIO_LV10",
    "learn_type": 1
  },
  {
    "iname": "TE_BONUS_INES_LV10",
    "abil_iname": "AB_TE_BONUS_INES_LV10",
    "learn_type": 1
  },
  {
    "iname": "TE_BONUS_BASINI_LV10",
    "abil_iname": "AB_TE_BONUS_BASINI_LV10",
    "learn_type": 1
  },
  {
    "iname": "TE_BONUS_YUDIT_LV10",
    "abil_iname": "AB_TE_BONUS_YUDIT_LV10",
    "learn_type": 1
  },
  {
    "iname": "TE_BONUS_BUD_LV10",
    "abil_iname": "AB_TE_BONUS_BUD_LV10",
    "learn_type": 1
  },
  {
    "iname": "TE_BONUS_VICTOR_LV10",
    "abil_iname": "AB_TE_BONUS_VICTOR_LV10",
    "learn_type": 1
  },
  {
    "iname": "TE_BONUS_KASUMI_LV10",
    "abil_iname": "AB_TE_BONUS_KASUMI_LV10",
    "learn_type": 1
  },
  {
    "iname": "TE_BONUS_ZAYIN_DARK_LV10",
    "abil_iname": "AB_TE_BONUS_ZAYIN_DARK_LV10",
    "learn_type": 1
  },
  {
    "iname": "TE_BONUS_SETSUNA_DARK_LV10",
    "abil_iname": "AB_TE_BONUS_SETSUNA_DARK_LV10",
    "learn_type": 1
  },
  {
    "iname": "TE_BONUS_POK_LOGISTILLA_LV10",
    "abil_iname": "AB_TE_BONUS_POK_LOGISTILLA_LV10",
    "learn_type": 1
  },
  {
    "iname": "TE_BONUS_POK_LONGINUS_LV10",
    "abil_iname": "AB_TE_BONUS_POK_LONGINUS_LV10",
    "learn_type": 1
  },
  {
    "iname": "TE_BONUS_POK_ARTEMIS_LV10",
    "abil_iname": "AB_TE_BONUS_POK_ARTEMIS_LV10",
    "learn_type": 1
  },
  {
    "iname": "TE_BONUS_POK_BLK_LONGINUS_LV10",
    "abil_iname": "AB_TE_BONUS_POK_BLK_LONGINUS_LV10",
    "learn_type": 1
  },
  {
    "iname": "TE_BONUS_POK_BLK_ARTEMIS_LV10",
    "abil_iname": "AB_TE_BONUS_POK_BLK_ARTEMIS_LV10",
    "learn_type": 1
  },
  {
    "iname": "TE_BONUS_NICAEA_LV10",
    "abil_iname": "AB_TE_BONUS_NICAEA_LV10",
    "learn_type": 1
  },
  {
    "iname": "TE_BONUS_TYRHUNG_LV20",
    "abil_iname": "AB_TE_BONUS_TYRHUNG_LV20",
    "learn_type": 1
  },
  {
    "iname": "TE_BONUS_POK_BLK_TYRHUNG_LV20",
    "abil_iname": "AB_TE_BONUS_POK_BLK_TYRHUNG_LV20",
    "learn_type": 1
  },
  {
    "iname": "TE_BONUS_JUURIA_LV20",
    "abil_iname": "AB_TE_BONUS_JUURIA_LV20",
    "learn_type": 1
  },
  {
    "iname": "TE_BONUS_AMBROSIA_LV20",
    "abil_iname": "AB_TE_BONUS_AMBROSIA_LV20",
    "learn_type": 1
  },
  {
    "iname": "TE_BONUS_ALAIA_LV20",
    "abil_iname": "AB_TE_BONUS_ALAIA_LV20",
    "learn_type": 1
  },
  {
    "iname": "TE_BONUS_YUEN_LV10",
    "abil_iname": "AB_TE_BONUS_YUEN_LV10",
    "learn_type": 1
  },
  {
    "iname": "TE_BONUS_EVE_LV10",
    "abil_iname": "AB_TE_BONUS_EVE_LV10",
    "learn_type": 1
  },
  {
    "iname": "TE_BONUS_MORE_LV10",
    "abil_iname": "AB_TE_BONUS_MORE_LV10",
    "learn_type": 1
  },
  {
    "iname": "TE_BONUS_LUCRETIA_LV10",
    "abil_iname": "AB_TE_BONUS_LUCRETIA_LV10",
    "learn_type": 1
  },
  {
    "iname": "TE_BONUS_LEONIA_LV10",
    "abil_iname": "AB_TE_BONUS_LEONIA_LV10",
    "learn_type": 1
  },
  {
    "iname": "TE_BONUS_VANEKIS_LV10",
    "abil_iname": "AB_TE_BONUS_VANEKIS_LV10",
    "learn_type": 1
  },
  {
    "iname": "TE_BONUS_GAYN_LV10",
    "abil_iname": "AB_TE_BONUS_GAYN_LV10",
    "learn_type": 1
  },
  {
    "iname": "TE_BONUS_CLOE_DARK_LV10",
    "abil_iname": "AB_TE_BONUS_CLOE_DARK_LV10",
    "learn_type": 1
  },
  {
    "iname": "TE_BONUS_OTHIMA_DARK_LV10",
    "abil_iname": "AB_TE_BONUS_OTHIMA_DARK_LV10",
    "learn_type": 1
  },
  {
    "iname": "TE_BONUS_LUCILLE_LV10",
    "abil_iname": "AB_TE_BONUS_LUCILLE_LV10",
    "learn_type": 1
  },
  {
    "iname": "TE_BONUS_MEIFAN_LV10",
    "abil_iname": "AB_TE_BONUS_MEIFAN_LV10",
    "learn_type": 1
  },
  {
    "iname": "TE_BONUS_SB_NAOFUMI_LV10",
    "abil_iname": "AB_TE_BONUS_SB_NAOFUMI_LV10",
    "learn_type": 1
  },
  {
    "iname": "TE_BONUS_SB_NAOFUMI_LV20",
    "abil_iname": "AB_TE_BONUS_SB_NAOFUMI_LV20",
    "learn_type": 1
  },
  {
    "iname": "TE_BONUS_SB_RAPHTALIA_LV10",
    "abil_iname": "AB_TE_BONUS_SB_RAPHTALIA_LV10",
    "learn_type": 1
  },
  {
    "iname": "TE_BONUS_SB_RAPHTALIA_LV20",
    "abil_iname": "AB_TE_BONUS_SB_RAPHTALIA_LV20",
    "learn_type": 1
  },
  {
    "iname": "TE_BONUS_SB_MELTY_LV10",
    "abil_iname": "AB_TE_BONUS_SB_MELTY_LV10",
    "learn_type": 1
  },
  {
    "iname": "TE_BONUS_SB_MELTY_LV20",
    "abil_iname": "AB_TE_BONUS_SB_MELTY_LV20",
    "learn_type": 1
  },
  {
    "iname": "TE_BONUS_SB_FIRO_LV10",
    "abil_iname": "AB_TE_BONUS_SB_FIRO_LV10",
    "learn_type": 1
  },
  {
    "iname": "TE_BONUS_SB_FIRO_LV20",
    "abil_iname": "AB_TE_BONUS_SB_FIRO_LV20",
    "learn_type": 1
  },
  {
    "iname": "TE_BONUS_SB_GLASS_LV10",
    "abil_iname": "AB_TE_BONUS_SB_GLASS_LV10",
    "learn_type": 1
  },
  {
    "iname": "TE_BONUS_SB_GLASS_LV20",
    "abil_iname": "AB_TE_BONUS_SB_GLASS_LV20",
    "learn_type": 1
  },
  {
    "iname": "TE_BONUS_SB_FITORIA_LV10",
    "abil_iname": "AB_TE_BONUS_SB_FITORIA_LV10",
    "learn_type": 1
  },
  {
    "iname": "TE_BONUS_SB_FITORIA_LV20",
    "abil_iname": "AB_TE_BONUS_SB_FITORIA_LV20",
    "learn_type": 1
  },
  {
    "iname": "TE_BONUS_SHAYNA_LV10",
    "abil_iname": "AB_TE_BONUS_SHAYNA_LV10",
    "learn_type": 1
  },
  {
    "iname": "TE_BONUS_RAURA_LV10",
    "abil_iname": "AB_TE_BONUS_RAURA_LV10",
    "learn_type": 1
  },
  {
    "iname": "TE_BONUS_CHIHAYA_LV10",
    "abil_iname": "AB_TE_BONUS_CHIHAYA_LV10",
    "learn_type": 1
  },
  {
    "iname": "TE_BONUS_CANON_LV10",
    "abil_iname": "AB_TE_BONUS_CANON_LV10",
    "learn_type": 1
  },
  {
    "iname": "TE_BONUS_CADANOVA_LV10",
    "abil_iname": "AB_TE_BONUS_CADANOVA_LV10",
    "learn_type": 1
  },
  {
    "iname": "TE_BONUS_KAGURA_LV10",
    "abil_iname": "AB_TE_BONUS_KAGURA_LV10",
    "learn_type": 1
  },
  {
    "iname": "TE_BONUS_KUDHANSTEIN_LV10",
    "abil_iname": "AB_TE_BONUS_KUDHANSTEIN_LV10",
    "learn_type": 1
  },
  {
    "iname": "TE_BONUS_MONZEIN_LV10",
    "abil_iname": "AB_TE_BONUS_MONZEIN_LV10",
    "learn_type": 1
  },
  {
    "iname": "TE_BONUS_ZAYIN_LV10",
    "abil_iname": "AB_TE_BONUS_ZAYIN_LV10",
    "learn_type": 1
  },
  {
    "iname": "TE_BONUS_OTHIMA_LV10",
    "abil_iname": "AB_TE_BONUS_OTHIMA_LV10",
    "learn_type": 1
  },
  {
    "iname": "TE_BONUS_YAULAS_LV10",
    "abil_iname": "AB_TE_BONUS_YAULAS_LV10",
    "learn_type": 1
  },
  {
    "iname": "TE_BONUS_KAYA_LV10",
    "abil_iname": "AB_TE_BONUS_KAYA_LV10",
    "learn_type": 1
  },
  {
    "iname": "TE_BONUS_SURUBA_LV10",
    "abil_iname": "AB_TE_BONUS_SURUBA_LV10",
    "learn_type": 1
  },
  {
    "iname": "TE_BONUS_QENS_LV10",
    "abil_iname": "AB_TE_BONUS_QENS_LV10",
    "learn_type": 1
  },
  {
    "iname": "TE_BONUS_HELENE_LV10",
    "abil_iname": "AB_TE_BONUS_HELENE_LV10",
    "learn_type": 1
  },
  {
    "iname": "TE_BONUS_SHAHAR_LV10",
    "abil_iname": "AB_TE_BONUS_SHAHAR_LV10",
    "learn_type": 1
  },
  {
    "iname": "TE_BONUS_NEFERTY_LV10",
    "abil_iname": "AB_TE_BONUS_NEFERTY_LV10",
    "learn_type": 1
  },
  {
    "iname": "TE_BONUS_IKASA_LV10",
    "abil_iname": "AB_TE_BONUS_IKASA_LV10",
    "learn_type": 1
  },
  {
    "iname": "TE_BONUS_ALMA_LV10",
    "abil_iname": "AB_TE_BONUS_ALMA_LV10",
    "learn_type": 1
  },
  {
    "iname": "TE_BONUS_AISHA_LV10",
    "abil_iname": "AB_TE_BONUS_AISHA_LV10",
    "learn_type": 1
  },
  {
    "iname": "TE_BONUS_LEYDOW_LV10",
    "abil_iname": "AB_TE_BONUS_LEYDOW_LV10",
    "learn_type": 1
  },
  {
    "iname": "TE_BONUS_REIDA_LV10",
    "abil_iname": "AB_TE_BONUS_REIDA_LV10",
    "learn_type": 1
  },
  {
    "iname": "TE_BONUS_CHATNOIR_LV10",
    "abil_iname": "AB_TE_BONUS_CHATNOIR_LV10",
    "learn_type": 1
  },
  {
    "iname": "TE_BONUS_GUILDFORD_LV10",
    "abil_iname": "AB_TE_BONUS_GUILDFORD_LV10",
    "learn_type": 1
  },
  {
    "iname": "TE_BONUS_DUNG_BELL_LV10",
    "abil_iname": "AB_TE_BONUS_DUNG_BELL_LV10",
    "learn_type": 1
  },
  {
    "iname": "TE_BONUS_DUNG_BELL_LV20",
    "abil_iname": "AB_TE_BONUS_DUNG_BELL_LV20",
    "learn_type": 1
  },
  {
    "iname": "TE_BONUS_DUNG_HESTIA_LV10",
    "abil_iname": "AB_TE_BONUS_DUNG_HESTIA_LV10",
    "learn_type": 1
  },
  {
    "iname": "TE_BONUS_DUNG_HESTIA_LV20",
    "abil_iname": "AB_TE_BONUS_DUNG_HESTIA_LV20",
    "learn_type": 1
  },
  {
    "iname": "TE_BONUS_DUNG_AIZ_LV10",
    "abil_iname": "AB_TE_BONUS_DUNG_AIZ_LV10",
    "learn_type": 1
  },
  {
    "iname": "TE_BONUS_DUNG_AIZ_LV20",
    "abil_iname": "AB_TE_BONUS_DUNG_AIZ_LV20",
    "learn_type": 1
  },
  {
    "iname": "TE_BONUS_IRA_LV10",
    "abil_iname": "AB_TE_BONUS_IRA_LV10",
    "learn_type": 1
  },
  {
    "iname": "TE_BONUS_KEVIN_LV10",
    "abil_iname": "AB_TE_BONUS_KEVIN_LV10",
    "learn_type": 1
  },
  {
    "iname": "TE_BONUS_MARE_LV10",
    "abil_iname": "AB_TE_BONUS_MARE_LV10",
    "learn_type": 1
  },
  {
    "iname": "TE_BONUS_MARIANNU_LV10",
    "abil_iname": "AB_TE_BONUS_MARIANNU_LV10",
    "learn_type": 1
  },
  {
    "iname": "TE_BONUS_ORION_LV10",
    "abil_iname": "AB_TE_BONUS_ORION_LV10",
    "learn_type": 1
  },
  {
    "iname": "TE_BONUS_LANGHAO_LV10",
    "abil_iname": "AB_TE_BONUS_LANGHAO_LV10",
    "learn_type": 1
  },
  {
    "iname": "TE_BONUS_KUZA_LV10",
    "abil_iname": "AB_TE_BONUS_KUZA_LV10",
    "learn_type": 1
  },
  {
    "iname": "TE_BONUS_NAJU_LV10",
    "abil_iname": "AB_TE_BONUS_NAJU_LV10",
    "learn_type": 1
  },
  {
    "iname": "TE_BONUS_KAEDE_LV10",
    "abil_iname": "AB_TE_BONUS_KAEDE_LV10",
    "learn_type": 1
  },
  {
    "iname": "TE_BONUS_AINANNA_LV10",
    "abil_iname": "AB_TE_BONUS_AINANNA_LV10",
    "learn_type": 1
  },
  {
    "iname": "TE_BONUS_EINZ_LV10",
    "abil_iname": "AB_TE_BONUS_EINZ_LV10",
    "learn_type": 1
  },
  {
    "iname": "TE_BONUS_ZWEI_LV10",
    "abil_iname": "AB_TE_BONUS_ZWEI_LV10",
    "learn_type": 1
  },
  {
    "iname": "TE_BONUS_DREI_LV10",
    "abil_iname": "AB_TE_BONUS_DREI_LV10",
    "learn_type": 1
  },
  {
    "iname": "TE_BONUS_VIER_LV10",
    "abil_iname": "AB_TE_BONUS_VIER_LV10",
    "learn_type": 1
  },
  {
    "iname": "TE_BONUS_FURY_LV10",
    "abil_iname": "AB_TE_BONUS_FURY_LV10",
    "learn_type": 1
  },
  {
    "iname": "TE_BONUS_ZEX_LV10",
    "abil_iname": "AB_TE_BONUS_ZEX_LV10",
    "learn_type": 1
  },
  {
    "iname": "TE_BONUS_ZYVA_LV10",
    "abil_iname": "AB_TE_BONUS_ZYVA_LV10",
    "learn_type": 1
  },
  {
    "iname": "TE_BONUS_ACHAD_LV10",
    "abil_iname": "AB_TE_BONUS_ACHAD_LV10",
    "learn_type": 1
  },
  {
    "iname": "TE_BONUS_NOIN_LV10",
    "abil_iname": "AB_TE_BONUS_NOIN_LV10",
    "learn_type": 1
  },
  {
    "iname": "TE_BONUS_ZENN_LV10",
    "abil_iname": "AB_TE_BONUS_ZENN_LV10",
    "learn_type": 1
  },
  {
    "iname": "TE_BONUS_EVERICA_LV10",
    "abil_iname": "AB_TE_BONUS_EVERICA_LV10",
    "learn_type": 1
  },
  {
    "iname": "TE_BONUS_HAZEL_LV10",
    "abil_iname": "AB_TE_BONUS_HAZEL_LV10",
    "learn_type": 1
  },
  {
    "iname": "TE_BONUS_VINCENT_LV10",
    "abil_iname": "AB_TE_BONUS_VINCENT_LV10",
    "learn_type": 1
  },
  {
    "iname": "TE_BONUS_KYARORU_LV10",
    "abil_iname": "AB_TE_BONUS_KYARORU_LV10",
    "learn_type": 1
  },
  {
    "iname": "TE_BONUS_CELLIERS_LV10",
    "abil_iname": "AB_TE_BONUS_CELLIERS_LV10",
    "learn_type": 1
  },
  {
    "iname": "TE_BONUS_MIELIKKI_LV10",
    "abil_iname": "AB_TE_BONUS_MIELIKKI_LV10",
    "learn_type": 1
  },
  {
    "iname": "TE_BONUS_ENNIS_LV10",
    "abil_iname": "AB_TE_BONUS_ENNIS_LV10",
    "learn_type": 1
  },
  {
    "iname": "TE_BONUS_TSP_SHIZ_LV10",
    "abil_iname": "AB_TE_BONUS_TSP_SHIZ_LV10",
    "learn_type": 1
  },
  {
    "iname": "TE_BONUS_TSP_SHIZ_LV20",
    "abil_iname": "AB_TE_BONUS_TSP_SHIZ_LV20",
    "learn_type": 1
  },
  {
    "iname": "TE_BONUS_TSP_DIAB_LV10",
    "abil_iname": "AB_TE_BONUS_TSP_DIAB_LV10",
    "learn_type": 1
  },
  {
    "iname": "TE_BONUS_TSP_DIAB_LV20",
    "abil_iname": "AB_TE_BONUS_TSP_DIAB_LV20",
    "learn_type": 1
  },
  {
    "iname": "TE_BONUS_TSP_RIMURU_SLIME_LV10",
    "abil_iname": "AB_TE_BONUS_TSP_RIMURU_SLIME_LV10",
    "learn_type": 1
  },
  {
    "iname": "TE_BONUS_TSP_RIMURU_SLIME_LV20",
    "abil_iname": "AB_TE_BONUS_TSP_RIMURU_SLIME_LV20",
    "learn_type": 1
  },
  {
    "iname": "TE_BONUS_TSP_RIMURU_LV10",
    "abil_iname": "AB_TE_BONUS_TSP_RIMURU_LV10",
    "learn_type": 1
  },
  {
    "iname": "TE_BONUS_TSP_RIMURU_LV20",
    "abil_iname": "AB_TE_BONUS_TSP_RIMURU_LV20",
    "learn_type": 1
  },
  {
    "iname": "TE_BONUS_TSP_MILLIM_LV10",
    "abil_iname": "AB_TE_BONUS_TSP_MILLIM_LV10",
    "learn_type": 1
  },
  {
    "iname": "TE_BONUS_TSP_MILLIM_LV20",
    "abil_iname": "AB_TE_BONUS_TSP_MILLIM_LV20",
    "learn_type": 1
  },
  {
    "iname": "TE_BONUS_TSP_BENIMARU_LV10",
    "abil_iname": "AB_TE_BONUS_TSP_BENIMARU_LV10",
    "learn_type": 1
  },
  {
    "iname": "TE_BONUS_TSP_BENIMARU_LV20",
    "abil_iname": "AB_TE_BONUS_TSP_BENIMARU_LV20",
    "learn_type": 1
  },
  {
    "iname": "TE_BONUS_LUPINUS_LV10",
    "abil_iname": "AB_TE_BONUS_LUPINUS_LV10",
    "learn_type": 1
  },
  {
    "iname": "TE_BONUS_ALBELL_LV10",
    "abil_iname": "AB_TE_BONUS_ALBELL_LV10",
    "learn_type": 1
  },
  {
    "iname": "TE_BONUS_SOPHIA_LV10",
    "abil_iname": "AB_TE_BONUS_SOPHIA_LV10",
    "learn_type": 1
  },
  {
    "iname": "TE_BONUS_ITSUKI_LV10",
    "abil_iname": "AB_TE_BONUS_ITSUKI_LV10",
    "learn_type": 1
  },
  {
    "iname": "TE_BONUS_YUNAGI_LV10",
    "abil_iname": "AB_TE_BONUS_YUNAGI_LV10",
    "learn_type": 1
  },
  {
    "iname": "TE_BONUS_KAZAHAYA_LV10",
    "abil_iname": "AB_TE_BONUS_KAZAHAYA_LV10",
    "learn_type": 1
  },
  {
    "iname": "TE_BONUS_VETTEL_LV10",
    "abil_iname": "AB_TE_BONUS_VETTEL_LV10",
    "learn_type": 1
  },
  {
    "iname": "TE_BONUS_GERALD_LV10",
    "abil_iname": "AB_TE_BONUS_GERALD_LV10",
    "learn_type": 1
  },
  {
    "iname": "TE_BONUS_NATALIE_LV10",
    "abil_iname": "AB_TE_BONUS_NATALIE_LV10",
    "learn_type": 1
  },
  {
    "iname": "TE_BONUS_NINA_LV10",
    "abil_iname": "AB_TE_BONUS_NINA_LV10",
    "learn_type": 1
  },
  {
    "iname": "TE_BONUS_FAIRLILY_LV10",
    "abil_iname": "AB_TE_BONUS_FAIRLILY_LV10",
    "learn_type": 1
  },
  {
    "iname": "TE_BONUS_RIGARUTO_LV10",
    "abil_iname": "AB_TE_BONUS_RIGARUTO_LV10",
    "learn_type": 1
  },
  {
    "iname": "TE_BONUS_ALFRED_LV10",
    "abil_iname": "AB_TE_BONUS_ALFRED_LV10",
    "learn_type": 1
  },
  {
    "iname": "TE_BONUS_CHERYL_LV10",
    "abil_iname": "AB_TE_BONUS_CHERYL_LV10",
    "learn_type": 1
  },
  {
    "iname": "TE_BONUS_KURAJU_LV10",
    "abil_iname": "AB_TE_BONUS_KURAJU_LV10",
    "learn_type": 1
  },
  {
    "iname": "TE_BONUS_ALEXIS_LV10",
    "abil_iname": "AB_TE_BONUS_ALEXIS_LV10",
    "learn_type": 1
  },
  {
    "iname": "TE_BONUS_NEICA_LV10",
    "abil_iname": "AB_TE_BONUS_NEICA_LV10",
    "learn_type": 1
  },
  {
    "iname": "TE_BONUS_HOZUKI_LV10",
    "abil_iname": "AB_TE_BONUS_HOZUKI_LV10",
    "learn_type": 1
  },
  {
    "iname": "TE_BONUS_FUJICA_LV10",
    "abil_iname": "AB_TE_BONUS_FUJICA_LV10",
    "learn_type": 1
  },
  {
    "iname": "TE_BONUS_HAZUKI_LV10",
    "abil_iname": "AB_TE_BONUS_HAZUKI_LV10",
    "learn_type": 1
  },
  {
    "iname": "TE_BONUS_MERDA_LV10",
    "abil_iname": "AB_TE_BONUS_MERDA_LV10",
    "learn_type": 1
  },
  {
    "iname": "TE_BONUS_FREED_LV10",
    "abil_iname": "AB_TE_BONUS_FREED_LV10",
    "learn_type": 1
  },
  {
    "iname": "TE_BONUS_ALMILA_LV10",
    "abil_iname": "AB_TE_BONUS_ALMILA_LV10",
    "learn_type": 1
  },
  {
    "iname": "TE_BONUS_BLANCHETT_LV10",
    "abil_iname": "AB_TE_BONUS_BLANCHETT_LV10",
    "learn_type": 1
  },
  {
    "iname": "TE_BONUS_SION_LV10",
    "abil_iname": "AB_TE_BONUS_SION_LV10",
    "learn_type": 1
  },
  {
    "iname": "TE_BONUS_CORDELIA_LV10",
    "abil_iname": "AB_TE_BONUS_CORDELIA_LV10",
    "learn_type": 1
  },
  {
    "iname": "TE_BONUS_TETIS_LV10",
    "abil_iname": "AB_TE_BONUS_TETIS_LV10",
    "learn_type": 1
  },
  {
    "iname": "TE_BONUS_AYLLU_LV10",
    "abil_iname": "AB_TE_BONUS_AYLLU_LV10",
    "learn_type": 1
  },
  {
    "iname": "TE_BONUS_HUGO_LV10",
    "abil_iname": "AB_TE_BONUS_HUGO_LV10",
    "learn_type": 1
  },
  {
    "iname": "TE_BONUS_VIVI_LV10",
    "abil_iname": "AB_TE_BONUS_VIVI_LV10",
    "learn_type": 1
  },
  {
    "iname": "TE_BONUS_ROSA_LV10",
    "abil_iname": "AB_TE_BONUS_ROSA_LV10",
    "learn_type": 1
  },
  {
    "iname": "TE_BONUS_EIZAN_LV10",
    "abil_iname": "AB_TE_BONUS_EIZAN_LV10",
    "learn_type": 1
  },
  {
    "iname": "TE_BONUS_LUCIDO_LV10",
    "abil_iname": "AB_TE_BONUS_LUCIDO_LV10",
    "learn_type": 1
  },
  {
    "iname": "TE_BONUS_YUAN_LV10",
    "abil_iname": "AB_TE_BONUS_YUAN_LV10",
    "learn_type": 1
  },
  {
    "iname": "TE_BONUS_JAKE_LV10",
    "abil_iname": "AB_TE_BONUS_JAKE_LV10",
    "learn_type": 1
  },
  {
    "iname": "TE_BONUS_ANJOU_LV10",
    "abil_iname": "AB_TE_BONUS_ANJOU_LV10",
    "learn_type": 1
  },
  {
    "iname": "TE_BONUS_POK_TIFARET_LV10",
    "abil_iname": "AB_TE_BONUS_POK_TIFARET_LV10",
    "learn_type": 1
  },
  {
    "iname": "TE_BONUS_POK_FAILNAUGHT_LV10",
    "abil_iname": "AB_TE_BONUS_POK_FAILNAUGHT_LV10",
    "learn_type": 1
  },
  {
    "iname": "TE_BONUS_POK_CASSIUS_LV10",
    "abil_iname": "AB_TE_BONUS_POK_CASSIUS_LV10",
    "learn_type": 1
  },
  {
    "iname": "TE_BONUS_POK_RISANAUT_LV10",
    "abil_iname": "AB_TE_BONUS_POK_RISANAUT_LV10",
    "learn_type": 1
  },
  {
    "iname": "TE_BONUS_POK_FREIKUGEL_LV10",
    "abil_iname": "AB_TE_BONUS_POK_FREIKUGEL_LV10",
    "learn_type": 1
  },
  {
    "iname": "TE_BONUS_POK_PARASHU_LV10",
    "abil_iname": "AB_TE_BONUS_POK_PARASHU_LV10",
    "learn_type": 1
  },
  {
    "iname": "TE_BONUS_POK_BLK_FREIKUGEL_LV10",
    "abil_iname": "AB_TE_BONUS_POK_BLK_FREIKUGEL_LV10",
    "learn_type": 1
  },
  {
    "iname": "TE_BONUS_POK_BLK_PARASHU_LV10",
    "abil_iname": "AB_TE_BONUS_POK_BLK_PARASHU_LV10",
    "learn_type": 1
  },
  {
    "iname": "TE_BONUS_DAISY_LV10",
    "abil_iname": "AB_TE_BONUS_DAISY_LV10",
    "learn_type": 1
  },
  {
    "iname": "TE_BONUS_DOROTHEA_LV10",
    "abil_iname": "AB_TE_BONUS_DOROTHEA_LV10",
    "learn_type": 1
  },
  {
    "iname": "TE_BONUS_DILGA_LV10",
    "abil_iname": "AB_TE_BONUS_DILGA_LV10",
    "learn_type": 1
  },
  {
    "iname": "TE_BONUS_RICHE_LV10",
    "abil_iname": "AB_TE_BONUS_RICHE_LV10",
    "learn_type": 1
  },
  {
    "iname": "TE_BONUS_DECEL_LV10",
    "abil_iname": "AB_TE_BONUS_DECEL_LV10",
    "learn_type": 1
  },
  {
    "iname": "TE_BONUS_MIANNU_LV10",
    "abil_iname": "AB_TE_BONUS_MIANNU_LV10",
    "learn_type": 1
  },
  {
    "iname": "TE_BONUS_CIEL_LV10",
    "abil_iname": "AB_TE_BONUS_CIEL_LV10",
    "learn_type": 1
  },
  {
    "iname": "TE_BONUS_POK_MINERVA_LV10",
    "abil_iname": "AB_TE_BONUS_POK_MINERVA_LV10",
    "learn_type": 1
  },
  {
    "iname": "TE_BONUS_POK_HERCULE_LV10",
    "abil_iname": "AB_TE_BONUS_POK_HERCULE_LV10",
    "learn_type": 1
  },
  {
    "iname": "TE_BONUS_KALMIA_LV10",
    "abil_iname": "AB_TE_BONUS_KALMIA_LV10",
    "learn_type": 1
  },
  {
    "iname": "TE_BONUS_POK_SOLOMON_LV10",
    "abil_iname": "AB_TE_BONUS_POK_SOLOMON_LV10",
    "learn_type": 1
  },
  {
    "iname": "TE_BONUS_LUCIA_LV10",
    "abil_iname": "AB_TE_BONUS_LUCIA_LV10",
    "learn_type": 1
  },
  {
    "iname": "TE_BONUS_RETZIUS_LV10",
    "abil_iname": "AB_TE_BONUS_RETZIUS_LV10",
    "learn_type": 1
  },
  {
    "iname": "TE_BONUS_SUTORIE_LV10",
    "abil_iname": "AB_TE_BONUS_SUTORIE_LV10",
    "learn_type": 1
  },
  {
    "iname": "TE_BONUS_JUSTIN_LV10",
    "abil_iname": "AB_TE_BONUS_JUSTIN_LV10",
    "learn_type": 1
  },
  {
    "iname": "TE_BONUS_S_SAKURA_LV10",
    "abil_iname": "AB_TE_BONUS_S_SAKURA_LV10",
    "learn_type": 1
  },
  {
    "iname": "TE_BONUS_S_YURI_LV10",
    "abil_iname": "AB_TE_BONUS_S_YURI_LV10",
    "learn_type": 1
  },
  {
    "iname": "TE_BONUS_S_HIRAGI_LV10",
    "abil_iname": "AB_TE_BONUS_S_HIRAGI_LV10",
    "learn_type": 1
  },
  {
    "iname": "TE_BONUS_S_AMATERASU_LV10",
    "abil_iname": "AB_TE_BONUS_S_AMATERASU_LV10",
    "learn_type": 1
  },
  {
    "iname": "TE_BONUS_S_YOMI_LV10",
    "abil_iname": "AB_TE_BONUS_S_YOMI_LV10",
    "learn_type": 1
  },
  {
    "iname": "TE_BONUS_S_TSUKUYOMI_LV10",
    "abil_iname": "AB_TE_BONUS_S_TSUKUYOMI_LV10",
    "learn_type": 1
  },
  {
    "iname": "TE_BONUS_REBECCA_LV20",
    "abil_iname": "AB_TE_BONUS_REBECCA_LV20",
    "learn_type": 1
  },
  {
    "iname": "TE_BONUS_RYLE_LV10",
    "abil_iname": "AB_TE_BONUS_RYLE_LV10",
    "learn_type": 1
  },
  {
    "iname": "TE_BONUS_ANKH_LV10",
    "abil_iname": "AB_TE_BONUS_ANKH_LV10",
    "learn_type": 1
  },
  {
    "iname": "TE_BONUS_KUON_LV10",
    "abil_iname": "AB_TE_BONUS_KUON_LV10",
    "learn_type": 1
  },
  {
    "iname": "TE_BONUS_TOMAS_LV10",
    "abil_iname": "AB_TE_BONUS_TOMAS_LV10",
    "learn_type": 1
  },
  {
    "iname": "TE_BONUS_GORMALAS_LV10",
    "abil_iname": "AB_TE_BONUS_GORMALAS_LV10",
    "learn_type": 1
  },
  {
    "iname": "TE_BONUS_WON_LV10",
    "abil_iname": "AB_TE_BONUS_WON_LV10",
    "learn_type": 1
  },
  {
    "iname": "TE_BONUS_CHAO_LV10",
    "abil_iname": "AB_TE_BONUS_CHAO_LV10",
    "learn_type": 1
  },
  {
    "iname": "TE_BONUS_ASUWADO_LV10",
    "abil_iname": "AB_TE_BONUS_ASUWADO_LV10",
    "learn_type": 1
  },
  {
    "iname": "TE_BONUS_RISHEN_LV20",
    "abil_iname": "AB_TE_BONUS_RISHEN_LV20",
    "learn_type": 1
  },
  {
    "iname": "TE_BONUS_MESARTHIM_LV10",
    "abil_iname": "AB_TE_BONUS_MESARTHIM_LV10",
    "learn_type": 1
  },
  {
    "iname": "TE_BONUS_ANNEROSE_LV10",
    "abil_iname": "AB_TE_BONUS_ANNEROSE_LV10",
    "learn_type": 1
  },
  {
    "iname": "TE_BONUS_KLIMA_LV10",
    "abil_iname": "AB_TE_BONUS_KLIMA_LV10",
    "learn_type": 1
  },
  {
    "iname": "TE_BONUS_PLUMERIA_LV10",
    "abil_iname": "AB_TE_BONUS_PLUMERIA_LV10",
    "learn_type": 1
  },
  {
    "iname": "TE_BONUS_TEONA_LV10",
    "abil_iname": "AB_TE_BONUS_TEONA_LV10",
    "learn_type": 1
  },
  {
    "iname": "TE_BONUS_LOTIA_LV10",
    "abil_iname": "AB_TE_BONUS_LOTIA_LV10",
    "learn_type": 1
  },
  {
    "iname": "TE_BONUS_MICHAEL_LV10",
    "abil_iname": "AB_TE_BONUS_MICHAEL_LV10",
    "learn_type": 1
  },
  {
    "iname": "TE_BONUS_LAVINA_LV10",
    "abil_iname": "AB_TE_BONUS_LAVINA_LV10",
    "learn_type": 1
  },
  {
    "iname": "TE_BONUS_BIRGITTA_LV10",
    "abil_iname": "AB_TE_BONUS_BIRGITTA_LV10",
    "learn_type": 1
  },
  {
    "iname": "TE_BONUS_ANNIKA_LV10",
    "abil_iname": "AB_TE_BONUS_ANNIKALV10",
    "learn_type": 1
  },
  {
    "iname": "TE_BONUS_KU_IENA_LV10",
    "abil_iname": "AB_TE_BONUS_KU_IENA_LV10",
    "learn_type": 1
  },
  {
    "iname": "TE_BONUS_ADOREI_LV10",
    "abil_iname": "AB_TE_BONUS_ADOREI_LV10",
    "learn_type": 1
  },
  {
    "iname": "TE_BONUS_DAPHNE_LV10",
    "abil_iname": "AB_TE_BONUS_DAPHNE_LV10",
    "learn_type": 1
  },
  {
    "iname": "TE_BONUS_ISHUNA_LV10",
    "abil_iname": "AB_TE_BONUS_ISHUNA_LV10",
    "learn_type": 1
  },
  {
    "iname": "TE_BONUS_RACHEL_LV10",
    "abil_iname": "AB_TE_BONUS_RACHEL_LV10",
    "learn_type": 1
  },
  {
    "iname": "TE_BONUS_GLANZ_LV10",
    "abil_iname": "AB_TE_BONUS_GLANZ_LV10",
    "learn_type": 1
  },
  {
    "iname": "TE_BONUS_MAGNUS_LV10",
    "abil_iname": "AB_TE_BONUS_MAGNUS_LV10",
    "learn_type": 1
  },
  {
    "iname": "TE_BONUS_WILHELM_LV10",
    "abil_iname": "AB_TE_BONUS_WILHELM_LV10",
    "learn_type": 1
  },
  {
    "iname": "TE_BONUS_RYUI_LV10",
    "abil_iname": "AB_TE_BONUS_RYUI_LV10",
    "learn_type": 1
  },
  {
    "iname": "TE_BONUS_MATHIAS_LV10",
    "abil_iname": "AB_TE_BONUS_MATHIAS_LV10",
    "learn_type": 1
  },
  {
    "iname": "TE_BONUS_ZANGETSU_LV10",
    "abil_iname": "AB_TE_BONUS_ZANGETSU_LV10",
    "learn_type": 1
  },
  {
    "iname": "TE_BONUS_MIUNA_LV10",
    "abil_iname": "AB_TE_BONUS_MIUNA_LV10",
    "learn_type": 1
  },
  {
    "iname": "TE_BONUS_TORITOH_LV10",
    "abil_iname": "AB_TE_BONUS_TORITOH_LV10",
    "learn_type": 1
  },
  {
    "iname": "TE_BONUS_ST_MELA_LV10",
    "abil_iname": "AB_TE_BONUS_ST_MELA_LV10",
    "learn_type": 1
  },
  {
    "iname": "TE_BONUS_ST_NIKUSU_LV10",
    "abil_iname": "AB_TE_BONUS_ST_NIKUSU_LV10",
    "learn_type": 1
  },
  {
    "iname": "TE_BONUS_ST_MELA_DARK_LV10",
    "abil_iname": "AB_TE_BONUS_ST_MELA_DARK_LV10",
    "learn_type": 1
  },
  {
    "iname": "TE_BONUS_ST_NIKUSU_DARK_LV10",
    "abil_iname": "AB_TE_BONUS_ST_NIKUSU_DARK_LV10",
    "learn_type": 1
  },
  {
    "iname": "TE_BONUS_EULALIA_LV10",
    "abil_iname": "AB_TE_BONUS_EULALIA_LV10",
    "learn_type": 1
  },
  {
    "iname": "TE_BONUS_POK_RAGNAROK_LV10",
    "abil_iname": "AB_TE_BONUS_POK_RAGNAROK_LV10",
    "learn_type": 1
  },
  {
    "iname": "TE_BONUS_SUIRAN_LV10",
    "abil_iname": "AB_TE_BONUS_SUIRAN_LV10",
    "learn_type": 1
  },
  {
    "iname": "TE_BONUS_POLLIN_LV10",
    "abil_iname": "AB_TE_BONUS_POLLIN_LV10",
    "learn_type": 1
  },
  {
    "iname": "TE_BONUS_FUNGLIU_LV10",
    "abil_iname": "AB_TE_BONUS_FUNGLIU_LV10",
    "learn_type": 1
  },
  {
    "iname": "TE_BONUS_RINN_LV20",
    "abil_iname": "AB_TE_BONUS_RINN_LV20",
    "learn_type": 1
  },
  {
    "iname": "TE_BONUS_NERO_LV10",
    "abil_iname": "AB_TE_BONUS_NERO_LV10",
    "learn_type": 1
  },
  {
    "iname": "TE_BONUS_JUBEI_LV10",
    "abil_iname": "AB_TE_BONUS_JUBEI_LV10",
    "learn_type": 1
  },
  {
    "iname": "TE_BONUS_HOO_LV10",
    "abil_iname": "AB_TE_BONUS_HOO_LV10",
    "learn_type": 1
  },
  {
    "iname": "TE_BONUS_VODA_LV10",
    "abil_iname": "AB_TE_BONUS_VODA_LV10",
    "learn_type": 1
  },
  {
    "iname": "TE_BONUS_TEHRE_LV10",
    "abil_iname": "AB_TE_BONUS_TEHRE_LV10",
    "learn_type": 1
  },
  {
    "iname": "TE_BONUS_TAMISU_LV10",
    "abil_iname": "AB_TE_BONUS_TAMISU_LV10",
    "learn_type": 1
  },
  {
    "iname": "TE_BONUS_SETSUNA_LV10",
    "abil_iname": "AB_TE_BONUS_SETSUNA_LV10",
    "learn_type": 1
  },
  {
    "iname": "TE_BONUS_MASHULI_LV10",
    "abil_iname": "AB_TE_BONUS_MASHULI_LV10",
    "learn_type": 1
  },
  {
    "iname": "TE_BONUS_MIZUCHI_LV10",
    "abil_iname": "AB_TE_BONUS_MIZUCHI_LV10",
    "learn_type": 1
  },
  {
    "iname": "TE_BONUS_AWAKE_EMMEL_LV10",
    "abil_iname": "AB_TE_BONUS_AWAKE_EMMEL_LV10",
    "learn_type": 1
  },
  {
    "iname": "TE_BONUS_ESAI_IGNACIO_LV10",
    "abil_iname": "AB_TE_BONUS_ESAI_IGNACIO_LV10",
    "learn_type": 1
  },
  {
    "iname": "TE_BONUS_UROBOROS_LEGACY_LV10",
    "abil_iname": "AB_TE_BONUS_UROBOROS_LEGACY_LV10",
    "learn_type": 1
  },
  {
    "iname": "TE_BONUS_NIMURU_LV10",
    "abil_iname": "AB_TE_BONUS_NIMURU_LV10",
    "learn_type": 1
  },
  {
    "iname": "TE_BONUS_EMMEL_LV10",
    "abil_iname": "AB_TE_BONUS_EMMEL_LV10",
    "learn_type": 1
  },
  {
    "iname": "TE_BONUS_ANDECHS_LV10",
    "abil_iname": "AB_TE_BONUS_ANDECHS_LV10",
    "learn_type": 1
  },
  {
    "iname": "TE_BONUS_IGNACIO_LV10",
    "abil_iname": "AB_TE_BONUS_IGNACIO_LV10",
    "learn_type": 1
  },
  {
    "iname": "TE_BONUS_ESTELA_LV10",
    "abil_iname": "AB_TE_BONUS_ESTELA_LV10",
    "learn_type": 1
  },
  {
    "iname": "TE_BONUS_ANASTASIA_LV10",
    "abil_iname": "AB_TE_BONUS_ANASTASIA_LV10",
    "learn_type": 1
  },
  {
    "iname": "TE_BONUS_ANASTASIA_LV20",
    "abil_iname": "AB_TE_BONUS_ANASTASIA_LV20",
    "learn_type": 1
  },
  {
    "iname": "TE_BONUS_HISHARMU_LV10",
    "abil_iname": "AB_TE_BONUS_HISHARMU_LV10",
    "learn_type": 1
  },
  {
    "iname": "TE_BONUS_MALTA_LV10",
    "abil_iname": "AB_TE_BONUS_MALTA_LV10",
    "learn_type": 1
  },
  {
    "iname": "TE_BONUS_KAMUI_LV10",
    "abil_iname": "AB_TE_BONUS_KAMUI_LV10",
    "learn_type": 1
  }
]