[
  {
    "recipe_iname": "TE_RECIPE_001",
    "mats": [
      {
        "iname": "IT_SC_KAKUSEI_01",
        "num": 5
      }
    ]
  },
  {
    "recipe_iname": "TE_RECIPE_002",
    "mats": [
      {
        "iname": "IT_SC_KAKUSEI_01",
        "num": 5
      }
    ]
  },
  {
    "recipe_iname": "TE_RECIPE_003",
    "mats": [
      {
        "iname": "IT_SC_KAKUSEI_01",
        "num": 10
      }
    ]
  },
  {
    "recipe_iname": "TE_RECIPE_004",
    "mats": [
      {
        "iname": "IT_SC_KAKUSEI_01",
        "num": 10
      }
    ]
  },
  {
    "recipe_iname": "TE_RECIPE_005",
    "mats": [
      {
        "iname": "IT_SC_KAKUSEI_01",
        "num": 10
      }
    ]
  },
  {
    "recipe_iname": "TE_RECIPE_006",
    "mats": [
      {
        "iname": "IT_SC_KAKUSEI_01",
        "num": 15
      }
    ]
  },
  {
    "recipe_iname": "TE_RECIPE_007",
    "mats": [
      {
        "iname": "IT_SC_KAKUSEI_01",
        "num": 20
      }
    ]
  },
  {
    "recipe_iname": "TE_RECIPE_008",
    "mats": [
      {
        "iname": "IT_SC_KAKUSEI_01",
        "num": 25
      }
    ]
  },
  {
    "recipe_iname": "TE_RECIPE_009",
    "mats": [
      {
        "iname": "IT_SC_KAKUSEI_01",
        "num": 50
      }
    ]
  },
  {
    "recipe_iname": "TE_RECIPE_010",
    "mats": [
      {
        "iname": "IT_SC_KAKUSEI_02",
        "num": 5
      }
    ]
  },
  {
    "recipe_iname": "TE_RECIPE_011",
    "mats": [
      {
        "iname": "IT_SC_KAKUSEI_02",
        "num": 5
      }
    ]
  },
  {
    "recipe_iname": "TE_RECIPE_012",
    "mats": [
      {
        "iname": "IT_SC_KAKUSEI_02",
        "num": 10
      }
    ]
  },
  {
    "recipe_iname": "TE_RECIPE_013",
    "mats": [
      {
        "iname": "IT_SC_KAKUSEI_02",
        "num": 10
      }
    ]
  },
  {
    "recipe_iname": "TE_RECIPE_014",
    "mats": [
      {
        "iname": "IT_SC_KAKUSEI_02",
        "num": 15
      }
    ]
  },
  {
    "recipe_iname": "TE_RECIPE_015",
    "mats": [
      {
        "iname": "IT_SC_KAKUSEI_02",
        "num": 15
      }
    ]
  },
  {
    "recipe_iname": "TE_RECIPE_016",
    "mats": [
      {
        "iname": "IT_SC_KAKUSEI_02",
        "num": 20
      }
    ]
  },
  {
    "recipe_iname": "TE_RECIPE_017",
    "mats": [
      {
        "iname": "IT_SC_KAKUSEI_02",
        "num": 30
      }
    ]
  },
  {
    "recipe_iname": "TE_RECIPE_018",
    "mats": [
      {
        "iname": "IT_SC_KAKUSEI_02",
        "num": 40
      }
    ]
  },
  {
    "recipe_iname": "TE_RECIPE_019",
    "mats": [
      {
        "iname": "IT_SC_KAKUSEI_02",
        "num": 50
      }
    ]
  },
  {
    "recipe_iname": "TE_RECIPE_020_FIRE",
    "mats": [
      {
        "iname": "IT_SC_KAKUSEI_FIRE_03",
        "num": 10
      }
    ]
  },
  {
    "recipe_iname": "TE_RECIPE_021_FIRE",
    "mats": [
      {
        "iname": "IT_SC_KAKUSEI_FIRE_03",
        "num": 10
      }
    ]
  },
  {
    "recipe_iname": "TE_RECIPE_022_FIRE",
    "mats": [
      {
        "iname": "IT_SC_KAKUSEI_FIRE_03",
        "num": 15
      }
    ]
  },
  {
    "recipe_iname": "TE_RECIPE_023_FIRE",
    "mats": [
      {
        "iname": "IT_SC_KAKUSEI_FIRE_03",
        "num": 15
      }
    ]
  },
  {
    "recipe_iname": "TE_RECIPE_024_FIRE",
    "mats": [
      {
        "iname": "IT_SC_KAKUSEI_FIRE_03",
        "num": 20
      }
    ]
  },
  {
    "recipe_iname": "TE_RECIPE_025_FIRE",
    "mats": [
      {
        "iname": "IT_SC_KAKUSEI_FIRE_03",
        "num": 25
      }
    ]
  },
  {
    "recipe_iname": "TE_RECIPE_026_FIRE",
    "mats": [
      {
        "iname": "IT_SC_KAKUSEI_FIRE_03",
        "num": 30
      }
    ]
  },
  {
    "recipe_iname": "TE_RECIPE_027_FIRE",
    "mats": [
      {
        "iname": "IT_SC_KAKUSEI_FIRE_03",
        "num": 35
      }
    ]
  },
  {
    "recipe_iname": "TE_RECIPE_028_FIRE",
    "mats": [
      {
        "iname": "IT_SC_KAKUSEI_FIRE_03",
        "num": 40
      }
    ]
  },
  {
    "recipe_iname": "TE_RECIPE_029_FIRE",
    "mats": [
      {
        "iname": "IT_SC_KAKUSEI_FIRE_03",
        "num": 50
      }
    ]
  },
  {
    "recipe_iname": "TE_RECIPE_020_WATER",
    "mats": [
      {
        "iname": "IT_SC_KAKUSEI_WATER_03",
        "num": 10
      }
    ]
  },
  {
    "recipe_iname": "TE_RECIPE_021_WATER",
    "mats": [
      {
        "iname": "IT_SC_KAKUSEI_WATER_03",
        "num": 10
      }
    ]
  },
  {
    "recipe_iname": "TE_RECIPE_022_WATER",
    "mats": [
      {
        "iname": "IT_SC_KAKUSEI_WATER_03",
        "num": 15
      }
    ]
  },
  {
    "recipe_iname": "TE_RECIPE_023_WATER",
    "mats": [
      {
        "iname": "IT_SC_KAKUSEI_WATER_03",
        "num": 15
      }
    ]
  },
  {
    "recipe_iname": "TE_RECIPE_024_WATER",
    "mats": [
      {
        "iname": "IT_SC_KAKUSEI_WATER_03",
        "num": 20
      }
    ]
  },
  {
    "recipe_iname": "TE_RECIPE_025_WATER",
    "mats": [
      {
        "iname": "IT_SC_KAKUSEI_WATER_03",
        "num": 25
      }
    ]
  },
  {
    "recipe_iname": "TE_RECIPE_026_WATER",
    "mats": [
      {
        "iname": "IT_SC_KAKUSEI_WATER_03",
        "num": 30
      }
    ]
  },
  {
    "recipe_iname": "TE_RECIPE_027_WATER",
    "mats": [
      {
        "iname": "IT_SC_KAKUSEI_WATER_03",
        "num": 35
      }
    ]
  },
  {
    "recipe_iname": "TE_RECIPE_028_WATER",
    "mats": [
      {
        "iname": "IT_SC_KAKUSEI_WATER_03",
        "num": 40
      }
    ]
  },
  {
    "recipe_iname": "TE_RECIPE_029_WATER",
    "mats": [
      {
        "iname": "IT_SC_KAKUSEI_WATER_03",
        "num": 50
      }
    ]
  },
  {
    "recipe_iname": "TE_RECIPE_020_WIND",
    "mats": [
      {
        "iname": "IT_SC_KAKUSEI_WIND_03",
        "num": 10
      }
    ]
  },
  {
    "recipe_iname": "TE_RECIPE_021_WIND",
    "mats": [
      {
        "iname": "IT_SC_KAKUSEI_WIND_03",
        "num": 10
      }
    ]
  },
  {
    "recipe_iname": "TE_RECIPE_022_WIND",
    "mats": [
      {
        "iname": "IT_SC_KAKUSEI_WIND_03",
        "num": 15
      }
    ]
  },
  {
    "recipe_iname": "TE_RECIPE_023_WIND",
    "mats": [
      {
        "iname": "IT_SC_KAKUSEI_WIND_03",
        "num": 15
      }
    ]
  },
  {
    "recipe_iname": "TE_RECIPE_024_WIND",
    "mats": [
      {
        "iname": "IT_SC_KAKUSEI_WIND_03",
        "num": 20
      }
    ]
  },
  {
    "recipe_iname": "TE_RECIPE_025_WIND",
    "mats": [
      {
        "iname": "IT_SC_KAKUSEI_WIND_03",
        "num": 25
      }
    ]
  },
  {
    "recipe_iname": "TE_RECIPE_026_WIND",
    "mats": [
      {
        "iname": "IT_SC_KAKUSEI_WIND_03",
        "num": 30
      }
    ]
  },
  {
    "recipe_iname": "TE_RECIPE_027_WIND",
    "mats": [
      {
        "iname": "IT_SC_KAKUSEI_WIND_03",
        "num": 35
      }
    ]
  },
  {
    "recipe_iname": "TE_RECIPE_028_WIND",
    "mats": [
      {
        "iname": "IT_SC_KAKUSEI_WIND_03",
        "num": 40
      }
    ]
  },
  {
    "recipe_iname": "TE_RECIPE_029_WIND",
    "mats": [
      {
        "iname": "IT_SC_KAKUSEI_WIND_03",
        "num": 50
      }
    ]
  },
  {
    "recipe_iname": "TE_RECIPE_020_THUNDER",
    "mats": [
      {
        "iname": "IT_SC_KAKUSEI_THUNDER_03",
        "num": 10
      }
    ]
  },
  {
    "recipe_iname": "TE_RECIPE_021_THUNDER",
    "mats": [
      {
        "iname": "IT_SC_KAKUSEI_THUNDER_03",
        "num": 10
      }
    ]
  },
  {
    "recipe_iname": "TE_RECIPE_022_THUNDER",
    "mats": [
      {
        "iname": "IT_SC_KAKUSEI_THUNDER_03",
        "num": 15
      }
    ]
  },
  {
    "recipe_iname": "TE_RECIPE_023_THUNDER",
    "mats": [
      {
        "iname": "IT_SC_KAKUSEI_THUNDER_03",
        "num": 15
      }
    ]
  },
  {
    "recipe_iname": "TE_RECIPE_024_THUNDER",
    "mats": [
      {
        "iname": "IT_SC_KAKUSEI_THUNDER_03",
        "num": 20
      }
    ]
  },
  {
    "recipe_iname": "TE_RECIPE_025_THUNDER",
    "mats": [
      {
        "iname": "IT_SC_KAKUSEI_THUNDER_03",
        "num": 25
      }
    ]
  },
  {
    "recipe_iname": "TE_RECIPE_026_THUNDER",
    "mats": [
      {
        "iname": "IT_SC_KAKUSEI_THUNDER_03",
        "num": 30
      }
    ]
  },
  {
    "recipe_iname": "TE_RECIPE_027_THUNDER",
    "mats": [
      {
        "iname": "IT_SC_KAKUSEI_THUNDER_03",
        "num": 35
      }
    ]
  },
  {
    "recipe_iname": "TE_RECIPE_028_THUNDER",
    "mats": [
      {
        "iname": "IT_SC_KAKUSEI_THUNDER_03",
        "num": 40
      }
    ]
  },
  {
    "recipe_iname": "TE_RECIPE_029_THUNDER",
    "mats": [
      {
        "iname": "IT_SC_KAKUSEI_THUNDER_03",
        "num": 50
      }
    ]
  },
  {
    "recipe_iname": "TE_RECIPE_020_LIGHT",
    "mats": [
      {
        "iname": "IT_SC_KAKUSEI_LIGHT_03",
        "num": 10
      }
    ]
  },
  {
    "recipe_iname": "TE_RECIPE_021_LIGHT",
    "mats": [
      {
        "iname": "IT_SC_KAKUSEI_LIGHT_03",
        "num": 10
      }
    ]
  },
  {
    "recipe_iname": "TE_RECIPE_022_LIGHT",
    "mats": [
      {
        "iname": "IT_SC_KAKUSEI_LIGHT_03",
        "num": 15
      }
    ]
  },
  {
    "recipe_iname": "TE_RECIPE_023_LIGHT",
    "mats": [
      {
        "iname": "IT_SC_KAKUSEI_LIGHT_03",
        "num": 15
      }
    ]
  },
  {
    "recipe_iname": "TE_RECIPE_024_LIGHT",
    "mats": [
      {
        "iname": "IT_SC_KAKUSEI_LIGHT_03",
        "num": 20
      }
    ]
  },
  {
    "recipe_iname": "TE_RECIPE_025_LIGHT",
    "mats": [
      {
        "iname": "IT_SC_KAKUSEI_LIGHT_03",
        "num": 25
      }
    ]
  },
  {
    "recipe_iname": "TE_RECIPE_026_LIGHT",
    "mats": [
      {
        "iname": "IT_SC_KAKUSEI_LIGHT_03",
        "num": 30
      }
    ]
  },
  {
    "recipe_iname": "TE_RECIPE_027_LIGHT",
    "mats": [
      {
        "iname": "IT_SC_KAKUSEI_LIGHT_03",
        "num": 35
      }
    ]
  },
  {
    "recipe_iname": "TE_RECIPE_028_LIGHT",
    "mats": [
      {
        "iname": "IT_SC_KAKUSEI_LIGHT_03",
        "num": 40
      }
    ]
  },
  {
    "recipe_iname": "TE_RECIPE_029_LIGHT",
    "mats": [
      {
        "iname": "IT_SC_KAKUSEI_LIGHT_03",
        "num": 50
      }
    ]
  },
  {
    "recipe_iname": "TE_RECIPE_020_DARK",
    "mats": [
      {
        "iname": "IT_SC_KAKUSEI_DARK_03",
        "num": 10
      }
    ]
  },
  {
    "recipe_iname": "TE_RECIPE_021_DARK",
    "mats": [
      {
        "iname": "IT_SC_KAKUSEI_DARK_03",
        "num": 10
      }
    ]
  },
  {
    "recipe_iname": "TE_RECIPE_022_DARK",
    "mats": [
      {
        "iname": "IT_SC_KAKUSEI_DARK_03",
        "num": 15
      }
    ]
  },
  {
    "recipe_iname": "TE_RECIPE_023_DARK",
    "mats": [
      {
        "iname": "IT_SC_KAKUSEI_DARK_03",
        "num": 15
      }
    ]
  },
  {
    "recipe_iname": "TE_RECIPE_024_DARK",
    "mats": [
      {
        "iname": "IT_SC_KAKUSEI_DARK_03",
        "num": 20
      }
    ]
  },
  {
    "recipe_iname": "TE_RECIPE_025_DARK",
    "mats": [
      {
        "iname": "IT_SC_KAKUSEI_DARK_03",
        "num": 25
      }
    ]
  },
  {
    "recipe_iname": "TE_RECIPE_026_DARK",
    "mats": [
      {
        "iname": "IT_SC_KAKUSEI_DARK_03",
        "num": 30
      }
    ]
  },
  {
    "recipe_iname": "TE_RECIPE_027_DARK",
    "mats": [
      {
        "iname": "IT_SC_KAKUSEI_DARK_03",
        "num": 35
      }
    ]
  },
  {
    "recipe_iname": "TE_RECIPE_028_DARK",
    "mats": [
      {
        "iname": "IT_SC_KAKUSEI_DARK_03",
        "num": 40
      }
    ]
  },
  {
    "recipe_iname": "TE_RECIPE_029_DARK",
    "mats": [
      {
        "iname": "IT_SC_KAKUSEI_DARK_03",
        "num": 50
      }
    ]
  }
]