[
  {
    "rnk_pt": 0,
    "win_rate": 100,
    "lose_rate": 100,
    "bonus_rate": 100
  },
  {
    "rnk_pt": 100,
    "win_rate": 100,
    "lose_rate": 100,
    "bonus_rate": 100
  },
  {
    "rnk_pt": 200,
    "win_rate": 100,
    "lose_rate": 100,
    "bonus_rate": 100
  },
  {
    "rnk_pt": 700,
    "win_rate": 100,
    "lose_rate": 100,
    "bonus_rate": 100
  },
  {
    "rnk_pt": 1200,
    "win_rate": 100,
    "lose_rate": 100,
    "bonus_rate": 100
  },
  {
    "rnk_pt": 1950,
    "win_rate": 100,
    "lose_rate": 100,
    "bonus_rate": 100
  },
  {
    "rnk_pt": 2700,
    "win_rate": 100,
    "lose_rate": 100,
    "bonus_rate": 100
  },
  {
    "rnk_pt": 3500,
    "win_rate": 100,
    "lose_rate": 100,
    "bonus_rate": 100
  },
  {
    "rnk_pt": 4500,
    "win_rate": 100,
    "lose_rate": 100,
    "bonus_rate": 100
  },
  {
    "rnk_pt": 6000,
    "win_rate": 100,
    "lose_rate": 100,
    "bonus_rate": 100
  },
  {
    "rnk_pt": 7500,
    "win_rate": 100,
    "lose_rate": 100,
    "bonus_rate": 100
  },
  {
    "rnk_pt": 9250,
    "win_rate": 100,
    "lose_rate": 100,
    "bonus_rate": 100
  },
  {
    "rnk_pt": 11000,
    "win_rate": 100,
    "lose_rate": 100,
    "bonus_rate": 100
  },
  {
    "rnk_pt": 13000,
    "win_rate": 100,
    "lose_rate": 100,
    "bonus_rate": 100
  },
  {
    "rnk_pt": 15000,
    "win_rate": 100,
    "lose_rate": 100,
    "bonus_rate": 100
  },
  {
    "rnk_pt": 17500,
    "win_rate": 100,
    "lose_rate": 100,
    "bonus_rate": 100
  },
  {
    "rnk_pt": 20000,
    "win_rate": 100,
    "lose_rate": 100,
    "bonus_rate": 100
  },
  {
    "rnk_pt": 23000,
    "win_rate": 100,
    "lose_rate": 100,
    "bonus_rate": 100
  },
  {
    "rnk_pt": 26000,
    "win_rate": 100,
    "lose_rate": 100,
    "bonus_rate": 100
  },
  {
    "rnk_pt": 29500,
    "win_rate": 100,
    "lose_rate": 100,
    "bonus_rate": 100
  },
  {
    "rnk_pt": 33000,
    "win_rate": 100,
    "lose_rate": 100,
    "bonus_rate": 100
  },
  {
    "rnk_pt": 37000,
    "win_rate": 100,
    "lose_rate": 100,
    "bonus_rate": 100
  },
  {
    "rnk_pt": 41000,
    "win_rate": 100,
    "lose_rate": 100,
    "bonus_rate": 100
  },
  {
    "rnk_pt": 45500,
    "win_rate": 100,
    "lose_rate": 100,
    "bonus_rate": 100
  },
  {
    "rnk_pt": 50000,
    "win_rate": 100,
    "lose_rate": 100,
    "bonus_rate": 100
  }
]