[
  {
    "item_iname": "IT_EXPEDITION_01H",
    "reduce_min": 60
  },
  {
    "item_iname": "IT_EXPEDITION_06H",
    "reduce_min": 360
  },
  {
    "item_iname": "IT_EXPEDITION_08H",
    "reduce_min": 480
  },
  {
    "item_iname": "IT_EXPEDITION_10H",
    "reduce_min": 600
  }
]