[
  {
    "iname": "ADV_AREA_01",
    "area_name": "エンヴィリア",
    "ui_index": 0,
    "quests": [
      {
        "adv_time": "6:00",
        "cost_id": "ADV_COST_AREA_01_A",
        "reward_id": "ADV_REWARD_AREA_01_A",
        "cond_id": "ADV_COND_AREA_01_A",
        "buff_id": "BUFF_ADV_AREA_ENV01",
        "buff_name": "エンヴィリアに触れし証",
        "buff_desc": "物防1%・魔防1％"
      },
      {
        "adv_time": "8:00",
        "cost_id": "ADV_COST_AREA_01_B",
        "reward_id": "ADV_REWARD_AREA_01_B",
        "cond_id": "ADV_COND_AREA_01_B",
        "buff_id": "BUFF_ADV_AREA_ENV02",
        "buff_name": "エンヴィリアに精通せし証",
        "buff_desc": "物防3%・魔防3％"
      }
    ]
  },
  {
    "iname": "ADV_AREA_02",
    "area_name": "スロウスシュタイン",
    "ui_index": 1,
    "quests": [
      {
        "adv_time": "6:00",
        "cost_id": "ADV_COST_AREA_02_A",
        "reward_id": "ADV_REWARD_AREA_02_A",
        "cond_id": "ADV_COND_AREA_02_A",
        "buff_id": "BUFF_ADV_AREA_SLO01",
        "buff_name": "スロウスシュタインに触れし証",
        "buff_desc": "器用さ1%"
      },
      {
        "adv_time": "8:00",
        "cost_id": "ADV_COST_AREA_02_B",
        "reward_id": "ADV_REWARD_AREA_02_B",
        "cond_id": "ADV_COND_AREA_02_B",
        "buff_id": "BUFF_ADV_AREA_SLO02",
        "buff_name": "スロウスシュタインに精通せし証",
        "buff_desc": "器用さ3%"
      }
    ]
  },
  {
    "iname": "ADV_AREA_03",
    "area_name": "ルストブルグ",
    "ui_index": 2,
    "quests": [
      {
        "adv_time": "6:00",
        "cost_id": "ADV_COST_AREA_03_A",
        "reward_id": "ADV_REWARD_AREA_03_A",
        "cond_id": "ADV_COND_AREA_03_A",
        "buff_id": "BUFF_ADV_AREA_LUST01",
        "buff_name": "ルストブルグに触れし証",
        "buff_desc": "魔攻1%・運1％"
      },
      {
        "adv_time": "8:00",
        "cost_id": "ADV_COST_AREA_03_B",
        "reward_id": "ADV_REWARD_AREA_03_B",
        "cond_id": "ADV_COND_AREA_03_B",
        "buff_id": "BUFF_ADV_AREA_LUST02",
        "buff_name": "ルストブルグに精通せし証",
        "buff_desc": "魔攻3%・運3％"
      }
    ]
  },
  {
    "iname": "ADV_AREA_04",
    "area_name": "グラトニー＝フォス",
    "ui_index": 3,
    "quests": [
      {
        "adv_time": "6:00",
        "cost_id": "ADV_COST_AREA_04_A",
        "reward_id": "ADV_REWARD_AREA_04_A",
        "cond_id": "ADV_COND_AREA_04_A",
        "buff_id": "BUFF_ADV_AREA_GLUTTONY01",
        "buff_name": "グラトニー＝フォスに触れし証",
        "buff_desc": "射撃攻撃力5・打撃攻撃力5"
      }
    ]
  },
  {
    "iname": "ADV_AREA_05",
    "area_name": "ラーストリス",
    "ui_index": 4,
    "quests": [
      {
        "adv_time": "6:00",
        "cost_id": "ADV_COST_AREA_05_A",
        "reward_id": "ADV_REWARD_AREA_05_A",
        "cond_id": "ADV_COND_AREA_05_A",
        "buff_id": "BUFF_ADV_AREA_WRATH01",
        "buff_name": "ラーストリスに触れし証",
        "buff_desc": "物攻1%・会心1％"
      },
      {
        "adv_time": "8:00",
        "cost_id": "ADV_COST_AREA_05_B",
        "reward_id": "ADV_REWARD_AREA_05_B",
        "cond_id": "ADV_COND_AREA_05_B",
        "buff_id": "BUFF_ADV_AREA_WRATH02",
        "buff_name": "ラーストリスに精通せし証",
        "buff_desc": "物攻3%・会心3％"
      }
    ]
  },
  {
    "iname": "ADV_AREA_06",
    "area_name": "グリードダイク",
    "ui_index": 5,
    "quests": [
      {
        "adv_time": "6:00",
        "cost_id": "ADV_COST_AREA_06_A",
        "reward_id": "ADV_REWARD_AREA_06_A",
        "cond_id": "ADV_COND_AREA_06_A",
        "buff_id": "BUFF_ADV_AREA_GREED01",
        "buff_name": "グリードダイクに触れし証",
        "buff_desc": "刺突攻撃力5・ジャンプ攻撃力5"
      },
      {
        "adv_time": "8:00",
        "cost_id": "ADV_COST_AREA_06_B",
        "reward_id": "ADV_REWARD_AREA_06_B",
        "cond_id": "ADV_COND_AREA_06_B",
        "buff_id": "BUFF_ADV_AREA_GREED02",
        "buff_name": "グリードダイクに精通せし証",
        "buff_desc": "刺突攻撃力7・ジャンプ攻撃力7"
      }
    ]
  },
  {
    "iname": "ADV_AREA_07",
    "area_name": "ノーザンブライド",
    "ui_index": 6,
    "quests": [
      {
        "adv_time": "6:00",
        "cost_id": "ADV_COST_AREA_07_A",
        "reward_id": "ADV_REWARD_AREA_07_A",
        "cond_id": "ADV_COND_AREA_07_A",
        "buff_id": "BUFF_ADV_AREA_NORTH01",
        "buff_name": "ノーザンブライドに触れし証",
        "buff_desc": "斬撃攻撃力5"
      }
    ]
  },
  {
    "iname": "ADV_AREA_08",
    "area_name": "砂漠",
    "ui_index": 7,
    "quests": [
      {
        "adv_time": "6:00",
        "cost_id": "ADV_COST_AREA_08_A",
        "reward_id": "ADV_REWARD_AREA_08_A",
        "cond_id": "ADV_COND_AREA_08_A",
        "buff_id": "BUFF_ADV_AREA_DESERT01",
        "buff_name": "砂漠に触れし証",
        "buff_desc": "最大ジュエル5%"
      },
      {
        "adv_time": "8:00",
        "cost_id": "ADV_COST_AREA_08_B",
        "reward_id": "ADV_REWARD_AREA_08_B",
        "cond_id": "ADV_COND_AREA_08_B",
        "buff_id": "BUFF_ADV_AREA_DESERT02",
        "buff_name": "砂漠に精通せし証",
        "buff_desc": "最大ジュエル7%"
      }
    ]
  },
  {
    "iname": "ADV_AREA_09",
    "area_name": "サガ",
    "ui_index": 8,
    "quests": [
      {
        "adv_time": "6:00",
        "cost_id": "ADV_COST_AREA_09_A",
        "reward_id": "ADV_REWARD_AREA_09_A",
        "cond_id": "ADV_COND_AREA_09_A",
        "buff_id": "BUFF_ADV_AREA_SAGA01",
        "buff_name": "サガに触れし証",
        "buff_desc": "HP5%"
      },
      {
        "adv_time": "8:00",
        "cost_id": "ADV_COST_AREA_09_B",
        "reward_id": "ADV_REWARD_AREA_09_B",
        "cond_id": "ADV_COND_AREA_09_B",
        "buff_id": "BUFF_ADV_AREA_SAGA02",
        "buff_name": "サガに精通せし証",
        "buff_desc": "HP7%"
      }
    ]
  },
  {
    "iname": "ADV_AREA_10",
    "area_name": "ワダツミ",
    "ui_index": 9,
    "quests": [
      {
        "adv_time": "6:00",
        "cost_id": "ADV_COST_AREA_10_A",
        "reward_id": "ADV_REWARD_AREA_10_A",
        "cond_id": "ADV_COND_AREA_10_A",
        "buff_id": "BUFF_ADV_AREA_WADA01",
        "buff_name": "ワダツミに触れし証",
        "buff_desc": "素早さ1％"
      },
      {
        "adv_time": "8:00",
        "cost_id": "ADV_COST_AREA_10_B",
        "reward_id": "ADV_REWARD_AREA_10_B",
        "cond_id": "ADV_COND_AREA_10_B",
        "buff_id": "BUFF_ADV_AREA_WADA02",
        "buff_name": "ワダツミに精通せし証",
        "buff_desc": "素早さ2％"
      }
    ]
  },
  {
    "iname": "ADV_AREA_11",
    "area_name": "ロストブルー",
    "cond_areas": [
      "ADV_AREA_01"
    ],
    "cond_levels": [
      3
    ],
    "ui_index": 10,
    "quests": [
      {
        "adv_time": "6:00",
        "cost_id": "ADV_COST_AREA_11_A",
        "reward_id": "ADV_REWARD_AREA_11_A",
        "cond_id": "ADV_COND_AREA_11_A",
        "buff_id": "BUFF_ADV_AREA_LOST01",
        "buff_name": "ロストブルーに触れし証",
        "buff_desc": "魔法攻撃力5"
      }
    ]
  },
  {
    "iname": "ADV_AREA_12",
    "area_name": "特殊",
    "cond_areas": [
      "ADV_AREA_01"
    ],
    "cond_levels": [
      3
    ],
    "ui_index": 11,
    "quests": [
      {
        "adv_time": "6:00",
        "cost_id": "ADV_COST_AREA_12_A",
        "reward_id": "ADV_REWARD_AREA_12_A",
        "cond_id": "ADV_COND_AREA_12_A",
        "buff_id": "BUFF_DEBUFF_BLOCK_KOF",
        "buff_name": "特殊な恵み",
        "buff_desc": "魔法攻撃力10％"
      }
    ]
  }
]