[
  {
    "id": "GVG_RWD_LEAGUE_01",
    "reward_detail": [
      {
        "ranking": 1,
        "reward_id": "GVG_RWD_RANKING_01"
      },
      {
        "ranking": 2,
        "reward_id": "GVG_RWD_RANKING_02"
      },
      {
        "ranking": 3,
        "reward_id": "GVG_RWD_RANKING_03"
      },
      {
        "ranking": 4,
        "reward_id": "GVG_RWD_RANKING_04"
      }
    ]
  },
  {
    "id": "GVG_RWD_LEG_01_SEASON_01",
    "reward_detail": [
      {
        "ranking": 1,
        "reward_id": "GVG_RWD_LEG_01_SEASON_01_1st"
      },
      {
        "ranking": 2,
        "reward_id": "GVG_RWD_LEG_01_SEASON_01_2nd"
      },
      {
        "ranking": 3,
        "reward_id": "GVG_RWD_LEG_01_SEASON_01_3rd"
      },
      {
        "ranking": 4,
        "reward_id": "GVG_RWD_LEG_01_SEASON_01_4th"
      }
    ]
  },
  {
    "id": "GVG_RWD_DIA_01_SEASON_01",
    "reward_detail": [
      {
        "ranking": 1,
        "reward_id": "GVG_RWD_DIA_01_SEASON_01_1st"
      },
      {
        "ranking": 2,
        "reward_id": "GVG_RWD_DIA_01_SEASON_01_2nd"
      },
      {
        "ranking": 3,
        "reward_id": "GVG_RWD_DIA_01_SEASON_01_3rd"
      },
      {
        "ranking": 4,
        "reward_id": "GVG_RWD_DIA_01_SEASON_01_4th"
      }
    ]
  },
  {
    "id": "GVG_RWD_DIA_02_SEASON_01",
    "reward_detail": [
      {
        "ranking": 1,
        "reward_id": "GVG_RWD_DIA_02_SEASON_01_1st"
      },
      {
        "ranking": 2,
        "reward_id": "GVG_RWD_DIA_02_SEASON_01_2nd"
      },
      {
        "ranking": 3,
        "reward_id": "GVG_RWD_DIA_02_SEASON_01_3rd"
      },
      {
        "ranking": 4,
        "reward_id": "GVG_RWD_DIA_02_SEASON_01_4th"
      }
    ]
  },
  {
    "id": "GVG_RWD_DIA_03_SEASON_01",
    "reward_detail": [
      {
        "ranking": 1,
        "reward_id": "GVG_RWD_DIA_03_SEASON_01_1st"
      },
      {
        "ranking": 2,
        "reward_id": "GVG_RWD_DIA_03_SEASON_01_2nd"
      },
      {
        "ranking": 3,
        "reward_id": "GVG_RWD_DIA_03_SEASON_01_3rd"
      },
      {
        "ranking": 4,
        "reward_id": "GVG_RWD_DIA_03_SEASON_01_4th"
      }
    ]
  },
  {
    "id": "GVG_RWD_GOL_01_SEASON_01",
    "reward_detail": [
      {
        "ranking": 1,
        "reward_id": "GVG_RWD_GOL_01_SEASON_01_1st"
      },
      {
        "ranking": 2,
        "reward_id": "GVG_RWD_GOL_01_SEASON_01_2nd"
      },
      {
        "ranking": 3,
        "reward_id": "GVG_RWD_GOL_01_SEASON_01_3rd"
      },
      {
        "ranking": 4,
        "reward_id": "GVG_RWD_GOL_01_SEASON_01_4th"
      }
    ]
  },
  {
    "id": "GVG_RWD_GOL_02_SEASON_01",
    "reward_detail": [
      {
        "ranking": 1,
        "reward_id": "GVG_RWD_GOL_02_SEASON_01_1st"
      },
      {
        "ranking": 2,
        "reward_id": "GVG_RWD_GOL_02_SEASON_01_2nd"
      },
      {
        "ranking": 3,
        "reward_id": "GVG_RWD_GOL_02_SEASON_01_3rd"
      },
      {
        "ranking": 4,
        "reward_id": "GVG_RWD_GOL_02_SEASON_01_4th"
      }
    ]
  },
  {
    "id": "GVG_RWD_GOL_03_SEASON_01",
    "reward_detail": [
      {
        "ranking": 1,
        "reward_id": "GVG_RWD_GOL_03_SEASON_01_1st"
      },
      {
        "ranking": 2,
        "reward_id": "GVG_RWD_GOL_03_SEASON_01_2nd"
      },
      {
        "ranking": 3,
        "reward_id": "GVG_RWD_GOL_03_SEASON_01_3rd"
      },
      {
        "ranking": 4,
        "reward_id": "GVG_RWD_GOL_03_SEASON_01_4th"
      }
    ]
  },
  {
    "id": "GVG_RWD_SIL_01_SEASON_01",
    "reward_detail": [
      {
        "ranking": 1,
        "reward_id": "GVG_RWD_SIL_01_SEASON_01_1st"
      },
      {
        "ranking": 2,
        "reward_id": "GVG_RWD_SIL_01_SEASON_01_2nd"
      },
      {
        "ranking": 3,
        "reward_id": "GVG_RWD_SIL_01_SEASON_01_3rd"
      },
      {
        "ranking": 4,
        "reward_id": "GVG_RWD_SIL_01_SEASON_01_4th"
      }
    ]
  },
  {
    "id": "GVG_RWD_SIL_02_SEASON_01",
    "reward_detail": [
      {
        "ranking": 1,
        "reward_id": "GVG_RWD_SIL_02_SEASON_01_1st"
      },
      {
        "ranking": 2,
        "reward_id": "GVG_RWD_SIL_02_SEASON_01_2nd"
      },
      {
        "ranking": 3,
        "reward_id": "GVG_RWD_SIL_02_SEASON_01_3rd"
      },
      {
        "ranking": 4,
        "reward_id": "GVG_RWD_SIL_02_SEASON_01_4th"
      }
    ]
  },
  {
    "id": "GVG_RWD_SIL_03_SEASON_01",
    "reward_detail": [
      {
        "ranking": 1,
        "reward_id": "GVG_RWD_SIL_03_SEASON_01_1st"
      },
      {
        "ranking": 2,
        "reward_id": "GVG_RWD_SIL_03_SEASON_01_2nd"
      },
      {
        "ranking": 3,
        "reward_id": "GVG_RWD_SIL_03_SEASON_01_3rd"
      },
      {
        "ranking": 4,
        "reward_id": "GVG_RWD_SIL_03_SEASON_01_4th"
      }
    ]
  },
  {
    "id": "GVG_RWD_BRN_01_SEASON_01",
    "reward_detail": [
      {
        "ranking": 1,
        "reward_id": "GVG_RWD_BRN_01_SEASON_01_1st"
      },
      {
        "ranking": 2,
        "reward_id": "GVG_RWD_BRN_01_SEASON_01_2nd"
      },
      {
        "ranking": 3,
        "reward_id": "GVG_RWD_BRN_01_SEASON_01_3rd"
      },
      {
        "ranking": 4,
        "reward_id": "GVG_RWD_BRN_01_SEASON_01_4th"
      }
    ]
  }
]