[
  {
    "iname": "ME_NONE_DUMMY",
    "name": "なし",
    "skills": [
      "SK_ME_NONE"
    ]
  },
  {
    "iname": "ME_PLAIN",
    "name": "草原",
    "skills": [
      "SK_ME_PLA_WARRIOR",
      "SK_ME_PLA_MONK_AGI",
      "SK_ME_PLA_WARRIOR_MOVE",
      "SK_ME_PLA_SUPPORT"
    ]
  },
  {
    "iname": "ME_WASTELAND",
    "name": "荒野",
    "skills": [
      "SK_ME_WLA_SHOOTER",
      "SK_ME_WLA_WARRIOR",
      "SK_ME_WLA_MONK"
    ]
  },
  {
    "iname": "ME_MOUNTAIN",
    "name": "山岳"
  },
  {
    "iname": "ME_DESERT",
    "name": "砂漠",
    "skills": [
      "SK_ME_DES_WARRIOR",
      "SK_ME_DES_WIZARD",
      "SK_ME_DES_SUPPORT",
      "SK_ME_DES_WARRIOR_DOWN"
    ]
  },
  {
    "iname": "ME_FOREST",
    "name": "森林",
    "skills": [
      "SK_ME_FRS_SHOOTER_JUMP",
      "SK_ME_FRS_SHOOTER",
      "SK_ME_FRS_MONK",
      "SK_ME_FRS_SUPPORT",
      "SK_ME_FRS_WIZARD"
    ]
  },
  {
    "iname": "ME_TOWN",
    "name": "街",
    "skills": [
      "SK_ME_TWN_MONK",
      "SK_ME_TWN_MAGICSWORD",
      "SK_ME_TWN_MADAN",
      "SK_ME_TWN_SUPPORT",
      "SK_ME_TWN_SUPPORT_MOVE"
    ]
  },
  {
    "iname": "ME_MACHINE_CITY",
    "name": "機械都市",
    "skills": [
      "SK_ME_MEC_SHOOTER",
      "SK_ME_MEC_SHOOTER_MOVE",
      "SK_ME_MEC_WIZARD"
    ]
  },
  {
    "iname": "ME_INDOOR",
    "name": "屋内",
    "skills": [
      "SK_ME_IDR_MONK",
      "SK_ME_IDR_SUPPORT",
      "SK_ME_IDR_SUPPORT_DOWN"
    ]
  },
  {
    "iname": "ME_VILLAGE",
    "name": "村"
  },
  {
    "iname": "ME_RUINS",
    "name": "遺跡",
    "skills": [
      "SK_ME_RUI_WARRIOR",
      "SK_ME_RUI_WARRIOR_AGI"
    ]
  },
  {
    "iname": "ME_ABANDONED",
    "name": "廃墟"
  },
  {
    "iname": "ME_UNDERPASS",
    "name": "地下道"
  },
  {
    "iname": "ME_CAVE",
    "name": "洞窟"
  },
  {
    "iname": "ME_FORT",
    "name": "城砦",
    "skills": [
      "SK_ME_FRT_WARRIOR",
      "SK_ME_FRT_WARRIOR_AGI",
      "SK_ME_FRT_WARRIOR_MOVE",
      "SK_ME_FRT_MAGICSWORD"
    ]
  },
  {
    "iname": "ME_SNOWFIELD",
    "name": "雪原",
    "skills": [
      "SK_ME_SNW_MAGICSWORD",
      "SK_ME_SNW_MONK",
      "SK_ME_SNW_WIZARD",
      "SK_ME_SNW_SUPPORT_QCAST",
      "SK_ME_SNW_SUPPORT"
    ]
  },
  {
    "iname": "ME_MAGICAL_CITY",
    "name": "魔法都市",
    "skills": [
      "SK_ME_MAG_WIZARD",
      "SK_ME_MAG_WIZARD_QCAST",
      "SK_ME_MAG_SUPPORT",
      "SK_ME_MAG_SUPPORT_QCAST",
      "SK_ME_MAG_SUPPORT_CT500"
    ]
  },
  {
    "iname": "ME_CEMETERY",
    "name": "墓地"
  },
  {
    "iname": "ME_OCEAN",
    "name": "海",
    "skills": [
      "SK_ME_OCE_WARRIOR_AGI",
      "SK_ME_OCE_SUPPORT",
      "SK_ME_OCE_SHOOTER_DOWN",
      "SK_ME_OCE_WARRIOR_DOWN"
    ]
  },
  {
    "iname": "ME_VOLCANO",
    "name": "火山",
    "skills": [
      "SK_ME_VLC_WARRIOR_AGI",
      "SK_ME_VLC_SUPPORT",
      "SK_ME_VLC_WARRIOR"
    ]
  },
  {
    "iname": "ME_ARENAQUEST",
    "name": "闘技場"
  },
  {
    "iname": "ME_VEDA_FIELD",
    "name": "異層の間"
  },
  {
    "iname": "ME_ANOTHER_WORLD",
    "name": "亜空間"
  },
  {
    "iname": "ME_TOWER_MOBIUS_01",
    "name": "異層界メビウス01"
  },
  {
    "iname": "ME_TOWER_MOBIUS_02",
    "name": "異層界メビウス02"
  },
  {
    "iname": "ME_TOWER_MOBIUS_03",
    "name": "異層界メビウス03"
  },
  {
    "iname": "ME_TOWER_MOBIUS_04",
    "name": "異層界メビウス04"
  },
  {
    "iname": "ME_TOWER_MOBIUS_05",
    "name": "異層界メビウス05"
  },
  {
    "iname": "ME_RM_APR_LIZ_01",
    "name": "エイプリルフール用リザードマン",
    "skills": [
      "SK_ME_RM_APR_LIZ_01"
    ]
  },
  {
    "iname": "ME_BORDER_COLLABO",
    "name": "───"
  },
  {
    "iname": "ME_COLLABO_01",
    "name": "流用禁止マップ1"
  }
]