[
  {
    "iname": "OB_TW_BABEL_02_FLOOR_101",
    "objective": [
      {
        "type": 7,
        "val": "Dark",
        "is_takeover_progress": 1,
        "item_type": 100
      },
      {
        "type": 6,
        "val": "5",
        "is_takeover_progress": 1,
        "item_type": 100
      },
      {
        "type": 20,
        "val": "UN_V2_EN_FAMILIAR_G,3",
        "item_type": 100
      }
    ]
  },
  {
    "iname": "OB_TW_BABEL_02_FLOOR_102",
    "objective": [
      {
        "type": 51,
        "val": "4",
        "item_type": 100
      },
      {
        "type": 1,
        "is_takeover_progress": 1,
        "item_type": 100
      },
      {
        "type": 7,
        "val": "Shine",
        "is_takeover_progress": 1,
        "item_type": 100
      }
    ]
  },
  {
    "iname": "OB_TW_BABEL_02_FLOOR_103",
    "objective": [
      {
        "type": 28,
        "val": "杖",
        "is_takeover_progress": 1,
        "item_type": 100
      },
      {
        "type": 7,
        "val": "Fire",
        "is_takeover_progress": 1,
        "item_type": 100
      },
      {
        "type": 51,
        "val": "4",
        "item_type": 100
      }
    ]
  },
  {
    "iname": "OB_TW_BABEL_02_FLOOR_104",
    "objective": [
      {
        "type": 1,
        "is_takeover_progress": 1,
        "item_type": 100
      },
      {
        "type": 8,
        "val": "UN_V2_CLOE",
        "item_type": 100
      },
      {
        "type": 10,
        "val": "4",
        "item_type": 100
      }
    ]
  },
  {
    "iname": "OB_TW_BABEL_02_FLOOR_105",
    "objective": [
      {
        "type": 10,
        "val": "2",
        "item_type": 100
      },
      {
        "type": 52,
        "val": "1",
        "is_takeover_progress": 1,
        "item_type": 100
      },
      {
        "type": 23,
        "val": "UN_V2_BR_DEFENCE_SYSTEM_VEDA2,2",
        "is_takeover_progress": 1,
        "item_type": 100
      },
      {
        "type": 27,
        "item_type": 100
      }
    ]
  },
  {
    "iname": "OB_TW_BABEL_02_FLOOR_106",
    "objective": [
      {
        "type": 7,
        "val": "Thunder",
        "is_takeover_progress": 1,
        "item_type": 100
      },
      {
        "type": 10,
        "val": "2",
        "is_takeover_progress": 1,
        "item_type": 100
      },
      {
        "type": 6,
        "val": "7",
        "is_takeover_progress": 1,
        "item_type": 100
      }
    ]
  },
  {
    "iname": "OB_TW_BABEL_02_FLOOR_107",
    "objective": [
      {
        "type": 51,
        "val": "1",
        "is_takeover_progress": 1,
        "item_type": 100
      },
      {
        "type": 7,
        "val": "Water",
        "is_takeover_progress": 1,
        "item_type": 100
      },
      {
        "type": 6,
        "val": "7",
        "is_takeover_progress": 1,
        "item_type": 100
      }
    ]
  },
  {
    "iname": "OB_TW_BABEL_02_FLOOR_108",
    "objective": [
      {
        "type": 7,
        "val": "Wind",
        "is_takeover_progress": 1,
        "item_type": 100
      },
      {
        "type": 6,
        "val": "7",
        "is_takeover_progress": 1,
        "item_type": 100
      },
      {
        "type": 20,
        "val": "UN_V2_EN_RAT_ARM_THUNDER_SS,2",
        "item_type": 100
      }
    ]
  },
  {
    "iname": "OB_TW_BABEL_02_FLOOR_109",
    "objective": [
      {
        "type": 34,
        "val": "1",
        "is_takeover_progress": 1,
        "item_type": 100
      },
      {
        "type": 1,
        "is_takeover_progress": 1,
        "item_type": 100
      },
      {
        "type": 6,
        "val": "7",
        "is_takeover_progress": 1,
        "item_type": 100
      }
    ]
  },
  {
    "iname": "OB_TW_BABEL_02_FLOOR_110",
    "objective": [
      {
        "type": 34,
        "val": "2",
        "is_takeover_progress": 1,
        "item_type": 100
      },
      {
        "type": 6,
        "val": "7",
        "is_takeover_progress": 1,
        "item_type": 100
      },
      {
        "type": 51,
        "val": "7",
        "is_takeover_progress": 1,
        "item_type": 100
      },
      {
        "type": 20,
        "val": "UN_V2_EN_DEMON_VEDA110,2",
        "item_type": 100
      },
      {
        "type": 13,
        "val": "50000",
        "item_type": 100
      },
      {
        "type": 27,
        "item_type": 100
      }
    ]
  },
  {
    "iname": "OB_TW_BABEL_02R_FLOOR_101",
    "objective": [
      {
        "type": 7,
        "val": "Dark",
        "is_takeover_progress": 1,
        "item_type": 100
      },
      {
        "type": 6,
        "val": "5",
        "is_takeover_progress": 1,
        "item_type": 100
      },
      {
        "type": 20,
        "val": "UN_V2_EN_FAMILIAR_G,2",
        "item_type": 100
      }
    ]
  },
  {
    "iname": "OB_TW_BABEL_02R_FLOOR_102",
    "objective": [
      {
        "type": 51,
        "val": "4",
        "item_type": 100
      },
      {
        "type": 1,
        "item_type": 100
      },
      {
        "type": 7,
        "val": "Shine",
        "is_takeover_progress": 1,
        "item_type": 100
      }
    ]
  },
  {
    "iname": "OB_TW_BABEL_02R_FLOOR_103",
    "objective": [
      {
        "type": 28,
        "val": "杖",
        "is_takeover_progress": 1,
        "item_type": 100
      },
      {
        "type": 7,
        "val": "Fire",
        "is_takeover_progress": 1,
        "item_type": 100
      },
      {
        "type": 51,
        "val": "4",
        "item_type": 100
      }
    ]
  },
  {
    "iname": "OB_TW_BABEL_02R_FLOOR_104",
    "objective": [
      {
        "type": 1,
        "item_type": 100
      },
      {
        "type": 8,
        "val": "UN_V2_CLOE",
        "item_type": 100
      },
      {
        "type": 10,
        "val": "3",
        "item_type": 100
      }
    ]
  },
  {
    "iname": "OB_TW_BABEL_02R_FLOOR_105",
    "objective": [
      {
        "type": 10,
        "val": "2",
        "item_type": 100
      },
      {
        "type": 52,
        "val": "1",
        "item_type": 100
      },
      {
        "type": 55,
        "val": "3",
        "is_takeover_progress": 1,
        "item_type": 100
      },
      {
        "type": 27,
        "item_type": 100
      }
    ]
  },
  {
    "iname": "OB_TW_BABEL_02R_FLOOR_106",
    "objective": [
      {
        "type": 7,
        "val": "Thunder",
        "is_takeover_progress": 1,
        "item_type": 100
      },
      {
        "type": 10,
        "val": "2",
        "item_type": 100
      },
      {
        "type": 6,
        "val": "5",
        "is_takeover_progress": 1,
        "item_type": 100
      }
    ]
  },
  {
    "iname": "OB_TW_BABEL_02R_FLOOR_107",
    "objective": [
      {
        "type": 51,
        "val": "1",
        "is_takeover_progress": 1,
        "item_type": 100
      },
      {
        "type": 7,
        "val": "Water",
        "is_takeover_progress": 1,
        "item_type": 100
      },
      {
        "type": 6,
        "val": "5",
        "is_takeover_progress": 1,
        "item_type": 100
      }
    ]
  },
  {
    "iname": "OB_TW_BABEL_02R_FLOOR_108",
    "objective": [
      {
        "type": 7,
        "val": "Wind",
        "is_takeover_progress": 1,
        "item_type": 100
      },
      {
        "type": 6,
        "val": "5",
        "is_takeover_progress": 1,
        "item_type": 100
      },
      {
        "type": 20,
        "val": "UN_V2_EN_RAT_ARM_THUNDER_SS,2",
        "item_type": 100
      }
    ]
  },
  {
    "iname": "OB_TW_BABEL_02R_FLOOR_109",
    "objective": [
      {
        "type": 34,
        "val": "1",
        "is_takeover_progress": 1,
        "item_type": 100
      },
      {
        "type": 1,
        "item_type": 100
      },
      {
        "type": 6,
        "val": "5",
        "is_takeover_progress": 1,
        "item_type": 100
      }
    ]
  },
  {
    "iname": "OB_TW_BABEL_02R_FLOOR_110",
    "objective": [
      {
        "type": 34,
        "val": "2",
        "is_takeover_progress": 1,
        "item_type": 100
      },
      {
        "type": 6,
        "val": "7",
        "is_takeover_progress": 1,
        "item_type": 100
      },
      {
        "type": 51,
        "val": "7",
        "is_takeover_progress": 1,
        "item_type": 100
      },
      {
        "type": 20,
        "val": "UN_V2_EN_DEMON_VEDA110,2",
        "item_type": 100
      },
      {
        "type": 13,
        "val": "50000",
        "item_type": 100
      },
      {
        "type": 27,
        "item_type": 100
      }
    ]
  },
  {
    "iname": "OB_TW_BABEL_02R_FLOOR_111",
    "objective": [
      {
        "type": 1,
        "item_type": 100
      },
      {
        "type": 7,
        "val": "Water",
        "is_takeover_progress": 1,
        "item_type": 100
      },
      {
        "type": 51,
        "val": "3",
        "item_type": 100
      }
    ]
  },
  {
    "iname": "OB_TW_BABEL_02R_FLOOR_112",
    "objective": [
      {
        "type": 1,
        "val": "4",
        "item_type": 100
      },
      {
        "type": 7,
        "val": "Thunder",
        "is_takeover_progress": 1,
        "item_type": 100
      },
      {
        "type": 23,
        "val": "UN_V2_BR_WALL_CTR_VEDA_DEBUFF_OFF,2",
        "is_takeover_progress": 1,
        "item_type": 100
      }
    ]
  },
  {
    "iname": "OB_TW_BABEL_02R_FLOOR_113",
    "objective": [
      {
        "type": 57,
        "val": "10000",
        "item_type": 100
      },
      {
        "type": 20,
        "val": "UN_V2_EN_DEMON_WIZ_DOWN_TREND,2",
        "item_type": 100
      },
      {
        "type": 55,
        "val": "3",
        "is_takeover_progress": 1,
        "item_type": 100
      }
    ]
  },
  {
    "iname": "OB_TW_BABEL_02R_FLOOR_114",
    "objective": [
      {
        "type": 23,
        "val": "UN_V2_BR_WALL_CTR_H_CT_UP,4",
        "is_takeover_progress": 1,
        "item_type": 100
      },
      {
        "type": 20,
        "val": "UN_V2_EN_GARGOYLE,2",
        "item_type": 100
      },
      {
        "type": 10,
        "val": "3",
        "item_type": 100
      }
    ]
  },
  {
    "iname": "OB_TW_BABEL_02R_FLOOR_115",
    "objective": [
      {
        "type": 55,
        "val": "2",
        "is_takeover_progress": 1,
        "item_type": 100
      },
      {
        "type": 34,
        "val": "2",
        "item_type": 100
      },
      {
        "type": 1,
        "val": "2",
        "item_type": 100
      },
      {
        "type": 27,
        "item_type": 100
      }
    ]
  },
  {
    "iname": "OB_TW_BABEL_02R_FLOOR_116",
    "objective": [
      {
        "type": 6,
        "val": "5",
        "is_takeover_progress": 1,
        "item_type": 100
      },
      {
        "type": 7,
        "val": "Fire",
        "is_takeover_progress": 1,
        "item_type": 100
      },
      {
        "type": 4,
        "val": "25",
        "item_type": 100
      }
    ]
  },
  {
    "iname": "OB_TW_BABEL_02R_FLOOR_117",
    "objective": [
      {
        "type": 1,
        "item_type": 100
      },
      {
        "type": 7,
        "val": "Wind",
        "is_takeover_progress": 1,
        "item_type": 100
      },
      {
        "type": 10,
        "val": "3",
        "item_type": 100
      }
    ]
  },
  {
    "iname": "OB_TW_BABEL_02R_FLOOR_118",
    "objective": [
      {
        "type": 1,
        "val": "2",
        "item_type": 100
      },
      {
        "type": 20,
        "val": "UN_V2_EN_DEMON_WIZ_VEDA_118,2",
        "item_type": 100
      },
      {
        "type": 7,
        "val": "Shine",
        "is_takeover_progress": 1,
        "item_type": 100
      }
    ]
  },
  {
    "iname": "OB_TW_BABEL_02R_FLOOR_119",
    "objective": [
      {
        "type": 55,
        "val": "3",
        "is_takeover_progress": 1,
        "item_type": 100
      },
      {
        "type": 22,
        "val": "UN_V2_BR_WALL_CTR_LARGE_UNIT_TOKKOU_DEL,2",
        "is_takeover_progress": 1,
        "item_type": 100
      },
      {
        "type": 20,
        "val": "UN_V2_EN_KAISER_119F,2",
        "item_type": 100
      }
    ]
  },
  {
    "iname": "OB_TW_BABEL_02R_FLOOR_120",
    "objective": [
      {
        "type": 55,
        "val": "2",
        "is_takeover_progress": 1,
        "item_type": 100
      },
      {
        "type": 20,
        "val": "UN_V2_EN_DIABLO_VEDA2_117,2",
        "item_type": 100
      },
      {
        "type": 10,
        "val": "3",
        "item_type": 100
      },
      {
        "type": 1,
        "val": "2",
        "item_type": 100
      },
      {
        "type": 27,
        "item_type": 100
      }
    ]
  },
  {
    "iname": "OB_TW_BABEL_02R_FLOOR_121",
    "objective": [
      {
        "type": 10,
        "val": "3",
        "item_type": 100
      },
      {
        "type": 11,
        "val": "0",
        "is_takeover_progress": 1,
        "item_type": 100
      },
      {
        "type": 1,
        "item_type": 100
      }
    ]
  }
]