[
  {
    "id": 1,
    "name": "通常用",
    "secret_max": 0
  },
  {
    "id": 2,
    "name": "大会用",
    "secret_max": 2
  },
  {
    "id": 3,
    "name": "通常用",
    "secret_max": 0
  }
]