[
  {
    "id": 0,
    "tower_iname": "tower00",
    "iname": "QE_VS_TOWER_03",
    "begin_at": "6/1/2017",
    "end_at": "6/30/2017 11:59:59 PM",
    "gift_begin_at": "7/1/2017",
    "gift_end_at": "7/14/2017 11:59:59 PM"
  },
  {
    "id": 1,
    "tower_iname": "tower01",
    "iname": "QE_VS_TOWER_06",
    "begin_at": "10/12/2017 3:00:00 PM",
    "end_at": "10/31/2017 11:59:59 PM",
    "gift_begin_at": "11/1/2017",
    "gift_end_at": "11/14/2017 11:59:59 PM"
  },
  {
    "id": 2,
    "tower_iname": "tower01",
    "iname": "QE_VS_TOWER_06",
    "begin_at": "12/21/2017 3:00:00 PM",
    "end_at": "1/4/2018 2:59:59 PM",
    "gift_begin_at": "1/4/2018 3:00:00 PM",
    "gift_end_at": "1/18/2018 11:59:59 PM"
  }
]