[
  {
    "schedule_id": 20180322,
    "rank_begin": 1,
    "rank_end": 1,
    "reward_id": "VS_BETA_RANK_RWD_01"
  },
  {
    "schedule_id": 20180322,
    "rank_begin": 2,
    "rank_end": 2,
    "reward_id": "VS_BETA_RANK_RWD_02"
  },
  {
    "schedule_id": 20180322,
    "rank_begin": 3,
    "rank_end": 3,
    "reward_id": "VS_BETA_RANK_RWD_03"
  },
  {
    "schedule_id": 20180322,
    "rank_begin": 4,
    "rank_end": 10,
    "reward_id": "VS_BETA_RANK_RWD_04"
  },
  {
    "schedule_id": 20180322,
    "rank_begin": 11,
    "rank_end": 50,
    "reward_id": "VS_BETA_RANK_RWD_05"
  },
  {
    "schedule_id": 20180322,
    "rank_begin": 51,
    "rank_end": 100,
    "reward_id": "VS_BETA_RANK_RWD_06"
  },
  {
    "schedule_id": 20180322,
    "rank_begin": 101,
    "rank_end": 500,
    "reward_id": "VS_BETA_RANK_RWD_07"
  },
  {
    "schedule_id": 20180322,
    "rank_begin": 501,
    "rank_end": 1000,
    "reward_id": "VS_BETA_RANK_RWD_08"
  },
  {
    "schedule_id": 20180322,
    "rank_begin": 1001,
    "rank_end": 2500,
    "reward_id": "VS_BETA_RANK_RWD_09"
  },
  {
    "schedule_id": 20180322,
    "rank_begin": 2501,
    "rank_end": 5000,
    "reward_id": "VS_BETA_RANK_RWD_10"
  },
  {
    "schedule_id": 20180426,
    "rank_begin": 1,
    "rank_end": 1,
    "reward_id": "VS_RANK_20180426_RWD_01"
  },
  {
    "schedule_id": 20180426,
    "rank_begin": 2,
    "rank_end": 2,
    "reward_id": "VS_RANK_20180426_RWD_02"
  },
  {
    "schedule_id": 20180426,
    "rank_begin": 3,
    "rank_end": 3,
    "reward_id": "VS_RANK_20180426_RWD_03"
  },
  {
    "schedule_id": 20180426,
    "rank_begin": 4,
    "rank_end": 10,
    "reward_id": "VS_RANK_20180426_RWD_04"
  },
  {
    "schedule_id": 20180426,
    "rank_begin": 11,
    "rank_end": 50,
    "reward_id": "VS_RANK_20180426_RWD_05"
  },
  {
    "schedule_id": 20180426,
    "rank_begin": 51,
    "rank_end": 100,
    "reward_id": "VS_RANK_20180426_RWD_06"
  },
  {
    "schedule_id": 20180426,
    "rank_begin": 101,
    "rank_end": 500,
    "reward_id": "VS_RANK_20180426_RWD_07"
  },
  {
    "schedule_id": 20180426,
    "rank_begin": 501,
    "rank_end": 1000,
    "reward_id": "VS_RANK_20180426_RWD_08"
  },
  {
    "schedule_id": 20180426,
    "rank_begin": 1001,
    "rank_end": 2500,
    "reward_id": "VS_RANK_20180426_RWD_09"
  },
  {
    "schedule_id": 20180426,
    "rank_begin": 2501,
    "rank_end": 5000,
    "reward_id": "VS_RANK_20180426_RWD_10"
  },
  {
    "schedule_id": 20180607,
    "rank_begin": 1,
    "rank_end": 1,
    "reward_id": "VS_RANK_20180607_RWD_01"
  },
  {
    "schedule_id": 20180607,
    "rank_begin": 2,
    "rank_end": 2,
    "reward_id": "VS_RANK_20180607_RWD_02"
  },
  {
    "schedule_id": 20180607,
    "rank_begin": 3,
    "rank_end": 3,
    "reward_id": "VS_RANK_20180607_RWD_03"
  },
  {
    "schedule_id": 20180607,
    "rank_begin": 4,
    "rank_end": 10,
    "reward_id": "VS_RANK_20180607_RWD_04"
  },
  {
    "schedule_id": 20180607,
    "rank_begin": 11,
    "rank_end": 50,
    "reward_id": "VS_RANK_20180607_RWD_05"
  },
  {
    "schedule_id": 20180607,
    "rank_begin": 51,
    "rank_end": 100,
    "reward_id": "VS_RANK_20180607_RWD_06"
  },
  {
    "schedule_id": 20180607,
    "rank_begin": 101,
    "rank_end": 500,
    "reward_id": "VS_RANK_20180607_RWD_07"
  },
  {
    "schedule_id": 20180607,
    "rank_begin": 501,
    "rank_end": 1000,
    "reward_id": "VS_RANK_20180607_RWD_08"
  },
  {
    "schedule_id": 20180607,
    "rank_begin": 1001,
    "rank_end": 2500,
    "reward_id": "VS_RANK_20180607_RWD_09"
  },
  {
    "schedule_id": 20180607,
    "rank_begin": 2501,
    "rank_end": 5000,
    "reward_id": "VS_RANK_20180607_RWD_10"
  },
  {
    "schedule_id": 20180621,
    "rank_begin": 1,
    "rank_end": 1,
    "reward_id": "VS_RANK_20180621_RWD_01"
  },
  {
    "schedule_id": 20180621,
    "rank_begin": 2,
    "rank_end": 2,
    "reward_id": "VS_RANK_20180621_RWD_02"
  },
  {
    "schedule_id": 20180621,
    "rank_begin": 3,
    "rank_end": 3,
    "reward_id": "VS_RANK_20180621_RWD_03"
  },
  {
    "schedule_id": 20180621,
    "rank_begin": 4,
    "rank_end": 10,
    "reward_id": "VS_RANK_20180621_RWD_04"
  },
  {
    "schedule_id": 20180621,
    "rank_begin": 11,
    "rank_end": 50,
    "reward_id": "VS_RANK_20180621_RWD_05"
  },
  {
    "schedule_id": 20180621,
    "rank_begin": 51,
    "rank_end": 100,
    "reward_id": "VS_RANK_20180621_RWD_06"
  },
  {
    "schedule_id": 20180621,
    "rank_begin": 101,
    "rank_end": 500,
    "reward_id": "VS_RANK_20180621_RWD_07"
  },
  {
    "schedule_id": 20180621,
    "rank_begin": 501,
    "rank_end": 1000,
    "reward_id": "VS_RANK_20180621_RWD_08"
  },
  {
    "schedule_id": 20180621,
    "rank_begin": 1001,
    "rank_end": 2500,
    "reward_id": "VS_RANK_20180621_RWD_09"
  },
  {
    "schedule_id": 20180621,
    "rank_begin": 2501,
    "rank_end": 5000,
    "reward_id": "VS_RANK_20180621_RWD_10"
  },
  {
    "schedule_id": 20180712,
    "rank_begin": 1,
    "rank_end": 1,
    "reward_id": "VS_RANK_20180712_RWD_01"
  },
  {
    "schedule_id": 20180712,
    "rank_begin": 2,
    "rank_end": 2,
    "reward_id": "VS_RANK_20180712_RWD_02"
  },
  {
    "schedule_id": 20180712,
    "rank_begin": 3,
    "rank_end": 3,
    "reward_id": "VS_RANK_20180712_RWD_03"
  },
  {
    "schedule_id": 20180712,
    "rank_begin": 4,
    "rank_end": 10,
    "reward_id": "VS_RANK_20180712_RWD_04"
  },
  {
    "schedule_id": 20180712,
    "rank_begin": 11,
    "rank_end": 50,
    "reward_id": "VS_RANK_20180712_RWD_05"
  },
  {
    "schedule_id": 20180712,
    "rank_begin": 51,
    "rank_end": 100,
    "reward_id": "VS_RANK_20180712_RWD_06"
  },
  {
    "schedule_id": 20180712,
    "rank_begin": 101,
    "rank_end": 500,
    "reward_id": "VS_RANK_20180712_RWD_07"
  },
  {
    "schedule_id": 20180712,
    "rank_begin": 501,
    "rank_end": 1000,
    "reward_id": "VS_RANK_20180712_RWD_08"
  },
  {
    "schedule_id": 20180712,
    "rank_begin": 1001,
    "rank_end": 2500,
    "reward_id": "VS_RANK_20180712_RWD_09"
  },
  {
    "schedule_id": 20180712,
    "rank_begin": 2501,
    "rank_end": 5000,
    "reward_id": "VS_RANK_20180712_RWD_10"
  },
  {
    "schedule_id": 20180809,
    "rank_begin": 1,
    "rank_end": 1,
    "reward_id": "VS_RANK_20180809_RWD_01"
  },
  {
    "schedule_id": 20180809,
    "rank_begin": 2,
    "rank_end": 2,
    "reward_id": "VS_RANK_20180809_RWD_02"
  },
  {
    "schedule_id": 20180809,
    "rank_begin": 3,
    "rank_end": 3,
    "reward_id": "VS_RANK_20180809_RWD_03"
  },
  {
    "schedule_id": 20180809,
    "rank_begin": 4,
    "rank_end": 10,
    "reward_id": "VS_RANK_20180809_RWD_04"
  },
  {
    "schedule_id": 20180809,
    "rank_begin": 11,
    "rank_end": 50,
    "reward_id": "VS_RANK_20180809_RWD_05"
  },
  {
    "schedule_id": 20180809,
    "rank_begin": 51,
    "rank_end": 100,
    "reward_id": "VS_RANK_20180809_RWD_06"
  },
  {
    "schedule_id": 20180809,
    "rank_begin": 101,
    "rank_end": 500,
    "reward_id": "VS_RANK_20180809_RWD_07"
  },
  {
    "schedule_id": 20180809,
    "rank_begin": 501,
    "rank_end": 1000,
    "reward_id": "VS_RANK_20180809_RWD_08"
  },
  {
    "schedule_id": 20180809,
    "rank_begin": 1001,
    "rank_end": 2500,
    "reward_id": "VS_RANK_20180809_RWD_09"
  },
  {
    "schedule_id": 20180809,
    "rank_begin": 2501,
    "rank_end": 5000,
    "reward_id": "VS_RANK_20180809_RWD_10"
  },
  {
    "schedule_id": 20180823,
    "rank_begin": 1,
    "rank_end": 1,
    "reward_id": "VS_RANK_20180823_RWD_01"
  },
  {
    "schedule_id": 20180823,
    "rank_begin": 2,
    "rank_end": 2,
    "reward_id": "VS_RANK_20180823_RWD_02"
  },
  {
    "schedule_id": 20180823,
    "rank_begin": 3,
    "rank_end": 3,
    "reward_id": "VS_RANK_20180823_RWD_03"
  },
  {
    "schedule_id": 20180823,
    "rank_begin": 4,
    "rank_end": 10,
    "reward_id": "VS_RANK_20180823_RWD_04"
  },
  {
    "schedule_id": 20180823,
    "rank_begin": 11,
    "rank_end": 50,
    "reward_id": "VS_RANK_20180823_RWD_05"
  },
  {
    "schedule_id": 20180823,
    "rank_begin": 51,
    "rank_end": 100,
    "reward_id": "VS_RANK_20180823_RWD_06"
  },
  {
    "schedule_id": 20180823,
    "rank_begin": 101,
    "rank_end": 500,
    "reward_id": "VS_RANK_20180823_RWD_07"
  },
  {
    "schedule_id": 20180823,
    "rank_begin": 501,
    "rank_end": 1000,
    "reward_id": "VS_RANK_20180823_RWD_08"
  },
  {
    "schedule_id": 20180823,
    "rank_begin": 1001,
    "rank_end": 2500,
    "reward_id": "VS_RANK_20180823_RWD_09"
  },
  {
    "schedule_id": 20180823,
    "rank_begin": 2501,
    "rank_end": 5000,
    "reward_id": "VS_RANK_20180823_RWD_10"
  },
  {
    "schedule_id": 20190124,
    "rank_begin": 1,
    "rank_end": 1,
    "reward_id": "VS_S2_PLAYER_RANK_20190124_RWD_01"
  },
  {
    "schedule_id": 20190124,
    "rank_begin": 2,
    "rank_end": 2,
    "reward_id": "VS_S2_PLAYER_RANK_20190124_RWD_02"
  },
  {
    "schedule_id": 20190124,
    "rank_begin": 3,
    "rank_end": 3,
    "reward_id": "VS_S2_PLAYER_RANK_20190124_RWD_03"
  },
  {
    "schedule_id": 20190124,
    "rank_begin": 4,
    "rank_end": 10,
    "reward_id": "VS_S2_PLAYER_RANK_20190124_RWD_04"
  },
  {
    "schedule_id": 20190124,
    "rank_begin": 11,
    "rank_end": 50,
    "reward_id": "VS_S2_PLAYER_RANK_20190124_RWD_05"
  },
  {
    "schedule_id": 20190124,
    "rank_begin": 51,
    "rank_end": 100,
    "reward_id": "VS_S2_PLAYER_RANK_20190124_RWD_06"
  },
  {
    "schedule_id": 20190124,
    "rank_begin": 101,
    "rank_end": 500,
    "reward_id": "VS_S2_PLAYER_RANK_20190124_RWD_07"
  },
  {
    "schedule_id": 20190124,
    "rank_begin": 501,
    "rank_end": 1000,
    "reward_id": "VS_S2_PLAYER_RANK_20190124_RWD_08"
  },
  {
    "schedule_id": 20190221,
    "rank_begin": 1,
    "rank_end": 1,
    "reward_id": "VS_MAINTENANCE_PLAYER_RANK_20190221_RWD_01"
  },
  {
    "schedule_id": 20190221,
    "rank_begin": 2,
    "rank_end": 2,
    "reward_id": "VS_MAINTENANCE_PLAYER_RANK_20190221_RWD_02"
  },
  {
    "schedule_id": 20190221,
    "rank_begin": 3,
    "rank_end": 3,
    "reward_id": "VS_MAINTENANCE_PLAYER_RANK_20190221_RWD_03"
  },
  {
    "schedule_id": 20190221,
    "rank_begin": 4,
    "rank_end": 10,
    "reward_id": "VS_MAINTENANCE_PLAYER_RANK_20190221_RWD_04"
  },
  {
    "schedule_id": 20190221,
    "rank_begin": 11,
    "rank_end": 50,
    "reward_id": "VS_MAINTENANCE_PLAYER_RANK_20190221_RWD_05"
  },
  {
    "schedule_id": 20190221,
    "rank_begin": 51,
    "rank_end": 100,
    "reward_id": "VS_MAINTENANCE_PLAYER_RANK_20190221_RWD_06"
  },
  {
    "schedule_id": 20190221,
    "rank_begin": 101,
    "rank_end": 500,
    "reward_id": "VS_MAINTENANCE_PLAYER_RANK_20190221_RWD_07"
  },
  {
    "schedule_id": 20190221,
    "rank_begin": 501,
    "rank_end": 1000,
    "reward_id": "VS_MAINTENANCE_PLAYER_RANK_20190221_RWD_08"
  },
  {
    "schedule_id": 20190307,
    "rank_begin": 1,
    "rank_end": 1,
    "reward_id": "VS_S3_PLAYER_RANK_20190307_RWD_01"
  },
  {
    "schedule_id": 20190307,
    "rank_begin": 2,
    "rank_end": 2,
    "reward_id": "VS_S3_PLAYER_RANK_20190307_RWD_02"
  },
  {
    "schedule_id": 20190307,
    "rank_begin": 3,
    "rank_end": 3,
    "reward_id": "VS_S3_PLAYER_RANK_20190307_RWD_03"
  },
  {
    "schedule_id": 20190307,
    "rank_begin": 4,
    "rank_end": 10,
    "reward_id": "VS_S3_PLAYER_RANK_20190307_RWD_04"
  },
  {
    "schedule_id": 20190307,
    "rank_begin": 11,
    "rank_end": 50,
    "reward_id": "VS_S3_PLAYER_RANK_20190307_RWD_05"
  },
  {
    "schedule_id": 20190307,
    "rank_begin": 51,
    "rank_end": 100,
    "reward_id": "VS_S3_PLAYER_RANK_20190307_RWD_06"
  },
  {
    "schedule_id": 20190307,
    "rank_begin": 101,
    "rank_end": 500,
    "reward_id": "VS_S3_PLAYER_RANK_20190307_RWD_07"
  },
  {
    "schedule_id": 20190307,
    "rank_begin": 501,
    "rank_end": 1000,
    "reward_id": "VS_S3_PLAYER_RANK_20190307_RWD_08"
  },
  {
    "schedule_id": 20190425,
    "rank_begin": 1,
    "rank_end": 1,
    "reward_id": "VS_B2_PLAYER_RANK_20190425_RWD_01"
  },
  {
    "schedule_id": 20190425,
    "rank_begin": 2,
    "rank_end": 2,
    "reward_id": "VS_B2_PLAYER_RANK_20190425_RWD_02"
  },
  {
    "schedule_id": 20190425,
    "rank_begin": 3,
    "rank_end": 3,
    "reward_id": "VS_B2_PLAYER_RANK_20190425_RWD_03"
  },
  {
    "schedule_id": 20190425,
    "rank_begin": 4,
    "rank_end": 10,
    "reward_id": "VS_B2_PLAYER_RANK_20190425_RWD_04"
  },
  {
    "schedule_id": 20190425,
    "rank_begin": 11,
    "rank_end": 50,
    "reward_id": "VS_B2_PLAYER_RANK_20190425_RWD_05"
  },
  {
    "schedule_id": 20190425,
    "rank_begin": 51,
    "rank_end": 100,
    "reward_id": "VS_B2_PLAYER_RANK_20190425_RWD_06"
  },
  {
    "schedule_id": 20190425,
    "rank_begin": 101,
    "rank_end": 500,
    "reward_id": "VS_B2_PLAYER_RANK_20190425_RWD_07"
  },
  {
    "schedule_id": 20190425,
    "rank_begin": 501,
    "rank_end": 1000,
    "reward_id": "VS_B2_PLAYER_RANK_20190425_RWD_08"
  },
  {
    "schedule_id": 20190711,
    "rank_begin": 1,
    "rank_end": 1,
    "reward_id": "VS_S4_PLAYER_RANK_20190711_RWD_01"
  },
  {
    "schedule_id": 20190711,
    "rank_begin": 2,
    "rank_end": 2,
    "reward_id": "VS_S4_PLAYER_RANK_20190711_RWD_02"
  },
  {
    "schedule_id": 20190711,
    "rank_begin": 3,
    "rank_end": 3,
    "reward_id": "VS_S4_PLAYER_RANK_20190711_RWD_03"
  },
  {
    "schedule_id": 20190711,
    "rank_begin": 4,
    "rank_end": 10,
    "reward_id": "VS_S4_PLAYER_RANK_20190711_RWD_04"
  },
  {
    "schedule_id": 20190711,
    "rank_begin": 11,
    "rank_end": 50,
    "reward_id": "VS_S4_PLAYER_RANK_20190711_RWD_05"
  },
  {
    "schedule_id": 20190711,
    "rank_begin": 51,
    "rank_end": 100,
    "reward_id": "VS_S4_PLAYER_RANK_20190711_RWD_06"
  },
  {
    "schedule_id": 20190711,
    "rank_begin": 101,
    "rank_end": 500,
    "reward_id": "VS_S4_PLAYER_RANK_20190711_RWD_07"
  },
  {
    "schedule_id": 20190711,
    "rank_begin": 501,
    "rank_end": 1000,
    "reward_id": "VS_S4_PLAYER_RANK_20190711_RWD_08"
  },
  {
    "schedule_id": 20190815,
    "rank_begin": 1,
    "rank_end": 1,
    "reward_id": "VS_S5_PLAYER_RANK_20190815_RWD_01"
  },
  {
    "schedule_id": 20190815,
    "rank_begin": 2,
    "rank_end": 2,
    "reward_id": "VS_S5_PLAYER_RANK_20190815_RWD_02"
  },
  {
    "schedule_id": 20190815,
    "rank_begin": 3,
    "rank_end": 3,
    "reward_id": "VS_S5_PLAYER_RANK_20190815_RWD_03"
  },
  {
    "schedule_id": 20190815,
    "rank_begin": 4,
    "rank_end": 10,
    "reward_id": "VS_S5_PLAYER_RANK_20190815_RWD_04"
  },
  {
    "schedule_id": 20190815,
    "rank_begin": 11,
    "rank_end": 50,
    "reward_id": "VS_S5_PLAYER_RANK_20190815_RWD_05"
  },
  {
    "schedule_id": 20190815,
    "rank_begin": 51,
    "rank_end": 100,
    "reward_id": "VS_S5_PLAYER_RANK_20190815_RWD_06"
  },
  {
    "schedule_id": 20190815,
    "rank_begin": 101,
    "rank_end": 500,
    "reward_id": "VS_S5_PLAYER_RANK_20190815_RWD_07"
  },
  {
    "schedule_id": 20190815,
    "rank_begin": 501,
    "rank_end": 1000,
    "reward_id": "VS_S5_PLAYER_RANK_20190815_RWD_08"
  },
  {
    "schedule_id": 20191010,
    "rank_begin": 1,
    "rank_end": 1,
    "reward_id": "VS_S6_PLAYER_RANK_20191010_RWD_01"
  },
  {
    "schedule_id": 20191010,
    "rank_begin": 2,
    "rank_end": 2,
    "reward_id": "VS_S6_PLAYER_RANK_20191010_RWD_02"
  },
  {
    "schedule_id": 20191010,
    "rank_begin": 3,
    "rank_end": 3,
    "reward_id": "VS_S6_PLAYER_RANK_20191010_RWD_03"
  },
  {
    "schedule_id": 20191010,
    "rank_begin": 4,
    "rank_end": 10,
    "reward_id": "VS_S6_PLAYER_RANK_20191010_RWD_04"
  },
  {
    "schedule_id": 20191010,
    "rank_begin": 11,
    "rank_end": 50,
    "reward_id": "VS_S6_PLAYER_RANK_20191010_RWD_05"
  },
  {
    "schedule_id": 20191010,
    "rank_begin": 51,
    "rank_end": 100,
    "reward_id": "VS_S6_PLAYER_RANK_20191010_RWD_06"
  },
  {
    "schedule_id": 20191010,
    "rank_begin": 101,
    "rank_end": 500,
    "reward_id": "VS_S6_PLAYER_RANK_20191010_RWD_07"
  },
  {
    "schedule_id": 20191010,
    "rank_begin": 501,
    "rank_end": 1000,
    "reward_id": "VS_S6_PLAYER_RANK_20191010_RWD_08"
  },
  {
    "schedule_id": 20200206,
    "rank_begin": 1,
    "rank_end": 1,
    "reward_id": "VS_S7_PLAYER_RANK_20200206_RWD_01"
  },
  {
    "schedule_id": 20200206,
    "rank_begin": 2,
    "rank_end": 2,
    "reward_id": "VS_S7_PLAYER_RANK_20200206_RWD_02"
  },
  {
    "schedule_id": 20200206,
    "rank_begin": 3,
    "rank_end": 3,
    "reward_id": "VS_S7_PLAYER_RANK_20200206_RWD_03"
  },
  {
    "schedule_id": 20200206,
    "rank_begin": 4,
    "rank_end": 10,
    "reward_id": "VS_S7_PLAYER_RANK_20200206_RWD_04"
  },
  {
    "schedule_id": 20200206,
    "rank_begin": 11,
    "rank_end": 50,
    "reward_id": "VS_S7_PLAYER_RANK_20200206_RWD_05"
  },
  {
    "schedule_id": 20200206,
    "rank_begin": 51,
    "rank_end": 100,
    "reward_id": "VS_S7_PLAYER_RANK_20200206_RWD_06"
  },
  {
    "schedule_id": 20200206,
    "rank_begin": 101,
    "rank_end": 500,
    "reward_id": "VS_S7_PLAYER_RANK_20200206_RWD_07"
  },
  {
    "schedule_id": 20200206,
    "rank_begin": 501,
    "rank_end": 1000,
    "reward_id": "VS_S7_PLAYER_RANK_20200206_RWD_08"
  },
  {
    "schedule_id": 20200507,
    "rank_begin": 1,
    "rank_end": 1,
    "reward_id": "VS_S8_PLAYER_RANK_20200507_RWD_01"
  },
  {
    "schedule_id": 20200507,
    "rank_begin": 2,
    "rank_end": 2,
    "reward_id": "VS_S8_PLAYER_RANK_20200507_RWD_02"
  },
  {
    "schedule_id": 20200507,
    "rank_begin": 3,
    "rank_end": 3,
    "reward_id": "VS_S8_PLAYER_RANK_20200507_RWD_03"
  },
  {
    "schedule_id": 20200507,
    "rank_begin": 4,
    "rank_end": 10,
    "reward_id": "VS_S8_PLAYER_RANK_20200507_RWD_04"
  },
  {
    "schedule_id": 20200507,
    "rank_begin": 11,
    "rank_end": 50,
    "reward_id": "VS_S8_PLAYER_RANK_20200507_RWD_05"
  },
  {
    "schedule_id": 20200507,
    "rank_begin": 51,
    "rank_end": 100,
    "reward_id": "VS_S8_PLAYER_RANK_20200507_RWD_06"
  },
  {
    "schedule_id": 20200507,
    "rank_begin": 101,
    "rank_end": 500,
    "reward_id": "VS_S8_PLAYER_RANK_20200507_RWD_07"
  },
  {
    "schedule_id": 20200507,
    "rank_begin": 501,
    "rank_end": 1000,
    "reward_id": "VS_S8_PLAYER_RANK_20200507_RWD_08"
  },
  {
    "schedule_id": 20201112,
    "rank_begin": 1,
    "rank_end": 1,
    "reward_id": "VS_S9_PLAYER_RANK_20201112_RWD_01"
  },
  {
    "schedule_id": 20201112,
    "rank_begin": 2,
    "rank_end": 2,
    "reward_id": "VS_S9_PLAYER_RANK_20201112_RWD_02"
  },
  {
    "schedule_id": 20201112,
    "rank_begin": 3,
    "rank_end": 3,
    "reward_id": "VS_S9_PLAYER_RANK_20201112_RWD_03"
  },
  {
    "schedule_id": 20201112,
    "rank_begin": 4,
    "rank_end": 10,
    "reward_id": "VS_S9_PLAYER_RANK_20201112_RWD_04"
  },
  {
    "schedule_id": 20201112,
    "rank_begin": 11,
    "rank_end": 50,
    "reward_id": "VS_S9_PLAYER_RANK_20201112_RWD_05"
  },
  {
    "schedule_id": 20201112,
    "rank_begin": 51,
    "rank_end": 100,
    "reward_id": "VS_S9_PLAYER_RANK_20201112_RWD_06"
  },
  {
    "schedule_id": 20201112,
    "rank_begin": 101,
    "rank_end": 500,
    "reward_id": "VS_S9_PLAYER_RANK_20201112_RWD_07"
  },
  {
    "schedule_id": 20201112,
    "rank_begin": 501,
    "rank_end": 1000,
    "reward_id": "VS_S9_PLAYER_RANK_20201112_RWD_08"
  },
  {
    "schedule_id": 20210429,
    "rank_begin": 1,
    "rank_end": 1,
    "reward_id": "VS_S10_PLAYER_RANK_20210429_RWD_01"
  },
  {
    "schedule_id": 20210429,
    "rank_begin": 2,
    "rank_end": 2,
    "reward_id": "VS_S10_PLAYER_RANK_20210429_RWD_02"
  },
  {
    "schedule_id": 20210429,
    "rank_begin": 3,
    "rank_end": 3,
    "reward_id": "VS_S10_PLAYER_RANK_20210429_RWD_03"
  },
  {
    "schedule_id": 20210429,
    "rank_begin": 4,
    "rank_end": 10,
    "reward_id": "VS_S10_PLAYER_RANK_20210429_RWD_04"
  },
  {
    "schedule_id": 20210429,
    "rank_begin": 11,
    "rank_end": 50,
    "reward_id": "VS_S10_PLAYER_RANK_20210429_RWD_05"
  },
  {
    "schedule_id": 20210429,
    "rank_begin": 51,
    "rank_end": 100,
    "reward_id": "VS_S10_PLAYER_RANK_20210429_RWD_06"
  },
  {
    "schedule_id": 20210429,
    "rank_begin": 101,
    "rank_end": 500,
    "reward_id": "VS_S10_PLAYER_RANK_20210429_RWD_07"
  },
  {
    "schedule_id": 20210429,
    "rank_begin": 501,
    "rank_end": 1000,
    "reward_id": "VS_S10_PLAYER_RANK_20210429_RWD_08"
  },
  {
    "schedule_id": 20210624,
    "rank_begin": 1,
    "rank_end": 1,
    "reward_id": "VS_S10_PLAYER_RANK_20210624_RWD_01"
  },
  {
    "schedule_id": 20210624,
    "rank_begin": 2,
    "rank_end": 2,
    "reward_id": "VS_S10_PLAYER_RANK_20210624_RWD_02"
  },
  {
    "schedule_id": 20210624,
    "rank_begin": 3,
    "rank_end": 3,
    "reward_id": "VS_S10_PLAYER_RANK_20210624_RWD_03"
  },
  {
    "schedule_id": 20210624,
    "rank_begin": 4,
    "rank_end": 10,
    "reward_id": "VS_S10_PLAYER_RANK_20210624_RWD_04"
  },
  {
    "schedule_id": 20210624,
    "rank_begin": 11,
    "rank_end": 50,
    "reward_id": "VS_S10_PLAYER_RANK_20210624_RWD_05"
  },
  {
    "schedule_id": 20210624,
    "rank_begin": 51,
    "rank_end": 100,
    "reward_id": "VS_S10_PLAYER_RANK_20210624_RWD_06"
  },
  {
    "schedule_id": 20210624,
    "rank_begin": 101,
    "rank_end": 500,
    "reward_id": "VS_S10_PLAYER_RANK_20210624_RWD_07"
  },
  {
    "schedule_id": 20210624,
    "rank_begin": 501,
    "rank_end": 1000,
    "reward_id": "VS_S10_PLAYER_RANK_20210624_RWD_08"
  },
  {
    "schedule_id": 20210729,
    "rank_begin": 1,
    "rank_end": 1,
    "reward_id": "VS_S11_PLAYER_RANK_20210729_RWD_01"
  },
  {
    "schedule_id": 20210729,
    "rank_begin": 2,
    "rank_end": 2,
    "reward_id": "VS_S11_PLAYER_RANK_20210729_RWD_02"
  },
  {
    "schedule_id": 20210729,
    "rank_begin": 3,
    "rank_end": 3,
    "reward_id": "VS_S11_PLAYER_RANK_20210729_RWD_03"
  },
  {
    "schedule_id": 20210729,
    "rank_begin": 4,
    "rank_end": 10,
    "reward_id": "VS_S11_PLAYER_RANK_20210729_RWD_04"
  },
  {
    "schedule_id": 20210729,
    "rank_begin": 11,
    "rank_end": 50,
    "reward_id": "VS_S11_PLAYER_RANK_20210729_RWD_05"
  },
  {
    "schedule_id": 20210729,
    "rank_begin": 51,
    "rank_end": 100,
    "reward_id": "VS_S11_PLAYER_RANK_20210729_RWD_06"
  },
  {
    "schedule_id": 20210729,
    "rank_begin": 101,
    "rank_end": 500,
    "reward_id": "VS_S11_PLAYER_RANK_20210729_RWD_07"
  },
  {
    "schedule_id": 20210729,
    "rank_begin": 501,
    "rank_end": 1000,
    "reward_id": "VS_S11_PLAYER_RANK_20210729_RWD_08"
  },
  {
    "schedule_id": 20211028,
    "rank_begin": 1,
    "rank_end": 1,
    "reward_id": "VS_S12_PLAYER_RANK_20211028_RWD_01"
  },
  {
    "schedule_id": 20211028,
    "rank_begin": 2,
    "rank_end": 2,
    "reward_id": "VS_S12_PLAYER_RANK_20211028_RWD_02"
  },
  {
    "schedule_id": 20211028,
    "rank_begin": 3,
    "rank_end": 3,
    "reward_id": "VS_S12_PLAYER_RANK_20211028_RWD_03"
  },
  {
    "schedule_id": 20211028,
    "rank_begin": 4,
    "rank_end": 10,
    "reward_id": "VS_S12_PLAYER_RANK_20211028_RWD_04"
  },
  {
    "schedule_id": 20211028,
    "rank_begin": 11,
    "rank_end": 50,
    "reward_id": "VS_S12_PLAYER_RANK_20211028_RWD_05"
  },
  {
    "schedule_id": 20211028,
    "rank_begin": 51,
    "rank_end": 100,
    "reward_id": "VS_S12_PLAYER_RANK_20211028_RWD_06"
  },
  {
    "schedule_id": 20211028,
    "rank_begin": 101,
    "rank_end": 500,
    "reward_id": "VS_S12_PLAYER_RANK_20211028_RWD_07"
  },
  {
    "schedule_id": 20211028,
    "rank_begin": 501,
    "rank_end": 1000,
    "reward_id": "VS_S12_PLAYER_RANK_20211028_RWD_08"
  }
]